lab3/VHDL/overall.vcd
$date
	Fri Nov 11 19:38:08 2016
$end
$version
	Icarus Verilog
$end
$timescale
	1s
$end
$scope module overall_testbench $end
$var wire 7 ! scan2_state_display [6:0] $end
$var wire 7 " scan2_prog2_display [6:0] $end
$var wire 7 # scan2_prog1_display [6:0] $end
$var wire 7 $ scan1_state_display [6:0] $end
$var wire 7 % scan1_prog2_display [6:0] $end
$var wire 7 & scan1_prog1_display [6:0] $end
$var reg 1 ' clk $end
$var reg 1 ( initialOn $end
$var reg 1 ) reset $end
$var reg 1 * startTransfer $end
$scope module dut $end
$var wire 1 ' clk $end
$var wire 1 ( initialOn $end
$var wire 1 ) reset $end
$var wire 1 * startTransfer $end
$var wire 3 + scan2_state [2:0] $end
$var wire 4 , scan2_prog [3:0] $end
$var wire 1 - scan2_otherStartScan $end
$var wire 1 . scan2_otherGoToStandby $end
$var wire 1 / scan2_otherFlush $end
$var wire 3 0 scan1_state [2:0] $end
$var wire 4 1 scan1_prog [3:0] $end
$var wire 1 2 scan1_otherStartScan $end
$var wire 1 3 scan1_otherGoToStandby $end
$var wire 1 4 scan1_otherFlush $end
$var reg 7 5 scan1_prog1_display [6:0] $end
$var reg 7 6 scan1_prog2_display [6:0] $end
$var reg 7 7 scan1_state_display [6:0] $end
$var reg 7 8 scan2_prog1_display [6:0] $end
$var reg 7 9 scan2_prog2_display [6:0] $end
$var reg 7 : scan2_state_display [6:0] $end
$scope module scan1 $end
$var wire 1 ' clk $end
$var wire 1 ( initialOn $end
$var wire 1 4 otherFlush $end
$var wire 1 3 otherGoToStandby $end
$var wire 1 2 otherStartScan $end
$var wire 1 ) reset $end
$var wire 1 * startTransfer $end
$var wire 1 ; whichScanner $end
$var wire 3 < state [2:0] $end
$var wire 1 - startScan $end
$var wire 1 . goToStandby $end
$var wire 1 / flush $end
$var wire 4 = buffer_progress [3:0] $end
$scope module prog $end
$var wire 1 ' clk $end
$var wire 1 ) reset $end
$var wire 4 > val [3:0] $end
$var wire 3 ? state [2:0] $end
$var wire 32 @ divided_clocks [31:0] $end
$var reg 1 A down $end
$var reg 1 B final_clock $end
$var reg 1 C up $end
$scope module div $end
$var wire 1 ' clk $end
$var wire 32 D divided_clocks [31:0] $end
$var reg 32 E clocks [31:0] $end
$upscope $end
$scope module prog $end
$var wire 1 B clk $end
$var wire 1 A down $end
$var wire 1 ) reset $end
$var wire 1 C up $end
$var wire 4 F val [3:0] $end
$var reg 4 G ns [3:0] $end
$var reg 4 H ps [3:0] $end
$upscope $end
$upscope $end
$scope module statedet $end
$var wire 1 ' clk $end
$var wire 1 ( initialOn $end
$var wire 4 I prog [3:0] $end
$var wire 1 ) reset $end
$var wire 1 * startTransfer $end
$var wire 3 J state [2:0] $end
$var wire 1 ; whichScanner $end
$var wire 1 - startScan $end
$var wire 1 . goToStandby $end
$var wire 1 / flush $end
$var reg 1 K active $end
$var reg 3 L ns [2:0] $end
$var reg 3 M ps [2:0] $end
$upscope $end
$upscope $end
$scope module scan2 $end
$var wire 1 ' clk $end
$var wire 1 4 flush $end
$var wire 1 3 goToStandby $end
$var wire 1 ( initialOn $end
$var wire 1 / otherFlush $end
$var wire 1 . otherGoToStandby $end
$var wire 1 - otherStartScan $end
$var wire 1 ) reset $end
$var wire 1 2 startScan $end
$var wire 1 * startTransfer $end
$var wire 1 N whichScanner $end
$var wire 3 O state [2:0] $end
$var wire 4 P buffer_progress [3:0] $end
$scope module prog $end
$var wire 1 ' clk $end
$var wire 1 ) reset $end
$var wire 4 Q val [3:0] $end
$var wire 3 R state [2:0] $end
$var wire 32 S divided_clocks [31:0] $end
$var reg 1 T down $end
$var reg 1 U final_clock $end
$var reg 1 V up $end
$scope module div $end
$var wire 1 ' clk $end
$var wire 32 W divided_clocks [31:0] $end
$var reg 32 X clocks [31:0] $end
$upscope $end
$scope module prog $end
$var wire 1 U clk $end
$var wire 1 T down $end
$var wire 1 ) reset $end
$var wire 1 V up $end
$var wire 4 Y val [3:0] $end
$var reg 4 Z ns [3:0] $end
$var reg 4 [ ps [3:0] $end
$upscope $end
$upscope $end
$scope module statedet $end
$var wire 1 ' clk $end
$var wire 1 4 flush $end
$var wire 1 3 goToStandby $end
$var wire 1 ( initialOn $end
$var wire 4 \ prog [3:0] $end
$var wire 1 ) reset $end
$var wire 1 2 startScan $end
$var wire 1 * startTransfer $end
$var wire 3 ] state [2:0] $end
$var wire 1 N whichScanner $end
$var reg 1 ^ active $end
$var reg 3 _ ns [2:0] $end
$var reg 3 ` ps [2:0] $end
$upscope $end
$upscope $end
$upscope $end
$upscope $end
$enddefinitions $end
#0
$dumpvars
bx `
b0 _
0^
bx ]
bx \
bx [
bx Z
bx Y
b0 X
b0 W
0V
0U
0T
b0 S
bx R
bx Q
bx P
bx O
0N
bx M
b0 L
0K
bx J
bx I
bx H
bx G
bx F
b0 E
b0 D
0C
0B
0A
b0 @
bx ?
bx >
bx =
bx <
1;
bx :
bx 9
bx 8
bx 7
bx 6
bx 5
x4
x3
x2
bx 1
bx 0
x/
x.
x-
bx ,
bx +
x*
1)
x(
0'
bx &
bx %
bx $
bx #
bx "
bx !
$end
#5
04
02
03
1B
0/
0-
0.
1U
b0 0
b0 <
b0 ?
b0 J
b0 M
b1 @
b1 D
b1 E
b0 +
b0 O
b0 R
b0 ]
b0 `
b1 S
b1 W
b1 X
0*
0(
0)
1'
#10
0'
#15
0U
0B
b10 S
b10 W
b10 X
b10 @
b10 D
b10 E
1'
#20
0'
#25
1B
1U
b10 L
1K
1^
b11 @
b11 D
b11 E
b11 S
b11 W
b11 X
1(
1'
#30
0'
#35
0U
x4
x2
x3
1C
0(
b100 S
b100 W
b100 X
b100 @
b100 D
b100 E
b10 0
b10 <
b10 ?
b10 J
b10 M
1'
#40
0'
#45
1U
b101 @
b101 D
b101 E
b101 S
b101 W
b101 X
1'
#50
0'
#55
0U
b110 S
b110 W
b110 X
b110 @
b110 D
b110 E
1'
#60
0'
#65
1U
b111 @
b111 D
b111 E
b111 S
b111 W
b111 X
1'
#70
0'
#75
0U
0B
b1000 S
b1000 W
b1000 X
b1000 @
b1000 D
b1000 E
1'
#80
0'
#85
1U
b1001 @
b1001 D
b1001 E
b1001 S
b1001 W
b1001 X
1'
#90
0'
#95
0U
b1010 S
b1010 W
b1010 X
b1010 @
b1010 D
b1010 E
1'
#100
0'
#105
1U
b1011 @
b1011 D
b1011 E
b1011 S
b1011 W
b1011 X
1'
#110
0'
#115
0U
1B
b1100 S
b1100 W
b1100 X
b1100 @
b1100 D
b1100 E
1'
#120
0'
#125
1U
b1101 @
b1101 D
b1101 E
b1101 S
b1101 W
b1101 X
1'
#130
0'
#135
0U
b1110 S
b1110 W
b1110 X
b1110 @
b1110 D
b1110 E
1'
#140
0'
#145
1U
b1111 @
b1111 D
b1111 E
b1111 S
b1111 W
b1111 X
1'
#150
0'
#155
0U
0B
b10000 S
b10000 W
b10000 X
b10000 @
b10000 D
b10000 E
1'
#160
0'
#165
1U
b10001 @
b10001 D
b10001 E
b10001 S
b10001 W
b10001 X
1'
#170
0'
#175
0U
b10010 S
b10010 W
b10010 X
b10010 @
b10010 D
b10010 E
1'
#180
0'
#185
1U
b10011 @
b10011 D
b10011 E
b10011 S
b10011 W
b10011 X
1'
#190
0'
#195
0U
1B
b10100 S
b10100 W
b10100 X
b10100 @
b10100 D
b10100 E
1'
#200
0'
#205
1U
b10101 @
b10101 D
b10101 E
b10101 S
b10101 W
b10101 X
1'
#210
0'
#215
0U
b10110 S
b10110 W
b10110 X
b10110 @
b10110 D
b10110 E
1'
#220
0'
#225
1U
b10111 @
b10111 D
b10111 E
b10111 S
b10111 W
b10111 X
1'
#230
0'
#235
0U
0B
b11000 S
b11000 W
b11000 X
b11000 @
b11000 D
b11000 E
1'
#240
0'
#245
1U
b11001 @
b11001 D
b11001 E
b11001 S
b11001 W
b11001 X
1'
#250
0'
#255
0U
b11010 S
b11010 W
b11010 X
b11010 @
b11010 D
b11010 E
1'
#260
0'
#265
1U
b11011 @
b11011 D
b11011 E
b11011 S
b11011 W
b11011 X
1'
#270
0'
#275
0U
1B
b11100 S
b11100 W
b11100 X
b11100 @
b11100 D
b11100 E
1'
#280
0'
#285
1U
b11101 @
b11101 D
b11101 E
b11101 S
b11101 W
b11101 X
1'
#290
0'
#295
0U
b11110 S
b11110 W
b11110 X
b11110 @
b11110 D
b11110 E
1'
#300
0'
#305
1U
b11111 @
b11111 D
b11111 E
b11111 S
b11111 W
b11111 X
1'
#310
0'
#315
0U
0B
b100000 S
b100000 W
b100000 X
b100000 @
b100000 D
b100000 E
1'
#320
0'
#325
1U
b100001 @
b100001 D
b100001 E
b100001 S
b100001 W
b100001 X
1'
#330
0'
#335
0U
b100010 S
b100010 W
b100010 X
b100010 @
b100010 D
b100010 E
1'
#340
0'
#345
1U
b100011 @
b100011 D
b100011 E
b100011 S
b100011 W
b100011 X
1'
#350
0'
#355
0U
1B
b100100 S
b100100 W
b100100 X
b100100 @
b100100 D
b100100 E
1'
#360
0'
#365
1U
b100101 @
b100101 D
b100101 E
b100101 S
b100101 W
b100101 X
1'
#370
0'
#375
0U
b100110 S
b100110 W
b100110 X
b100110 @
b100110 D
b100110 E
1'
#380
0'
#385
1U
b100111 @
b100111 D
b100111 E
b100111 S
b100111 W
b100111 X
1'
#390
0'
#395
0U
0B
b101000 S
b101000 W
b101000 X
b101000 @
b101000 D
b101000 E
1'
#400
0'
#405
1U
b101001 @
b101001 D
b101001 E
b101001 S
b101001 W
b101001 X
1'
#410
0'
#415
0U
b101010 S
b101010 W
b101010 X
b101010 @
b101010 D
b101010 E
1'
#420
0'
#425
1U
b101011 @
b101011 D
b101011 E
b101011 S
b101011 W
b101011 X
1'
#430
0'
#435
0U
1B
b101100 S
b101100 W
b101100 X
b101100 @
b101100 D
b101100 E
1'
#440
0'
#445
1U
b101101 @
b101101 D
b101101 E
b101101 S
b101101 W
b101101 X
1'
#450
0'
#455
0U
b101110 S
b101110 W
b101110 X
b101110 @
b101110 D
b101110 E
1'
#460
0'
#465
1U
b101111 @
b101111 D
b101111 E
b101111 S
b101111 W
b101111 X
1'
#470
0'
#475
0U
0B
b110000 S
b110000 W
b110000 X
b110000 @
b110000 D
b110000 E
1'
#480
0'
#485
1U
b110001 @
b110001 D
b110001 E
b110001 S
b110001 W
b110001 X
1'
#490
0'
#495
0U
b110010 S
b110010 W
b110010 X
b110010 @
b110010 D
b110010 E
1'
#500
0'
#505
1U
b110011 @
b110011 D
b110011 E
b110011 S
b110011 W
b110011 X
1'
#510
0'
#515
0U
1B
b110100 S
b110100 W
b110100 X
b110100 @
b110100 D
b110100 E
1'
#520
0'
#525
1U
b110101 @
b110101 D
b110101 E
b110101 S
b110101 W
b110101 X
1'
#530
0'
#535
0U
b110110 S
b110110 W
b110110 X
b110110 @
b110110 D
b110110 E
1'
#540
0'
#545
1U
b110111 @
b110111 D
b110111 E
b110111 S
b110111 W
b110111 X
1'
#550
0'
#555
0U
0B
b111000 S
b111000 W
b111000 X
b111000 @
b111000 D
b111000 E
1'
#560
0'
#565
1U
b111001 @
b111001 D
b111001 E
b111001 S
b111001 W
b111001 X
1'
#570
0'
#575
0U
b111010 S
b111010 W
b111010 X
b111010 @
b111010 D
b111010 E
1'
#580
0'
#585
1U
b111011 @
b111011 D
b111011 E
b111011 S
b111011 W
b111011 X
1'
#590
0'
#595
0U
1B
b111100 S
b111100 W
b111100 X
b111100 @
b111100 D
b111100 E
1'
#600
0'
#605
1U
b111101 @
b111101 D
b111101 E
b111101 S
b111101 W
b111101 X
1'
#610
0'
#615
0U
b111110 S
b111110 W
b111110 X
b111110 @
b111110 D
b111110 E
1'
#620
0'
#625
1U
b111111 @
b111111 D
b111111 E
b111111 S
b111111 W
b111111 X
1'
#630
0'
#635
0U
0B
b1000000 S
b1000000 W
b1000000 X
b1000000 @
b1000000 D
b1000000 E
1'
#640
0'
#645
1U
b1000001 @
b1000001 D
b1000001 E
b1000001 S
b1000001 W
b1000001 X
1'
#650
0'
#655
0U
b1000010 S
b1000010 W
b1000010 X
b1000010 @
b1000010 D
b1000010 E
1'
#660
0'
#665
1U
b1000011 @
b1000011 D
b1000011 E
b1000011 S
b1000011 W
b1000011 X
1'
#670
0'
#675
0U
1B
b1000100 S
b1000100 W
b1000100 X
b1000100 @
b1000100 D
b1000100 E
1'
#680
0'
#685
1U
b1000101 @
b1000101 D
b1000101 E
b1000101 S
b1000101 W
b1000101 X
1'
#690
0'
#695
0U
b1000110 S
b1000110 W
b1000110 X
b1000110 @
b1000110 D
b1000110 E
1'
#700
0'
#705
1U
b1000111 @
b1000111 D
b1000111 E
b1000111 S
b1000111 W
b1000111 X
1'
#710
0'
#715
0U
0B
b1001000 S
b1001000 W
b1001000 X
b1001000 @
b1001000 D
b1001000 E
1'
#720
0'
#725
1U
b1001001 @
b1001001 D
b1001001 E
b1001001 S
b1001001 W
b1001001 X
1'
#730
0'
#735
0U
b1001010 S
b1001010 W
b1001010 X
b1001010 @
b1001010 D
b1001010 E
1'
#740
0'
#745
1U
b1001011 @
b1001011 D
b1001011 E
b1001011 S
b1001011 W
b1001011 X
1'
#750
0'
#755
0U
1B
b1001100 S
b1001100 W
b1001100 X
b1001100 @
b1001100 D
b1001100 E
1'
#760
0'
#765
1U
b1001101 @
b1001101 D
b1001101 E
b1001101 S
b1001101 W
b1001101 X
1'
#770
0'
#775
0U
b1001110 S
b1001110 W
b1001110 X
b1001110 @
b1001110 D
b1001110 E
1'
#780
0'
#785
1U
b1001111 @
b1001111 D
b1001111 E
b1001111 S
b1001111 W
b1001111 X
1'
#790
0'
#795
0U
0B
b1010000 S
b1010000 W
b1010000 X
b1010000 @
b1010000 D
b1010000 E
1'
#800
0'
#805
1U
b1010001 @
b1010001 D
b1010001 E
b1010001 S
b1010001 W
b1010001 X
1'
#810
0'
#815
0U
b1010010 S
b1010010 W
b1010010 X
b1010010 @
b1010010 D
b1010010 E
1'
#820
0'
#825
1U
b1010011 @
b1010011 D
b1010011 E
b1010011 S
b1010011 W
b1010011 X
1'
#830
0'
#835
0U
1B
b1010100 S
b1010100 W
b1010100 X
b1010100 @
b1010100 D
b1010100 E
1'
#840
0'
#845
1U
b1010101 @
b1010101 D
b1010101 E
b1010101 S
b1010101 W
b1010101 X
1'
#850
0'
#855
0U
b1010110 S
b1010110 W
b1010110 X
b1010110 @
b1010110 D
b1010110 E
1'
#860
0'
#865
1U
b1010111 @
b1010111 D
b1010111 E
b1010111 S
b1010111 W
b1010111 X
1'
#870
0'
#875
0U
0B
b1011000 S
b1011000 W
b1011000 X
b1011000 @
b1011000 D
b1011000 E
1'
#880
0'
#885
1U
b1011001 @
b1011001 D
b1011001 E
b1011001 S
b1011001 W
b1011001 X
1'
#890
0'
#895
0U
b1011010 S
b1011010 W
b1011010 X
b1011010 @
b1011010 D
b1011010 E
1'
#900
0'
#905
1U
b1011011 @
b1011011 D
b1011011 E
b1011011 S
b1011011 W
b1011011 X
1'
#910
0'
#915
0U
1B
b1011100 S
b1011100 W
b1011100 X
b1011100 @
b1011100 D
b1011100 E
1'
#920
0'
#925
1U
b1011101 @
b1011101 D
b1011101 E
b1011101 S
b1011101 W
b1011101 X
1'
#930
0'
#935
0U
b1011110 S
b1011110 W
b1011110 X
b1011110 @
b1011110 D
b1011110 E
1'
#940
0'
#945
1U
b1011111 @
b1011111 D
b1011111 E
b1011111 S
b1011111 W
b1011111 X
1'
#950
0'
#955
0U
0B
b1100000 S
b1100000 W
b1100000 X
b1100000 @
b1100000 D
b1100000 E
1'
#960
0'
#965
1U
b1100001 @
b1100001 D
b1100001 E
b1100001 S
b1100001 W
b1100001 X
1'
#970
0'
#975
0U
b1100010 S
b1100010 W
b1100010 X
b1100010 @
b1100010 D
b1100010 E
1'
#980
0'
#985
1U
b1100011 @
b1100011 D
b1100011 E
b1100011 S
b1100011 W
b1100011 X
1'
#990
0'
#995
0U
1B
b1100100 S
b1100100 W
b1100100 X
b1100100 @
b1100100 D
b1100100 E
1'
#1000
0'
#1005
1U
b1100101 @
b1100101 D
b1100101 E
b1100101 S
b1100101 W
b1100101 X
1'
#1010
0'
#1015
0U
b1100110 S
b1100110 W
b1100110 X
b1100110 @
b1100110 D
b1100110 E
1'
#1020
0'
#1025
1U
b1100111 @
b1100111 D
b1100111 E
b1100111 S
b1100111 W
b1100111 X
1'
#1030
0'
#1035
0U
0B
b1101000 S
b1101000 W
b1101000 X
b1101000 @
b1101000 D
b1101000 E
1'
#1040
0'
#1045
1U
b1101001 @
b1101001 D
b1101001 E
b1101001 S
b1101001 W
b1101001 X
1'
#1050
0'
#1055
0U
b1101010 S
b1101010 W
b1101010 X
b1101010 @
b1101010 D
b1101010 E
1'
#1060
0'
#1065
1U
b1101011 @
b1101011 D
b1101011 E
b1101011 S
b1101011 W
b1101011 X
1'
#1070
0'
#1075
0U
1B
b1101100 S
b1101100 W
b1101100 X
b1101100 @
b1101100 D
b1101100 E
1'
#1080
0'
#1085
1U
b1101101 @
b1101101 D
b1101101 E
b1101101 S
b1101101 W
b1101101 X
1'
#1090
0'
#1095
0U
b1101110 S
b1101110 W
b1101110 X
b1101110 @
b1101110 D
b1101110 E
1'
#1100
0'
#1105
1U
b1101111 @
b1101111 D
b1101111 E
b1101111 S
b1101111 W
b1101111 X
1'
#1110
0'
#1115
0U
0B
b1110000 S
b1110000 W
b1110000 X
b1110000 @
b1110000 D
b1110000 E
1'
#1120
0'
#1125
1U
b1110001 @
b1110001 D
b1110001 E
b1110001 S
b1110001 W
b1110001 X
1'
#1130
0'
#1135
0U
b1110010 S
b1110010 W
b1110010 X
b1110010 @
b1110010 D
b1110010 E
1'
#1140
0'
#1145
1U
b1110011 @
b1110011 D
b1110011 E
b1110011 S
b1110011 W
b1110011 X
1'
#1150
0'
#1155
0U
1B
b1110100 S
b1110100 W
b1110100 X
b1110100 @
b1110100 D
b1110100 E
1'
#1160
0'
#1165
1U
b1110101 @
b1110101 D
b1110101 E
b1110101 S
b1110101 W
b1110101 X
1'
#1170
0'
#1175
0U
b1110110 S
b1110110 W
b1110110 X
b1110110 @
b1110110 D
b1110110 E
1'
#1180
0'
#1185
1U
b1110111 @
b1110111 D
b1110111 E
b1110111 S
b1110111 W
b1110111 X
1'
#1190
0'
#1195
0U
0B
b1111000 S
b1111000 W
b1111000 X
b1111000 @
b1111000 D
b1111000 E
1'
#1200
0'
#1205
1U
b1111001 @
b1111001 D
b1111001 E
b1111001 S
b1111001 W
b1111001 X
1'
#1210
0'
#1215
0U
b1111010 S
b1111010 W
b1111010 X
b1111010 @
b1111010 D
b1111010 E
1'
#1220
0'
#1225
1U
b1111011 @
b1111011 D
b1111011 E
b1111011 S
b1111011 W
b1111011 X
1'
#1230
0'
#1235
0U
1B
b1111100 S
b1111100 W
b1111100 X
b1111100 @
b1111100 D
b1111100 E
1'
#1240
0'
#1245
1U
b1111101 @
b1111101 D
b1111101 E
b1111101 S
b1111101 W
b1111101 X
1'
#1250
0'
#1255
0U
b1111110 S
b1111110 W
b1111110 X
b1111110 @
b1111110 D
b1111110 E
1'
#1260
0'
#1265
1U
b1111111 @
b1111111 D
b1111111 E
b1111111 S
b1111111 W
b1111111 X
1'
#1270
0'
#1275
0U
0B
b10000000 S
b10000000 W
b10000000 X
b10000000 @
b10000000 D
b10000000 E
1'
#1280
0'
#1285
1U
b10000001 @
b10000001 D
b10000001 E
b10000001 S
b10000001 W
b10000001 X
1'
#1290
0'
#1295
0U
b10000010 S
b10000010 W
b10000010 X
b10000010 @
b10000010 D
b10000010 E
1'
#1300
0'
#1305
1U
b10000011 @
b10000011 D
b10000011 E
b10000011 S
b10000011 W
b10000011 X
1'
#1310
0'
#1315
0U
1B
b10000100 S
b10000100 W
b10000100 X
b10000100 @
b10000100 D
b10000100 E
1'
#1320
0'
#1325
1U
b10000101 @
b10000101 D
b10000101 E
b10000101 S
b10000101 W
b10000101 X
1'
#1330
0'
#1335
0U
b10000110 S
b10000110 W
b10000110 X
b10000110 @
b10000110 D
b10000110 E
1'
#1340
0'
#1345
1U
b10000111 @
b10000111 D
b10000111 E
b10000111 S
b10000111 W
b10000111 X
1'
#1350
0'
#1355
0U
0B
b10001000 S
b10001000 W
b10001000 X
b10001000 @
b10001000 D
b10001000 E
1'
#1360
0'
#1365
1U
b10001001 @
b10001001 D
b10001001 E
b10001001 S
b10001001 W
b10001001 X
1'
#1370
0'
#1375
0U
b10001010 S
b10001010 W
b10001010 X
b10001010 @
b10001010 D
b10001010 E
1'
#1380
0'
#1385
1U
b10001011 @
b10001011 D
b10001011 E
b10001011 S
b10001011 W
b10001011 X
1'
#1390
0'
#1395
0U
1B
b10001100 S
b10001100 W
b10001100 X
b10001100 @
b10001100 D
b10001100 E
1'
#1400
0'
#1405
1U
b10001101 @
b10001101 D
b10001101 E
b10001101 S
b10001101 W
b10001101 X
1'
#1410
0'
#1415
0U
b10001110 S
b10001110 W
b10001110 X
b10001110 @
b10001110 D
b10001110 E
1'
#1420
0'
#1425
1U
b10001111 @
b10001111 D
b10001111 E
b10001111 S
b10001111 W
b10001111 X
1'
#1430
0'
#1435
0U
0B
b10010000 S
b10010000 W
b10010000 X
b10010000 @
b10010000 D
b10010000 E
1'
#1440
0'
#1445
1U
b10010001 @
b10010001 D
b10010001 E
b10010001 S
b10010001 W
b10010001 X
1'
#1450
0'
#1455
0U
b10010010 S
b10010010 W
b10010010 X
b10010010 @
b10010010 D
b10010010 E
1'
#1460
0'
#1465
1U
b10010011 @
b10010011 D
b10010011 E
b10010011 S
b10010011 W
b10010011 X
1'
#1470
0'
#1475
0U
1B
b10010100 S
b10010100 W
b10010100 X
b10010100 @
b10010100 D
b10010100 E
1'
#1480
0'
#1485
1U
b10010101 @
b10010101 D
b10010101 E
b10010101 S
b10010101 W
b10010101 X
1'
#1490
0'
#1495
0U
b10010110 S
b10010110 W
b10010110 X
b10010110 @
b10010110 D
b10010110 E
1'
#1500
0'
#1505
1U
b10010111 @
b10010111 D
b10010111 E
b10010111 S
b10010111 W
b10010111 X
1'
#1510
0'
#1515
0U
0B
b10011000 S
b10011000 W
b10011000 X
b10011000 @
b10011000 D
b10011000 E
1'
#1520
0'
#1525
1U
b10011001 @
b10011001 D
b10011001 E
b10011001 S
b10011001 W
b10011001 X
1'
#1530
0'
#1535
0U
b10011010 S
b10011010 W
b10011010 X
b10011010 @
b10011010 D
b10011010 E
1'
#1540
0'
#1545
1U
b10011011 @
b10011011 D
b10011011 E
b10011011 S
b10011011 W
b10011011 X
1'
#1550
0'
#1555
0U
1B
b10011100 S
b10011100 W
b10011100 X
b10011100 @
b10011100 D
b10011100 E
1'
#1560
0'
#1565
1U
b10011101 @
b10011101 D
b10011101 E
b10011101 S
b10011101 W
b10011101 X
1'
#1570
0'
#1575
0U
b10011110 S
b10011110 W
b10011110 X
b10011110 @
b10011110 D
b10011110 E
1'
#1580
0'
#1585
1U
b10011111 @
b10011111 D
b10011111 E
b10011111 S
b10011111 W
b10011111 X
1'
#1590
0'
#1595
0U
0B
b10100000 S
b10100000 W
b10100000 X
b10100000 @
b10100000 D
b10100000 E
1'
#1600
0'
#1605
1U
b10100001 @
b10100001 D
b10100001 E
b10100001 S
b10100001 W
b10100001 X
1'
#1610
0'
#1615
0U
b10100010 S
b10100010 W
b10100010 X
b10100010 @
b10100010 D
b10100010 E
1'
#1620
0'
#1625
1U
b10100011 @
b10100011 D
b10100011 E
b10100011 S
b10100011 W
b10100011 X
1'
#1630
0'
#1635
0U
1B
b10100100 S
b10100100 W
b10100100 X
b10100100 @
b10100100 D
b10100100 E
1'
#1640
0'
#1645
1U
b10100101 @
b10100101 D
b10100101 E
b10100101 S
b10100101 W
b10100101 X
1'
#1650
0'
#1655
0U
b10100110 S
b10100110 W
b10100110 X
b10100110 @
b10100110 D
b10100110 E
1'
#1660
0'
#1665
1U
b10100111 @
b10100111 D
b10100111 E
b10100111 S
b10100111 W
b10100111 X
1'
#1670
0'
#1675
0U
0B
b10101000 S
b10101000 W
b10101000 X
b10101000 @
b10101000 D
b10101000 E
1'
#1680
0'
#1685
1U
b10101001 @
b10101001 D
b10101001 E
b10101001 S
b10101001 W
b10101001 X
1'
#1690
0'
#1695
0U
b10101010 S
b10101010 W
b10101010 X
b10101010 @
b10101010 D
b10101010 E
1'
#1700
0'
#1705
1U
b10101011 @
b10101011 D
b10101011 E
b10101011 S
b10101011 W
b10101011 X
1'
#1710
0'
#1715
0U
1B
b10101100 S
b10101100 W
b10101100 X
b10101100 @
b10101100 D
b10101100 E
1'
#1720
0'
#1725
1U
b10101101 @
b10101101 D
b10101101 E
b10101101 S
b10101101 W
b10101101 X
1'
#1730
0'
#1735
0U
b10101110 S
b10101110 W
b10101110 X
b10101110 @
b10101110 D
b10101110 E
1'
#1740
0'
#1745
1U
b10101111 @
b10101111 D
b10101111 E
b10101111 S
b10101111 W
b10101111 X
1'
#1750
0'
#1755
0U
0B
b10110000 S
b10110000 W
b10110000 X
b10110000 @
b10110000 D
b10110000 E
1'
#1760
0'
#1765
1U
b10110001 @
b10110001 D
b10110001 E
b10110001 S
b10110001 W
b10110001 X
1'
#1770
0'
#1775
0U
b10110010 S
b10110010 W
b10110010 X
b10110010 @
b10110010 D
b10110010 E
1'
#1780
0'
#1785
1U
b10110011 @
b10110011 D
b10110011 E
b10110011 S
b10110011 W
b10110011 X
1'
#1790
0'
#1795
0U
1B
b10110100 S
b10110100 W
b10110100 X
b10110100 @
b10110100 D
b10110100 E
1'
#1800
0'
#1805
1U
b10110101 @
b10110101 D
b10110101 E
b10110101 S
b10110101 W
b10110101 X
1'
#1810
0'
#1815
0U
b10110110 S
b10110110 W
b10110110 X
b10110110 @
b10110110 D
b10110110 E
1'
#1820
0'
#1825
1U
b10110111 @
b10110111 D
b10110111 E
b10110111 S
b10110111 W
b10110111 X
1'
#1830
0'
#1835
0U
0B
b10111000 S
b10111000 W
b10111000 X
b10111000 @
b10111000 D
b10111000 E
1'
#1840
0'
#1845
1U
b10111001 @
b10111001 D
b10111001 E
b10111001 S
b10111001 W
b10111001 X
1'
#1850
0'
#1855
0U
b10111010 S
b10111010 W
b10111010 X
b10111010 @
b10111010 D
b10111010 E
1'
#1860
0'
#1865
1U
b10111011 @
b10111011 D
b10111011 E
b10111011 S
b10111011 W
b10111011 X
1'
#1870
0'
#1875
0U
1B
b10111100 S
b10111100 W
b10111100 X
b10111100 @
b10111100 D
b10111100 E
1'
#1880
0'
#1885
1U
b10111101 @
b10111101 D
b10111101 E
b10111101 S
b10111101 W
b10111101 X
1'
#1890
0'
#1895
0U
b10111110 S
b10111110 W
b10111110 X
b10111110 @
b10111110 D
b10111110 E
1'
#1900
0'
#1905
1U
b10111111 @
b10111111 D
b10111111 E
b10111111 S
b10111111 W
b10111111 X
1'
#1910
0'
#1915
0U
0B
b11000000 S
b11000000 W
b11000000 X
b11000000 @
b11000000 D
b11000000 E
1'
#1920
0'
#1925
1U
b11000001 @
b11000001 D
b11000001 E
b11000001 S
b11000001 W
b11000001 X
1'
#1930
0'
#1935
0U
b11000010 S
b11000010 W
b11000010 X
b11000010 @
b11000010 D
b11000010 E
1'
#1940
0'
#1945
1U
b11000011 @
b11000011 D
b11000011 E
b11000011 S
b11000011 W
b11000011 X
1'
#1950
0'
#1955
0U
1B
b11000100 S
b11000100 W
b11000100 X
b11000100 @
b11000100 D
b11000100 E
1'
#1960
0'
#1965
1U
b11000101 @
b11000101 D
b11000101 E
b11000101 S
b11000101 W
b11000101 X
1'
#1970
0'
#1975
0U
b11000110 S
b11000110 W
b11000110 X
b11000110 @
b11000110 D
b11000110 E
1'
#1980
0'
#1985
1U
b11000111 @
b11000111 D
b11000111 E
b11000111 S
b11000111 W
b11000111 X
1'
#1990
0'
#1995
0U
0B
b11001000 S
b11001000 W
b11001000 X
b11001000 @
b11001000 D
b11001000 E
1'
#2000
0'
#2005
1U
b11001001 @
b11001001 D
b11001001 E
b11001001 S
b11001001 W
b11001001 X
1'
#2010
0'
#2015
0U
b11001010 S
b11001010 W
b11001010 X
b11001010 @
b11001010 D
b11001010 E
1'
#2020
0'
#2025
1U
b11001011 @
b11001011 D
b11001011 E
b11001011 S
b11001011 W
b11001011 X
1'
#2030
0'
#2035
0U
1B
b11001100 S
b11001100 W
b11001100 X
b11001100 @
b11001100 D
b11001100 E
1'
#2040
0'
#2045
1U
b11001101 @
b11001101 D
b11001101 E
b11001101 S
b11001101 W
b11001101 X
1'
#2050
0'
#2055
0U
b11001110 S
b11001110 W
b11001110 X
b11001110 @
b11001110 D
b11001110 E
1'
#2060
0'
#2065
1U
b11001111 @
b11001111 D
b11001111 E
b11001111 S
b11001111 W
b11001111 X
1'
#2070
0'
#2075
0U
0B
b11010000 S
b11010000 W
b11010000 X
b11010000 @
b11010000 D
b11010000 E
1'
#2080
0'
#2085
1U
b11010001 @
b11010001 D
b11010001 E
b11010001 S
b11010001 W
b11010001 X
1'
#2090
0'
#2095
0U
b11010010 S
b11010010 W
b11010010 X
b11010010 @
b11010010 D
b11010010 E
1'
#2100
0'
#2105
1U
b11010011 @
b11010011 D
b11010011 E
b11010011 S
b11010011 W
b11010011 X
1'
#2110
0'
#2115
0U
1B
b11010100 S
b11010100 W
b11010100 X
b11010100 @
b11010100 D
b11010100 E
1'
#2120
0'
#2125
1U
b11010101 @
b11010101 D
b11010101 E
b11010101 S
b11010101 W
b11010101 X
1'
#2130
0'
#2135
0U
b11010110 S
b11010110 W
b11010110 X
b11010110 @
b11010110 D
b11010110 E
1'
#2140
0'
#2145
1U
b11010111 @
b11010111 D
b11010111 E
b11010111 S
b11010111 W
b11010111 X
1'
#2150
0'
