lab3/VHDL/scanner.vcd
$date
	Fri Nov 11 19:41:59 2016
$end
$version
	Icarus Verilog
$end
$timescale
	1s
$end
$scope module scanner_testbench $end
$var wire 3 ! state [2:0] $end
$var wire 1 " otherStartScan $end
$var wire 1 # otherGoToStandby $end
$var wire 1 $ otherFlush $end
$var wire 4 % buffer_progress [3:0] $end
$var reg 1 & clk $end
$var reg 1 ' flush $end
$var reg 1 ( goToStandby $end
$var reg 1 ) initialOn $end
$var reg 1 * reset $end
$var reg 1 + startScan $end
$var reg 1 , startTransfer $end
$scope module dut $end
$var wire 1 & clk $end
$var wire 1 ' flush $end
$var wire 1 ( goToStandby $end
$var wire 1 ) initialOn $end
$var wire 1 $ otherFlush $end
$var wire 1 # otherGoToStandby $end
$var wire 1 " otherStartScan $end
$var wire 1 * reset $end
$var wire 1 + startScan $end
$var wire 1 , startTransfer $end
$var wire 1 - whichScanner $end
$var wire 3 . state [2:0] $end
$var wire 4 / buffer_progress [3:0] $end
$scope module prog $end
$var wire 1 & clk $end
$var wire 1 * reset $end
$var wire 4 0 val [3:0] $end
$var wire 3 1 state [2:0] $end
$var wire 32 2 divided_clocks [31:0] $end
$var reg 1 3 down $end
$var reg 1 4 final_clock $end
$var reg 1 5 up $end
$scope module div $end
$var wire 1 & clk $end
$var wire 32 6 divided_clocks [31:0] $end
$var reg 32 7 clocks [31:0] $end
$upscope $end
$scope module prog $end
$var wire 1 4 clk $end
$var wire 1 3 down $end
$var wire 1 * reset $end
$var wire 1 5 up $end
$var wire 4 8 val [3:0] $end
$var reg 4 9 ns [3:0] $end
$var reg 4 : ps [3:0] $end
$upscope $end
$upscope $end
$scope module statedet $end
$var wire 1 & clk $end
$var wire 1 ' flush $end
$var wire 1 ( goToStandby $end
$var wire 1 ) initialOn $end
$var wire 4 ; prog [3:0] $end
$var wire 1 * reset $end
$var wire 1 + startScan $end
$var wire 1 , startTransfer $end
$var wire 3 < state [2:0] $end
$var wire 1 - whichScanner $end
$var reg 1 = active $end
$var reg 3 > ns [2:0] $end
$var reg 3 ? ps [2:0] $end
$upscope $end
$upscope $end
$upscope $end
$enddefinitions $end
#0
$dumpvars
bx ?
b0 >
0=
bx <
bx ;
bx :
bx 9
bx 8
b0 7
b0 6
05
04
03
b0 2
bx 1
bx 0
bx /
bx .
0-
x,
x+
1*
x)
x(
x'
0&
bx %
x$
x#
x"
bx !
$end
#5
b0 9
b0 %
b0 /
b0 0
b0 8
b0 :
b0 ;
0$
0"
0#
14
b0 !
b0 .
b0 1
b0 <
b0 ?
b1 2
b1 6
b1 7
1&
#10
0&
#15
04
0'
0,
0+
0(
0)
0*
b10 2
b10 6
b10 7
1&
#20
0&
#25
14
b11 2
b11 6
b11 7
1&
#30
0&
#35
04
b100 2
b100 6
b100 7
1&
#40
0&
#45
14
b101 2
b101 6
b101 7
1(
1&
#50
0&
#55
04
0(
b110 2
b110 6
b110 7
1&
#60
0&
#65
14
b111 2
b111 6
b111 7
1&
#70
0&
#75
1=
04
1)
b1000 2
b1000 6
b1000 7
1&
#80
0&
#85
14
b1001 2
b1001 6
b1001 7
0)
1&
#90
0&
#95
04
b1010 2
b1010 6
b1010 7
1&
#100
0&
#105
14
b1011 2
b1011 6
b1011 7
1&
#110
0&
#115
04
b1100 2
b1100 6
b1100 7
1&
#120
0&
#125
14
b1101 2
b1101 6
b1101 7
1&
#130
0&
#135
04
b1110 2
b1110 6
b1110 7
1&
#140
0&
#145
14
b1111 2
b1111 6
b1111 7
1&
#150
0&
#155
04
b10000 2
b10000 6
b10000 7
1&
#160
0&
#165
14
b10001 2
b10001 6
b10001 7
1&
#170
0&
#175
04
b10010 2
b10010 6
b10010 7
1&
#180
0&
#185
14
b10011 2
b10011 6
b10011 7
1&
#190
0&
#195
04
b10100 2
b10100 6
b10100 7
1&
#200
0&
#205
14
b10101 2
b10101 6
b10101 7
1&
#210
0&
#215
04
b10110 2
b10110 6
b10110 7
1&
#220
0&
#225
14
b10111 2
b10111 6
b10111 7
1&
#230
0&
#235
04
b11000 2
b11000 6
b11000 7
1&
#240
0&
#245
14
b11001 2
b11001 6
b11001 7
1&
#250
0&
#255
04
b11010 2
b11010 6
b11010 7
1&
#260
0&
#265
14
b11011 2
b11011 6
b11011 7
1&
#270
0&
#275
04
b11100 2
b11100 6
b11100 7
1&
#280
0&
#285
14
b11101 2
b11101 6
b11101 7
1&
#290
0&
#295
04
b11110 2
b11110 6
b11110 7
1&
#300
0&
#305
14
b11111 2
b11111 6
b11111 7
1&
#310
0&
#315
04
b100000 2
b100000 6
b100000 7
1&
#320
0&
#325
14
b100001 2
b100001 6
b100001 7
1&
#330
0&
#335
04
b100010 2
b100010 6
b100010 7
1&
#340
0&
#345
14
b100011 2
b100011 6
b100011 7
1&
#350
0&
#355
04
b100100 2
b100100 6
b100100 7
1&
#360
0&
#365
14
b100101 2
b100101 6
b100101 7
1&
#370
0&
#375
04
b100110 2
b100110 6
b100110 7
1&
#380
0&
#385
14
b100111 2
b100111 6
b100111 7
1&
#390
0&
#395
04
b101000 2
b101000 6
b101000 7
1&
#400
0&
#405
14
b101001 2
b101001 6
b101001 7
1&
#410
0&
#415
04
b101010 2
b101010 6
b101010 7
1&
#420
0&
#425
14
b101011 2
b101011 6
b101011 7
1&
#430
0&
#435
04
b101100 2
b101100 6
b101100 7
1&
#440
0&
#445
14
b101101 2
b101101 6
b101101 7
1&
#450
0&
#455
04
b101110 2
b101110 6
b101110 7
1&
#460
0&
#465
14
b101111 2
b101111 6
b101111 7
1&
#470
0&
#475
04
b110000 2
b110000 6
b110000 7
1&
#480
0&
#485
14
b110001 2
b110001 6
b110001 7
1&
#490
0&
#495
04
b110010 2
b110010 6
b110010 7
1&
#500
0&
#505
14
b110011 2
b110011 6
b110011 7
1&
#510
0&
#515
04
b110100 2
b110100 6
b110100 7
1&
#520
0&
#525
14
b110101 2
b110101 6
b110101 7
1&
#530
0&
#535
04
b110110 2
b110110 6
b110110 7
1&
#540
0&
#545
14
b110111 2
b110111 6
b110111 7
1&
#550
0&
#555
04
b111000 2
b111000 6
b111000 7
1&
#560
0&
#565
14
b111001 2
b111001 6
b111001 7
1&
#570
0&
#575
04
b111010 2
b111010 6
b111010 7
1&
#580
0&
#585
14
b111011 2
b111011 6
b111011 7
1&
#590
0&
#595
04
b111100 2
b111100 6
b111100 7
1&
#600
0&
#605
14
b111101 2
b111101 6
b111101 7
1&
#610
0&
#615
04
b111110 2
b111110 6
b111110 7
1&
#620
0&
#625
14
b111111 2
b111111 6
b111111 7
1&
#630
0&
#635
04
b1000000 2
b1000000 6
b1000000 7
1&
#640
0&
#645
14
b1000001 2
b1000001 6
b1000001 7
1&
#650
0&
#655
04
b1000010 2
b1000010 6
b1000010 7
1&
#660
0&
#665
14
b1000011 2
b1000011 6
b1000011 7
1&
#670
0&
#675
04
b1000100 2
b1000100 6
b1000100 7
1&
#680
0&
#685
14
b1000101 2
b1000101 6
b1000101 7
1&
#690
0&
#695
04
b1000110 2
b1000110 6
b1000110 7
1&
#700
0&
#705
14
b1000111 2
b1000111 6
b1000111 7
1&
#710
0&
#715
04
b1001000 2
b1001000 6
b1001000 7
1&
#720
0&
#725
14
b1001001 2
b1001001 6
b1001001 7
1&
#730
0&
#735
04
b1001010 2
b1001010 6
b1001010 7
1&
#740
0&
#745
14
b1001011 2
b1001011 6
b1001011 7
1&
#750
0&
#755
04
b1001100 2
b1001100 6
b1001100 7
1&
#760
0&
#765
14
b1001101 2
b1001101 6
b1001101 7
1&
#770
0&
#775
04
b1001110 2
b1001110 6
b1001110 7
1&
#780
0&
#785
14
b1001111 2
b1001111 6
b1001111 7
1&
#790
0&
#795
04
b1010000 2
b1010000 6
b1010000 7
1&
#800
0&
#805
14
b1010001 2
b1010001 6
b1010001 7
1&
#810
0&
#815
04
b1010010 2
b1010010 6
b1010010 7
1&
#820
0&
#825
14
b1010011 2
b1010011 6
b1010011 7
1&
#830
0&
#835
04
b1010100 2
b1010100 6
b1010100 7
1&
#840
0&
#845
14
b1010101 2
b1010101 6
b1010101 7
1&
#850
0&
#855
04
b1010110 2
b1010110 6
b1010110 7
1&
#860
0&
#865
14
b1010111 2
b1010111 6
b1010111 7
1&
#870
0&
#875
04
b1011000 2
b1011000 6
b1011000 7
1&
#880
0&
#885
14
b1011001 2
b1011001 6
b1011001 7
1&
#890
0&
#895
04
b1011010 2
b1011010 6
b1011010 7
1&
#900
0&
#905
14
b1011011 2
b1011011 6
b1011011 7
1&
#910
0&
#915
04
1,
b1011100 2
b1011100 6
b1011100 7
1&
#920
0&
#925
14
b1011101 2
b1011101 6
b1011101 7
0,
1&
#930
0&
#935
04
b1011110 2
b1011110 6
b1011110 7
1&
#940
0&
#945
14
b1011111 2
b1011111 6
b1011111 7
1&
#950
0&
#955
04
b1100000 2
b1100000 6
b1100000 7
1&
#960
0&
#965
14
b1100001 2
b1100001 6
b1100001 7
1&
#970
0&
#975
04
b1100010 2
b1100010 6
b1100010 7
1&
#980
0&
#985
14
b1100011 2
b1100011 6
b1100011 7
1&
#990
0&
#995
04
b1100100 2
b1100100 6
b1100100 7
1&
#1000
0&
#1005
14
b1100101 2
b1100101 6
b1100101 7
1&
#1010
0&
#1015
04
b1100110 2
b1100110 6
b1100110 7
1&
#1020
0&
#1025
14
b1100111 2
b1100111 6
b1100111 7
1&
#1030
0&
#1035
04
b1101000 2
b1101000 6
b1101000 7
1&
#1040
0&
#1045
14
b1101001 2
b1101001 6
b1101001 7
1&
#1050
0&
#1055
04
b1101010 2
b1101010 6
b1101010 7
1&
#1060
0&
#1065
14
b1101011 2
b1101011 6
b1101011 7
1&
#1070
0&
#1075
04
b1101100 2
b1101100 6
b1101100 7
1&
#1080
0&
#1085
14
b1101101 2
b1101101 6
b1101101 7
1&
#1090
0&
#1095
04
b1101110 2
b1101110 6
b1101110 7
1&
#1100
0&
#1105
14
b1101111 2
b1101111 6
b1101111 7
1&
#1110
0&
#1115
04
b1110000 2
b1110000 6
b1110000 7
1&
#1120
0&
#1125
14
b1110001 2
b1110001 6
b1110001 7
1&
#1130
0&
#1135
04
b1110010 2
b1110010 6
b1110010 7
1&
#1140
0&
#1145
14
b1110011 2
b1110011 6
b1110011 7
1&
#1150
0&
#1155
04
b1110100 2
b1110100 6
b1110100 7
1&
#1160
0&
#1165
14
b1110101 2
b1110101 6
b1110101 7
1&
#1170
0&
#1175
04
b1110110 2
b1110110 6
b1110110 7
1&
#1180
0&
#1185
14
b1110111 2
b1110111 6
b1110111 7
1&
#1190
0&
#1195
04
b1111000 2
b1111000 6
b1111000 7
1&
#1200
0&
#1205
14
b1111001 2
b1111001 6
b1111001 7
1&
#1210
0&
#1215
04
b1111010 2
b1111010 6
b1111010 7
1&
#1220
0&
#1225
14
b1111011 2
b1111011 6
b1111011 7
1&
#1230
0&
#1235
04
b1111100 2
b1111100 6
b1111100 7
1&
#1240
0&
#1245
14
b1111101 2
b1111101 6
b1111101 7
1&
#1250
0&
#1255
04
b1111110 2
b1111110 6
b1111110 7
1&
#1260
0&
#1265
14
b1111111 2
b1111111 6
b1111111 7
1&
#1270
0&
#1275
04
b10000000 2
b10000000 6
b10000000 7
1&
#1280
0&
#1285
14
b10000001 2
b10000001 6
b10000001 7
1&
#1290
0&
#1295
04
b10000010 2
b10000010 6
b10000010 7
1&
#1300
0&
#1305
14
b10000011 2
b10000011 6
b10000011 7
1&
#1310
0&
#1315
04
b10000100 2
b10000100 6
b10000100 7
1&
#1320
0&
#1325
14
b10000101 2
b10000101 6
b10000101 7
1&
#1330
0&
#1335
04
b10000110 2
b10000110 6
b10000110 7
1&
#1340
0&
#1345
14
b10000111 2
b10000111 6
b10000111 7
1&
#1350
0&
#1355
04
b10001000 2
b10001000 6
b10001000 7
1&
#1360
0&
#1365
14
b10001001 2
b10001001 6
b10001001 7
1&
#1370
0&
#1375
04
b10001010 2
b10001010 6
b10001010 7
1&
#1380
0&
#1385
14
b10001011 2
b10001011 6
b10001011 7
1&
#1390
0&
#1395
04
b10001100 2
b10001100 6
b10001100 7
1&
#1400
0&
#1405
14
b10001101 2
b10001101 6
b10001101 7
1&
#1410
0&
#1415
04
b10001110 2
b10001110 6
b10001110 7
1&
#1420
0&
#1425
14
b10001111 2
b10001111 6
b10001111 7
1&
#1430
0&
#1435
04
b10010000 2
b10010000 6
b10010000 7
1&
#1440
0&
#1445
14
b10010001 2
b10010001 6
b10010001 7
1&
#1450
0&
#1455
04
b10010010 2
b10010010 6
b10010010 7
1&
#1460
0&
#1465
14
b1 >
b10010011 2
b10010011 6
b10010011 7
1(
1&
#1470
0&
#1475
04
b10010100 2
b10010100 6
b10010100 7
b1 !
b1 .
b1 1
b1 <
b1 ?
1&
#1480
0&
#1485
14
b10010101 2
b10010101 6
b10010101 7
1&
#1490
0&
#1495
04
b10010110 2
b10010110 6
b10010110 7
1&
#1500
0&
#1505
14
b10010111 2
b10010111 6
b10010111 7
1&
#1510
0&
#1515
04
b10011000 2
b10011000 6
b10011000 7
1&
#1520
0&
#1525
14
b10011001 2
b10011001 6
b10011001 7
1&
#1530
0&
#1535
04
b10011010 2
b10011010 6
b10011010 7
1&
#1540
0&
#1545
14
b10011011 2
b10011011 6
b10011011 7
1&
#1550
0&
#1555
b10 >
04
1+
b10011100 2
b10011100 6
b10011100 7
1&
#1560
0&
#1565
b1 9
15
14
b10 !
b10 .
b10 1
b10 <
b10 ?
b10011101 2
b10011101 6
b10011101 7
0(
1&
#1570
0&
#1575
b10011110 2
b10011110 6
b10011110 7
1&
#1580
0&
#1585
b10011111 2
b10011111 6
b10011111 7
0+
1&
#1590
0&
#1595
04
b10100000 2
b10100000 6
b10100000 7
1&
#1600
0&
#1605
b10100001 2
b10100001 6
b10100001 7
1&
#1610
0&
#1615
b10100010 2
b10100010 6
b10100010 7
1&
#1620
0&
#1625
b10100011 2
b10100011 6
b10100011 7
1&
#1630
0&
#1635
b10 9
b1 %
b1 /
b1 0
b1 8
b1 :
b1 ;
14
b10100100 2
b10100100 6
b10100100 7
1&
#1640
0&
#1645
b10100101 2
b10100101 6
b10100101 7
1&
#1650
0&
#1655
b10100110 2
b10100110 6
b10100110 7
1&
#1660
0&
#1665
b10100111 2
b10100111 6
b10100111 7
1&
#1670
0&
#1675
04
b10101000 2
b10101000 6
b10101000 7
1&
#1680
0&
#1685
b10101001 2
b10101001 6
b10101001 7
1&
#1690
0&
#1695
b10101010 2
b10101010 6
b10101010 7
1&
#1700
0&
#1705
b10101011 2
b10101011 6
b10101011 7
1&
#1710
0&
#1715
b11 9
b10 %
b10 /
b10 0
b10 8
b10 :
b10 ;
14
b10101100 2
b10101100 6
b10101100 7
1&
#1720
0&
#1725
b10101101 2
b10101101 6
b10101101 7
1&
#1730
0&
#1735
b10101110 2
b10101110 6
b10101110 7
1&
#1740
0&
#1745
b10101111 2
b10101111 6
b10101111 7
1&
#1750
0&
#1755
04
b10110000 2
b10110000 6
b10110000 7
1&
#1760
0&
#1765
b10110001 2
b10110001 6
b10110001 7
1&
#1770
0&
#1775
b10110010 2
b10110010 6
b10110010 7
1&
#1780
0&
#1785
b10110011 2
b10110011 6
b10110011 7
1&
#1790
0&
#1795
b100 9
b11 %
b11 /
b11 0
b11 8
b11 :
b11 ;
14
b10110100 2
b10110100 6
b10110100 7
1&
#1800
0&
#1805
b10110101 2
b10110101 6
b10110101 7
1&
#1810
0&
#1815
b10110110 2
b10110110 6
b10110110 7
1&
#1820
0&
#1825
b10110111 2
b10110111 6
b10110111 7
1&
#1830
0&
#1835
04
b10111000 2
b10111000 6
b10111000 7
1&
#1840
0&
#1845
b10111001 2
b10111001 6
b10111001 7
1&
#1850
0&
#1855
b10111010 2
b10111010 6
b10111010 7
1&
#1860
0&
#1865
b10111011 2
b10111011 6
b10111011 7
1&
#1870
0&
#1875
b101 9
b100 %
b100 /
b100 0
b100 8
b100 :
b100 ;
14
b10111100 2
b10111100 6
b10111100 7
1&
#1880
0&
#1885
b10111101 2
b10111101 6
b10111101 7
1&
#1890
0&
#1895
b10111110 2
b10111110 6
b10111110 7
1&
#1900
0&
#1905
b10111111 2
b10111111 6
b10111111 7
1&
#1910
0&
#1915
04
b11000000 2
b11000000 6
b11000000 7
1&
#1920
0&
#1925
b11000001 2
b11000001 6
b11000001 7
1&
#1930
0&
#1935
b11000010 2
b11000010 6
b11000010 7
1&
#1940
0&
#1945
b11000011 2
b11000011 6
b11000011 7
1&
#1950
0&
#1955
b110 9
1$
b101 %
b101 /
b101 0
b101 8
b101 :
b101 ;
14
b11000100 2
b11000100 6
b11000100 7
1&
#1960
0&
#1965
b11000101 2
b11000101 6
b11000101 7
1&
#1970
0&
#1975
b11000110 2
b11000110 6
b11000110 7
1&
#1980
0&
#1985
b11000111 2
b11000111 6
b11000111 7
1&
#1990
0&
#1995
04
b11001000 2
b11001000 6
b11001000 7
1&
#2000
0&
#2005
b11001001 2
b11001001 6
b11001001 7
1&
#2010
0&
#2015
b11001010 2
b11001010 6
b11001010 7
1&
#2020
0&
#2025
b11001011 2
b11001011 6
b11001011 7
1&
#2030
0&
#2035
b111 9
0$
b110 %
b110 /
b110 0
b110 8
b110 :
b110 ;
14
b11001100 2
b11001100 6
b11001100 7
1&
#2040
0&
#2045
b11001101 2
b11001101 6
b11001101 7
1&
#2050
0&
#2055
b11001110 2
b11001110 6
b11001110 7
1&
#2060
0&
#2065
b11001111 2
b11001111 6
b11001111 7
1&
#2070
0&
#2075
04
b11010000 2
b11010000 6
b11010000 7
1&
#2080
0&
#2085
b11010001 2
b11010001 6
b11010001 7
1&
#2090
0&
#2095
b11010010 2
b11010010 6
b11010010 7
1&
#2100
0&
#2105
b11010011 2
b11010011 6
b11010011 7
1&
#2110
0&
#2115
b1000 9
b111 %
b111 /
b111 0
b111 8
b111 :
b111 ;
14
b11010100 2
b11010100 6
b11010100 7
1&
#2120
0&
#2125
b11010101 2
b11010101 6
b11010101 7
1&
#2130
0&
#2135
b11010110 2
b11010110 6
b11010110 7
1&
#2140
0&
#2145
b11010111 2
b11010111 6
b11010111 7
1&
#2150
0&
#2155
04
b11011000 2
b11011000 6
b11011000 7
1&
#2160
0&
#2165
b11011001 2
b11011001 6
b11011001 7
1&
#2170
0&
#2175
b11011010 2
b11011010 6
b11011010 7
1&
#2180
0&
#2185
b11011011 2
b11011011 6
b11011011 7
1&
#2190
0&
#2195
b1001 9
1#
b1000 %
b1000 /
b1000 0
b1000 8
b1000 :
b1000 ;
14
b11011100 2
b11011100 6
b11011100 7
1&
#2200
0&
#2205
b11011101 2
b11011101 6
b11011101 7
1&
#2210
0&
#2215
b11011110 2
b11011110 6
b11011110 7
1&
#2220
0&
#2225
b11011111 2
b11011111 6
b11011111 7
1&
#2230
0&
#2235
04
b11100000 2
b11100000 6
b11100000 7
1&
#2240
0&
#2245
b11100001 2
b11100001 6
b11100001 7
1&
#2250
0&
#2255
b11100010 2
b11100010 6
b11100010 7
1&
#2260
0&
#2265
b11100011 2
b11100011 6
b11100011 7
1&
#2270
0&
#2275
b1010 9
1"
0#
b1001 %
b1001 /
b1001 0
b1001 8
b1001 :
b1001 ;
14
b11100100 2
b11100100 6
b11100100 7
1&
#2280
0&
#2285
b11100101 2
b11100101 6
b11100101 7
1&
#2290
0&
#2295
b11100110 2
b11100110 6
b11100110 7
1&
#2300
0&
#2305
b11100111 2
b11100111 6
b11100111 7
1&
#2310
0&
#2315
04
b11101000 2
b11101000 6
b11101000 7
1&
#2320
0&
#2325
b11101001 2
b11101001 6
b11101001 7
1&
#2330
0&
#2335
b11101010 2
b11101010 6
b11101010 7
1&
#2340
0&
#2345
b11101011 2
b11101011 6
b11101011 7
1&
#2350
0&
#2355
b11 >
0"
b1010 %
b1010 /
b1010 0
b1010 8
b1010 :
b1010 ;
14
b11101100 2
b11101100 6
b11101100 7
1&
#2360
0&
#2365
05
b11 !
b11 .
b11 1
b11 <
b11 ?
b11101101 2
b11101101 6
b11101101 7
1&
#2370
0&
#2375
04
b11101110 2
b11101110 6
b11101110 7
1&
#2380
0&
#2385
14
b11101111 2
b11101111 6
b11101111 7
1&
#2390
0&
#2395
04
b11110000 2
b11110000 6
b11110000 7
1&
#2400
0&
#2405
14
b11110001 2
b11110001 6
b11110001 7
1&
#2410
0&
#2415
04
b11110010 2
b11110010 6
b11110010 7
1&
#2420
0&
#2425
14
b101 >
b11110011 2
b11110011 6
b11110011 7
1'
1&
#2430
0&
#2435
b1001 9
13
04
b11110100 2
b11110100 6
b11110100 7
b101 !
b101 .
b101 1
b101 <
b101 ?
1&
#2440
0&
#2445
b1000 9
b1001 %
b1001 /
b1001 0
b1001 8
b1001 :
b1001 ;
14
b11110101 2
b11110101 6
b11110101 7
1&
#2450
0&
#2455
04
b11110110 2
b11110110 6
b11110110 7
1&
#2460
0&
#2465
b111 9
b1000 %
b1000 /
b1000 0
b1000 8
b1000 :
b1000 ;
14
b11110111 2
b11110111 6
b11110111 7
1&
#2470
0&
#2475
04
0'
b11111000 2
b11111000 6
b11111000 7
1&
#2480
0&
#2485
b110 9
b111 %
b111 /
b111 0
b111 8
b111 :
b111 ;
14
b11111001 2
b11111001 6
b11111001 7
1&
#2490
0&
#2495
04
b11111010 2
b11111010 6
b11111010 7
1&
#2500
0&
#2505
b101 9
b110 %
b110 /
b110 0
b110 8
b110 :
b110 ;
14
b11111011 2
b11111011 6
b11111011 7
1&
#2510
0&
#2515
04
b11111100 2
b11111100 6
b11111100 7
1&
#2520
0&
#2525
b100 9
b101 %
b101 /
b101 0
b101 8
b101 :
b101 ;
14
b11111101 2
b11111101 6
b11111101 7
1&
#2530
0&
#2535
04
b11111110 2
b11111110 6
b11111110 7
1&
#2540
0&
#2545
b11 9
b100 %
b100 /
b100 0
b100 8
b100 :
b100 ;
14
b11111111 2
b11111111 6
b11111111 7
1&
#2550
0&
#2555
04
b100000000 2
b100000000 6
b100000000 7
1&
#2560
0&
#2565
b10 9
b11 %
b11 /
b11 0
b11 8
b11 :
b11 ;
14
b100000001 2
b100000001 6
b100000001 7
1&
#2570
0&
#2575
04
b100000010 2
b100000010 6
b100000010 7
1&
#2580
0&
#2585
b1 9
b10 %
b10 /
b10 0
b10 8
b10 :
b10 ;
14
b100000011 2
b100000011 6
b100000011 7
1&
#2590
0&
#2595
04
b100000100 2
b100000100 6
b100000100 7
1&
#2600
0&
#2605
b0 9
b1 %
b1 /
b1 0
b1 8
b1 :
b1 ;
14
b100000101 2
b100000101 6
b100000101 7
1&
#2610
0&
#2615
04
b100000110 2
b100000110 6
b100000110 7
1&
#2620
0&
#2625
b0 >
b0 %
b0 /
b0 0
b0 8
b0 :
b0 ;
14
b100000111 2
b100000111 6
b100000111 7
1&
#2630
0&
#2635
03
04
b100001000 2
b100001000 6
b100001000 7
b0 !
b0 .
b0 1
b0 <
b0 ?
1&
#2640
0&
#2645
14
b100001001 2
b100001001 6
b100001001 7
1&
#2650
0&
#2655
04
b100001010 2
b100001010 6
b100001010 7
1&
#2660
0&
#2665
14
b100001011 2
b100001011 6
b100001011 7
1&
#2670
0&
#2675
04
b100001100 2
b100001100 6
b100001100 7
1&
#2680
0&
#2685
14
b100001101 2
b100001101 6
b100001101 7
1&
#2690
0&
#2695
04
b100001110 2
b100001110 6
b100001110 7
1&
#2700
0&
#2705
14
b100001111 2
b100001111 6
b100001111 7
1&
