lab4/verilog/scanner.vcd
$date
	Thu Nov 24 18:31:04 2016
$end
$version
	Icarus Verilog
$end
$timescale
	1s
$end
$scope module scanner_testbench $end
$var wire 3 ! state [2:0] $end
$var wire 1 " readyToTransfer $end
$var wire 1 # otherStartScan $end
$var wire 1 $ otherGoToStandby $end
$var wire 1 % otherFlush $end
$var wire 8 & data_out [7:0] $end
$var wire 8 ' data_in [7:0] $end
$var wire 4 ( buffer_progress [3:0] $end
$var reg 1 ) clk $end
$var reg 1 * flush $end
$var reg 1 + goToStandby $end
$var reg 1 , initialOn $end
$var reg 1 - reset $end
$var reg 1 . startScan $end
$var reg 1 / startTransfer $end
$scope module dut $end
$var wire 1 ) clk $end
$var wire 8 0 data_in [7:0] $end
$var wire 1 * flush $end
$var wire 1 + goToStandby $end
$var wire 1 , initialOn $end
$var wire 1 % otherFlush $end
$var wire 1 $ otherGoToStandby $end
$var wire 1 # otherStartScan $end
$var wire 1 " readyToTransfer $end
$var wire 1 - reset $end
$var wire 1 . startScan $end
$var wire 1 / startTransfer $end
$var wire 1 1 whichScanner $end
$var wire 3 2 state [2:0] $end
$var wire 8 3 data_out [7:0] $end
$var wire 4 4 buffer_progress [3:0] $end
$scope module ctrl $end
$var wire 1 ) clk $end
$var wire 1 * flush $end
$var wire 1 + goToStandby $end
$var wire 1 , initialOn $end
$var wire 1 - reset $end
$var wire 1 . startScan $end
$var wire 1 / startTransfer $end
$var wire 3 5 state [2:0] $end
$var wire 1 1 whichScanner $end
$var wire 4 6 prog [3:0] $end
$var reg 1 7 active $end
$var reg 3 8 ns [2:0] $end
$var reg 3 9 ps [2:0] $end
$upscope $end
$scope module mem $end
$var wire 1 ) clk $end
$var wire 8 : data_in [7:0] $end
$var wire 1 - reset $end
$var wire 3 ; state [2:0] $end
$var wire 4 < percentage [3:0] $end
$var wire 32 = divided_clocks [31:0] $end
$var wire 8 > data_out [7:0] $end
$var reg 1 ? down $end
$var reg 1 @ final_clock $end
$var reg 1 A up $end
$scope module div $end
$var wire 1 ) clk $end
$var wire 32 B divided_clocks [31:0] $end
$var reg 32 C clocks [31:0] $end
$upscope $end
$scope module prog $end
$var wire 1 @ clk $end
$var wire 8 D data_in [7:0] $end
$var wire 8 E data_out [7:0] $end
$var wire 1 ? down $end
$var wire 4 F percentage [3:0] $end
$var wire 1 - reset $end
$var wire 1 A up $end
$var reg 4 G ns [3:0] $end
$var reg 4 H ps [3:0] $end
$upscope $end
$upscope $end
$upscope $end
$upscope $end
$enddefinitions $end
#0
$dumpvars
b0 H
b0 G
b0 F
b0 E
b0 D
b0 C
b0 B
0A
0@
0?
b0 >
b0 =
b0 <
bx ;
b0 :
bx 9
b0 8
x7
b0 6
bx 5
b0 4
b0 3
bx 2
11
b0 0
x/
x.
1-
x,
x+
x*
0)
b0 (
b0 '
b0 &
0%
0$
0#
0"
bx !
$end
#5
1@
07
b0 !
b0 2
b0 5
b0 9
b0 ;
b1 =
b1 B
b1 C
1)
#10
0)
#15
0@
0*
0/
0.
0+
0,
0-
b10 =
b10 B
b10 C
1)
#20
0)
#25
1@
b11 =
b11 B
b11 C
1)
#30
0)
#35
0@
b100 =
b100 B
b100 C
1)
#40
0)
#45
1@
b101 =
b101 B
b101 C
1+
1)
#50
0)
#55
0@
0+
b110 =
b110 B
b110 C
1)
#60
0)
#65
1@
b111 =
b111 B
b111 C
1)
#70
0)
#75
b10 8
0@
1,
b1000 =
b1000 B
b1000 C
1)
#80
0)
#85
b1 G
1A
17
b10 !
b10 2
b10 5
b10 9
b10 ;
b1001 =
b1001 B
b1001 C
0,
1)
#90
0)
#95
b1010 =
b1010 B
b1010 C
1)
#100
0)
#105
b1011 =
b1011 B
b1011 C
1)
#110
0)
#115
b10 G
b1 '
b1 0
b1 :
b1 D
b1 (
b1 4
b1 6
b1 <
b1 F
b1 H
1@
b1100 =
b1100 B
b1100 C
1)
#120
0)
#125
b1101 =
b1101 B
b1101 C
1)
#130
0)
#135
b1110 =
b1110 B
b1110 C
1)
#140
0)
#145
b1111 =
b1111 B
b1111 C
1)
#150
0)
#155
0@
b10000 =
b10000 B
b10000 C
1)
#160
0)
#165
b10001 =
b10001 B
b10001 C
1)
#170
0)
#175
b10010 =
b10010 B
b10010 C
1)
#180
0)
#185
b10011 =
b10011 B
b10011 C
1)
#190
0)
#195
b11 G
b10 '
b10 0
b10 :
b10 D
b10 (
b10 4
b10 6
b10 <
b10 F
b10 H
1@
b10100 =
b10100 B
b10100 C
1)
#200
0)
#205
b10101 =
b10101 B
b10101 C
1)
#210
0)
#215
b10110 =
b10110 B
b10110 C
1)
#220
0)
#225
b10111 =
b10111 B
b10111 C
1)
#230
0)
#235
0@
b11000 =
b11000 B
b11000 C
1)
#240
0)
#245
b11001 =
b11001 B
b11001 C
1)
#250
0)
#255
b11010 =
b11010 B
b11010 C
1)
#260
0)
#265
b11011 =
b11011 B
b11011 C
1)
#270
0)
#275
b100 G
b11 '
b11 0
b11 :
b11 D
b11 (
b11 4
b11 6
b11 <
b11 F
b11 H
1@
b11100 =
b11100 B
b11100 C
1)
#280
0)
#285
b11101 =
b11101 B
b11101 C
1)
#290
0)
#295
b11110 =
b11110 B
b11110 C
1)
#300
0)
#305
b11111 =
b11111 B
b11111 C
1)
#310
0)
#315
0@
b100000 =
b100000 B
b100000 C
1)
#320
0)
#325
b100001 =
b100001 B
b100001 C
1)
#330
0)
#335
b100010 =
b100010 B
b100010 C
1)
#340
0)
#345
b100011 =
b100011 B
b100011 C
1)
#350
0)
#355
b101 G
b100 '
b100 0
b100 :
b100 D
b100 (
b100 4
b100 6
b100 <
b100 F
b100 H
1@
b100100 =
b100100 B
b100100 C
1)
#360
0)
#365
b100101 =
b100101 B
b100101 C
1)
#370
0)
#375
b100110 =
b100110 B
b100110 C
1)
#380
0)
#385
b100111 =
b100111 B
b100111 C
1)
#390
0)
#395
0@
b101000 =
b101000 B
b101000 C
1)
#400
0)
#405
b101001 =
b101001 B
b101001 C
1)
#410
0)
#415
b101010 =
b101010 B
b101010 C
1)
#420
0)
#425
b101011 =
b101011 B
b101011 C
1)
#430
0)
#435
b110 G
1%
1"
b101 '
b101 0
b101 :
b101 D
b101 (
b101 4
b101 6
b101 <
b101 F
b101 H
1@
b101100 =
b101100 B
b101100 C
1)
#440
0)
#445
b101101 =
b101101 B
b101101 C
1)
#450
0)
#455
b101110 =
b101110 B
b101110 C
1)
#460
0)
#465
b101111 =
b101111 B
b101111 C
1)
#470
0)
#475
0@
b110000 =
b110000 B
b110000 C
1)
#480
0)
#485
b110001 =
b110001 B
b110001 C
1)
#490
0)
#495
b110010 =
b110010 B
b110010 C
1)
#500
0)
#505
b110011 =
b110011 B
b110011 C
1)
#510
0)
#515
b111 G
0%
0"
b110 '
b110 0
b110 :
b110 D
b110 (
b110 4
b110 6
b110 <
b110 F
b110 H
1@
b110100 =
b110100 B
b110100 C
1)
#520
0)
#525
b110101 =
b110101 B
b110101 C
1)
#530
0)
#535
b110110 =
b110110 B
b110110 C
1)
#540
0)
#545
b110111 =
b110111 B
b110111 C
1)
#550
0)
#555
0@
b111000 =
b111000 B
b111000 C
1)
#560
0)
#565
b111001 =
b111001 B
b111001 C
1)
#570
0)
#575
b111010 =
b111010 B
b111010 C
1)
#580
0)
#585
b111011 =
b111011 B
b111011 C
1)
#590
0)
#595
b1000 G
b111 '
b111 0
b111 :
b111 D
b111 (
b111 4
b111 6
b111 <
b111 F
b111 H
1@
b111100 =
b111100 B
b111100 C
1)
#600
0)
#605
b111101 =
b111101 B
b111101 C
1)
#610
0)
#615
b111110 =
b111110 B
b111110 C
1)
#620
0)
#625
b111111 =
b111111 B
b111111 C
1)
#630
0)
#635
0@
b1000000 =
b1000000 B
b1000000 C
1)
#640
0)
#645
b1000001 =
b1000001 B
b1000001 C
1)
#650
0)
#655
b1000010 =
b1000010 B
b1000010 C
1)
#660
0)
#665
b1000011 =
b1000011 B
b1000011 C
1)
#670
0)
#675
b1001 G
1$
b1000 '
b1000 0
b1000 :
b1000 D
b1000 (
b1000 4
b1000 6
b1000 <
b1000 F
b1000 H
1@
b1000100 =
b1000100 B
b1000100 C
1)
#680
0)
#685
b1000101 =
b1000101 B
b1000101 C
1)
#690
0)
#695
b1000110 =
b1000110 B
b1000110 C
1)
#700
0)
#705
b1000111 =
b1000111 B
b1000111 C
1)
#710
0)
#715
0@
b1001000 =
b1001000 B
b1001000 C
1)
#720
0)
#725
b1001001 =
b1001001 B
b1001001 C
1)
#730
0)
#735
b1001010 =
b1001010 B
b1001010 C
1)
#740
0)
#745
b1001011 =
b1001011 B
b1001011 C
1)
#750
0)
#755
b1010 G
1#
0$
b1001 '
b1001 0
b1001 :
b1001 D
b1001 (
b1001 4
b1001 6
b1001 <
b1001 F
b1001 H
1@
b1001100 =
b1001100 B
b1001100 C
1)
#760
0)
#765
b1001101 =
b1001101 B
b1001101 C
1)
#770
0)
#775
b1001110 =
b1001110 B
b1001110 C
1)
#780
0)
#785
b1001111 =
b1001111 B
b1001111 C
1)
#790
0)
#795
0@
b1010000 =
b1010000 B
b1010000 C
1)
#800
0)
#805
b1010001 =
b1010001 B
b1010001 C
1)
#810
0)
#815
b1010010 =
b1010010 B
b1010010 C
1)
#820
0)
#825
b1010011 =
b1010011 B
b1010011 C
1)
#830
0)
#835
0#
b11 8
bx &
bx 3
bx >
bx E
b1010 '
b1010 0
b1010 :
b1010 D
b1010 (
b1010 4
b1010 6
b1010 <
b1010 F
b1010 H
1@
b1010100 =
b1010100 B
b1010100 C
1)
#840
0)
#845
0A
b11 !
b11 2
b11 5
b11 9
b11 ;
b1010101 =
b1010101 B
b1010101 C
1)
#850
0)
#855
0@
b1010110 =
b1010110 B
b1010110 C
1)
#860
0)
#865
1@
b1010111 =
b1010111 B
b1010111 C
1)
#870
0)
#875
0@
b1011000 =
b1011000 B
b1011000 C
1)
#880
0)
#885
1@
b1011001 =
b1011001 B
b1011001 C
1)
#890
0)
#895
0@
b1011010 =
b1011010 B
b1011010 C
1)
#900
0)
#905
1@
b1011011 =
b1011011 B
b1011011 C
1)
#910
0)
#915
b100 8
0@
1/
b1011100 =
b1011100 B
b1011100 C
1)
#920
0)
#925
b1001 G
1?
b100 !
b100 2
b100 5
b100 9
b100 ;
b1011101 =
b1011101 B
b1011101 C
0/
1)
#930
0)
#935
b1000 G
b0 &
b0 3
b0 >
b0 E
b1001 '
b1001 0
b1001 :
b1001 D
b1001 (
b1001 4
b1001 6
b1001 <
b1001 F
b1001 H
1@
b1011110 =
b1011110 B
b1011110 C
1)
#940
0)
#945
b1011111 =
b1011111 B
b1011111 C
1)
#950
0)
#955
0@
b1100000 =
b1100000 B
b1100000 C
1)
#960
0)
#965
b1100001 =
b1100001 B
b1100001 C
1)
#970
0)
#975
b111 G
b1000 &
b1000 3
b1000 >
b1000 E
b1000 '
b1000 0
b1000 :
b1000 D
b1000 (
b1000 4
b1000 6
b1000 <
b1000 F
b1000 H
1@
b1100010 =
b1100010 B
b1100010 C
1)
#980
0)
#985
b1100011 =
b1100011 B
b1100011 C
1)
#990
0)
#995
0@
b1100100 =
b1100100 B
b1100100 C
1)
#1000
0)
#1005
b1100101 =
b1100101 B
b1100101 C
1)
#1010
0)
#1015
b110 G
b111 &
b111 3
b111 >
b111 E
b111 '
b111 0
b111 :
b111 D
b111 (
b111 4
b111 6
b111 <
b111 F
b111 H
1@
b1100110 =
b1100110 B
b1100110 C
1)
#1020
0)
#1025
b1100111 =
b1100111 B
b1100111 C
1)
#1030
0)
#1035
0@
b1101000 =
b1101000 B
b1101000 C
1)
#1040
0)
#1045
b1101001 =
b1101001 B
b1101001 C
1)
#1050
0)
#1055
b101 G
b110 &
b110 3
b110 >
b110 E
b110 '
b110 0
b110 :
b110 D
b110 (
b110 4
b110 6
b110 <
b110 F
b110 H
1@
b1101010 =
b1101010 B
b1101010 C
1)
#1060
0)
#1065
b1101011 =
b1101011 B
b1101011 C
1)
#1070
0)
#1075
0@
b1101100 =
b1101100 B
b1101100 C
1)
#1080
0)
#1085
b1101101 =
b1101101 B
b1101101 C
1)
#1090
0)
#1095
b100 G
b101 &
b101 3
b101 >
b101 E
b101 '
b101 0
b101 :
b101 D
b101 (
b101 4
b101 6
b101 <
b101 F
b101 H
1@
b1101110 =
b1101110 B
b1101110 C
1)
#1100
0)
#1105
b1101111 =
b1101111 B
b1101111 C
1)
#1110
0)
#1115
0@
b1110000 =
b1110000 B
b1110000 C
1)
#1120
0)
#1125
b1110001 =
b1110001 B
b1110001 C
1)
#1130
0)
#1135
b11 G
b100 &
b100 3
b100 >
b100 E
b100 '
b100 0
b100 :
b100 D
b100 (
b100 4
b100 6
b100 <
b100 F
b100 H
1@
b1110010 =
b1110010 B
b1110010 C
1)
#1140
0)
#1145
b1110011 =
b1110011 B
b1110011 C
1)
#1150
0)
#1155
0@
b1110100 =
b1110100 B
b1110100 C
1)
#1160
0)
#1165
b1110101 =
b1110101 B
b1110101 C
1)
#1170
0)
#1175
b10 G
b11 &
b11 3
b11 >
b11 E
b11 '
b11 0
b11 :
b11 D
b11 (
b11 4
b11 6
b11 <
b11 F
b11 H
1@
b1110110 =
b1110110 B
b1110110 C
1)
#1180
0)
#1185
b1110111 =
b1110111 B
b1110111 C
1)
#1190
0)
#1195
0@
b1111000 =
b1111000 B
b1111000 C
1)
#1200
0)
#1205
b1111001 =
b1111001 B
b1111001 C
1)
#1210
0)
#1215
b1 G
b10 &
b10 3
b10 >
b10 E
b10 '
b10 0
b10 :
b10 D
b10 (
b10 4
b10 6
b10 <
b10 F
b10 H
1@
b1111010 =
b1111010 B
b1111010 C
1)
#1220
0)
#1225
b1111011 =
b1111011 B
b1111011 C
1)
#1230
0)
#1235
0@
b1111100 =
b1111100 B
b1111100 C
1)
#1240
0)
#1245
b1111101 =
b1111101 B
b1111101 C
1)
#1250
0)
#1255
b0 G
b1 &
b1 3
b1 >
b1 E
b1 '
b1 0
b1 :
b1 D
b1 (
b1 4
b1 6
b1 <
b1 F
b1 H
1@
b1111110 =
b1111110 B
b1111110 C
1)
#1260
0)
#1265
b1111111 =
b1111111 B
b1111111 C
1)
#1270
0)
#1275
0@
b10000000 =
b10000000 B
b10000000 C
1)
#1280
0)
#1285
b10000001 =
b10000001 B
b10000001 C
1)
#1290
0)
#1295
b0 8
b0 &
b0 3
b0 >
b0 E
b0 '
b0 0
b0 :
b0 D
b0 (
b0 4
b0 6
b0 <
b0 F
b0 H
1@
b10000010 =
b10000010 B
b10000010 C
1)
#1300
0)
#1305
0?
b0 !
b0 2
b0 5
b0 9
b0 ;
b10000011 =
b10000011 B
b10000011 C
1)
#1310
0)
#1315
0@
b10000100 =
b10000100 B
b10000100 C
1)
#1320
0)
#1325
1@
b10000101 =
b10000101 B
b10000101 C
1)
#1330
0)
#1335
0@
b10000110 =
b10000110 B
b10000110 C
1)
#1340
0)
#1345
1@
b10000111 =
b10000111 B
b10000111 C
1)
#1350
0)
#1355
0@
b10001000 =
b10001000 B
b10001000 C
1)
#1360
0)
#1365
1@
b10001001 =
b10001001 B
b10001001 C
1)
#1370
0)
#1375
0@
b10001010 =
b10001010 B
b10001010 C
1)
#1380
0)
#1385
1@
b10001011 =
b10001011 B
b10001011 C
1)
#1390
0)
#1395
0@
b10001100 =
b10001100 B
b10001100 C
1)
#1400
0)
#1405
1@
b10001101 =
b10001101 B
b10001101 C
1)
#1410
0)
#1415
0@
b10001110 =
b10001110 B
b10001110 C
1)
#1420
0)
#1425
1@
b10001111 =
b10001111 B
b10001111 C
1)
#1430
0)
#1435
0@
b10010000 =
b10010000 B
b10010000 C
1)
#1440
0)
#1445
1@
b10010001 =
b10010001 B
b10010001 C
1)
#1450
0)
#1455
0@
b10010010 =
b10010010 B
b10010010 C
1)
#1460
0)
#1465
1@
b1 8
b10010011 =
b10010011 B
b10010011 C
1+
1)
#1470
0)
#1475
0@
b10010100 =
b10010100 B
b10010100 C
b1 !
b1 2
b1 5
b1 9
b1 ;
1)
#1480
0)
#1485
1@
b10010101 =
b10010101 B
b10010101 C
1)
#1490
0)
#1495
0@
b10010110 =
b10010110 B
b10010110 C
1)
#1500
0)
#1505
1@
b10010111 =
b10010111 B
b10010111 C
1)
#1510
0)
#1515
0@
b10011000 =
b10011000 B
b10011000 C
1)
#1520
0)
#1525
1@
b10011001 =
b10011001 B
b10011001 C
1)
#1530
0)
#1535
0@
b10011010 =
b10011010 B
b10011010 C
1)
#1540
0)
#1545
1@
b10011011 =
b10011011 B
b10011011 C
1)
#1550
0)
#1555
b10 8
0@
1.
b10011100 =
b10011100 B
b10011100 C
1)
#1560
0)
#1565
b1 G
1A
1@
b10 !
b10 2
b10 5
b10 9
b10 ;
b10011101 =
b10011101 B
b10011101 C
0+
1)
#1570
0)
#1575
b10011110 =
b10011110 B
b10011110 C
1)
#1580
0)
#1585
b10011111 =
b10011111 B
b10011111 C
0.
1)
#1590
0)
#1595
0@
b10100000 =
b10100000 B
b10100000 C
1)
#1600
0)
#1605
b10100001 =
b10100001 B
b10100001 C
1)
#1610
0)
#1615
b10100010 =
b10100010 B
b10100010 C
1)
#1620
0)
#1625
b10100011 =
b10100011 B
b10100011 C
1)
#1630
0)
#1635
b10 G
b1 '
b1 0
b1 :
b1 D
b1 (
b1 4
b1 6
b1 <
b1 F
b1 H
1@
b10100100 =
b10100100 B
b10100100 C
1)
#1640
0)
#1645
b10100101 =
b10100101 B
b10100101 C
1)
#1650
0)
#1655
b10100110 =
b10100110 B
b10100110 C
1)
#1660
0)
#1665
b10100111 =
b10100111 B
b10100111 C
1)
#1670
0)
#1675
0@
b10101000 =
b10101000 B
b10101000 C
1)
#1680
0)
#1685
b10101001 =
b10101001 B
b10101001 C
1)
#1690
0)
#1695
b10101010 =
b10101010 B
b10101010 C
1)
#1700
0)
#1705
b10101011 =
b10101011 B
b10101011 C
1)
#1710
0)
#1715
b11 G
b10 '
b10 0
b10 :
b10 D
b10 (
b10 4
b10 6
b10 <
b10 F
b10 H
1@
b10101100 =
b10101100 B
b10101100 C
1)
#1720
0)
#1725
b10101101 =
b10101101 B
b10101101 C
1)
#1730
0)
#1735
b10101110 =
b10101110 B
b10101110 C
1)
#1740
0)
#1745
b10101111 =
b10101111 B
b10101111 C
1)
#1750
0)
#1755
0@
b10110000 =
b10110000 B
b10110000 C
1)
#1760
0)
#1765
b10110001 =
b10110001 B
b10110001 C
1)
#1770
0)
#1775
b10110010 =
b10110010 B
b10110010 C
1)
#1780
0)
#1785
b10110011 =
b10110011 B
b10110011 C
1)
#1790
0)
#1795
b100 G
b11 '
b11 0
b11 :
b11 D
b11 (
b11 4
b11 6
b11 <
b11 F
b11 H
1@
b10110100 =
b10110100 B
b10110100 C
1)
#1800
0)
#1805
b10110101 =
b10110101 B
b10110101 C
1)
#1810
0)
#1815
b10110110 =
b10110110 B
b10110110 C
1)
#1820
0)
#1825
b10110111 =
b10110111 B
b10110111 C
1)
#1830
0)
#1835
0@
b10111000 =
b10111000 B
b10111000 C
1)
#1840
0)
#1845
b10111001 =
b10111001 B
b10111001 C
1)
#1850
0)
#1855
b10111010 =
b10111010 B
b10111010 C
1)
#1860
0)
#1865
b10111011 =
b10111011 B
b10111011 C
1)
#1870
0)
#1875
b101 G
b100 '
b100 0
b100 :
b100 D
b100 (
b100 4
b100 6
b100 <
b100 F
b100 H
1@
b10111100 =
b10111100 B
b10111100 C
1)
#1880
0)
#1885
b10111101 =
b10111101 B
b10111101 C
1)
#1890
0)
#1895
b10111110 =
b10111110 B
b10111110 C
1)
#1900
0)
#1905
b10111111 =
b10111111 B
b10111111 C
1)
#1910
0)
#1915
0@
b11000000 =
b11000000 B
b11000000 C
1)
#1920
0)
#1925
b11000001 =
b11000001 B
b11000001 C
1)
#1930
0)
#1935
b11000010 =
b11000010 B
b11000010 C
1)
#1940
0)
#1945
b11000011 =
b11000011 B
b11000011 C
1)
#1950
0)
#1955
b110 G
1%
1"
b101 '
b101 0
b101 :
b101 D
b101 (
b101 4
b101 6
b101 <
b101 F
b101 H
1@
b11000100 =
b11000100 B
b11000100 C
1)
#1960
0)
#1965
b11000101 =
b11000101 B
b11000101 C
1)
#1970
0)
#1975
b11000110 =
b11000110 B
b11000110 C
1)
#1980
0)
#1985
b11000111 =
b11000111 B
b11000111 C
1)
#1990
0)
#1995
0@
b11001000 =
b11001000 B
b11001000 C
1)
#2000
0)
#2005
b11001001 =
b11001001 B
b11001001 C
1)
#2010
0)
#2015
b11001010 =
b11001010 B
b11001010 C
1)
#2020
0)
#2025
b11001011 =
b11001011 B
b11001011 C
1)
#2030
0)
#2035
b111 G
0%
0"
b110 '
b110 0
b110 :
b110 D
b110 (
b110 4
b110 6
b110 <
b110 F
b110 H
1@
b11001100 =
b11001100 B
b11001100 C
1)
#2040
0)
#2045
b11001101 =
b11001101 B
b11001101 C
1)
#2050
0)
#2055
b11001110 =
b11001110 B
b11001110 C
1)
#2060
0)
#2065
b11001111 =
b11001111 B
b11001111 C
1)
#2070
0)
#2075
0@
b11010000 =
b11010000 B
b11010000 C
1)
#2080
0)
#2085
b11010001 =
b11010001 B
b11010001 C
1)
#2090
0)
#2095
b11010010 =
b11010010 B
b11010010 C
1)
#2100
0)
#2105
b11010011 =
b11010011 B
b11010011 C
1)
#2110
0)
#2115
b1000 G
b111 '
b111 0
b111 :
b111 D
b111 (
b111 4
b111 6
b111 <
b111 F
b111 H
1@
b11010100 =
b11010100 B
b11010100 C
1)
#2120
0)
#2125
b11010101 =
b11010101 B
b11010101 C
1)
#2130
0)
#2135
b11010110 =
b11010110 B
b11010110 C
1)
#2140
0)
#2145
b11010111 =
b11010111 B
b11010111 C
1)
#2150
0)
#2155
0@
b11011000 =
b11011000 B
b11011000 C
1)
#2160
0)
#2165
b11011001 =
b11011001 B
b11011001 C
1)
#2170
0)
#2175
b11011010 =
b11011010 B
b11011010 C
1)
#2180
0)
#2185
b11011011 =
b11011011 B
b11011011 C
1)
#2190
0)
#2195
b1001 G
1$
b1000 '
b1000 0
b1000 :
b1000 D
b1000 (
b1000 4
b1000 6
b1000 <
b1000 F
b1000 H
1@
b11011100 =
b11011100 B
b11011100 C
1)
#2200
0)
#2205
b11011101 =
b11011101 B
b11011101 C
1)
#2210
0)
#2215
b11011110 =
b11011110 B
b11011110 C
1)
#2220
0)
#2225
b11011111 =
b11011111 B
b11011111 C
1)
#2230
0)
#2235
0@
b11100000 =
b11100000 B
b11100000 C
1)
#2240
0)
#2245
b11100001 =
b11100001 B
b11100001 C
1)
#2250
0)
#2255
b11100010 =
b11100010 B
b11100010 C
1)
#2260
0)
#2265
b11100011 =
b11100011 B
b11100011 C
1)
#2270
0)
#2275
b1010 G
1#
0$
b1001 '
b1001 0
b1001 :
b1001 D
b1001 (
b1001 4
b1001 6
b1001 <
b1001 F
b1001 H
1@
b11100100 =
b11100100 B
b11100100 C
1)
#2280
0)
#2285
b11100101 =
b11100101 B
b11100101 C
1)
#2290
0)
#2295
b11100110 =
b11100110 B
b11100110 C
1)
#2300
0)
#2305
b11100111 =
b11100111 B
b11100111 C
1)
#2310
0)
#2315
0@
b11101000 =
b11101000 B
b11101000 C
1)
#2320
0)
#2325
b11101001 =
b11101001 B
b11101001 C
1)
#2330
0)
#2335
b11101010 =
b11101010 B
b11101010 C
1)
#2340
0)
#2345
b11101011 =
b11101011 B
b11101011 C
1)
#2350
0)
#2355
0#
b11 8
bx &
bx 3
bx >
bx E
b1010 '
b1010 0
b1010 :
b1010 D
b1010 (
b1010 4
b1010 6
b1010 <
b1010 F
b1010 H
1@
b11101100 =
b11101100 B
b11101100 C
1)
#2360
0)
#2365
0A
b11 !
b11 2
b11 5
b11 9
b11 ;
b11101101 =
b11101101 B
b11101101 C
1)
#2370
0)
#2375
0@
b11101110 =
b11101110 B
b11101110 C
1)
#2380
0)
#2385
1@
b11101111 =
b11101111 B
b11101111 C
1)
#2390
0)
#2395
0@
b11110000 =
b11110000 B
b11110000 C
1)
#2400
0)
#2405
1@
b11110001 =
b11110001 B
b11110001 C
1)
#2410
0)
#2415
0@
b11110010 =
b11110010 B
b11110010 C
1)
#2420
0)
#2425
1@
b101 8
b11110011 =
b11110011 B
b11110011 C
1*
1)
#2430
0)
#2435
b1001 G
1?
0@
b11110100 =
b11110100 B
b11110100 C
b101 !
b101 2
b101 5
b101 9
b101 ;
1)
#2440
0)
#2445
b1000 G
b0 &
b0 3
b0 >
b0 E
b1001 '
b1001 0
b1001 :
b1001 D
b1001 (
b1001 4
b1001 6
b1001 <
b1001 F
b1001 H
1@
b11110101 =
b11110101 B
b11110101 C
1)
#2450
0)
#2455
0@
b11110110 =
b11110110 B
b11110110 C
1)
#2460
0)
#2465
b111 G
b1000 &
b1000 3
b1000 >
b1000 E
b1000 '
b1000 0
b1000 :
b1000 D
b1000 (
b1000 4
b1000 6
b1000 <
b1000 F
b1000 H
1@
b11110111 =
b11110111 B
b11110111 C
1)
#2470
0)
#2475
0@
0*
b11111000 =
b11111000 B
b11111000 C
1)
#2480
0)
#2485
b110 G
b111 &
b111 3
b111 >
b111 E
b111 '
b111 0
b111 :
b111 D
b111 (
b111 4
b111 6
b111 <
b111 F
b111 H
1@
b11111001 =
b11111001 B
b11111001 C
1)
#2490
0)
#2495
0@
b11111010 =
b11111010 B
b11111010 C
1)
#2500
0)
#2505
b101 G
b110 &
b110 3
b110 >
b110 E
b110 '
b110 0
b110 :
b110 D
b110 (
b110 4
b110 6
b110 <
b110 F
b110 H
1@
b11111011 =
b11111011 B
b11111011 C
1)
#2510
0)
#2515
0@
b11111100 =
b11111100 B
b11111100 C
1)
#2520
0)
#2525
b100 G
b101 &
b101 3
b101 >
b101 E
b101 '
b101 0
b101 :
b101 D
b101 (
b101 4
b101 6
b101 <
b101 F
b101 H
1@
b11111101 =
b11111101 B
b11111101 C
1)
#2530
0)
#2535
0@
b11111110 =
b11111110 B
b11111110 C
1)
#2540
0)
#2545
b11 G
b100 &
b100 3
b100 >
b100 E
b100 '
b100 0
b100 :
b100 D
b100 (
b100 4
b100 6
b100 <
b100 F
b100 H
1@
b11111111 =
b11111111 B
b11111111 C
1)
#2550
0)
#2555
0@
b100000000 =
b100000000 B
b100000000 C
1)
#2560
0)
#2565
b10 G
b11 &
b11 3
b11 >
b11 E
b11 '
b11 0
b11 :
b11 D
b11 (
b11 4
b11 6
b11 <
b11 F
b11 H
1@
b100000001 =
b100000001 B
b100000001 C
1)
#2570
0)
#2575
0@
b100000010 =
b100000010 B
b100000010 C
1)
#2580
0)
#2585
b1 G
b10 &
b10 3
b10 >
b10 E
b10 '
b10 0
b10 :
b10 D
b10 (
b10 4
b10 6
b10 <
b10 F
b10 H
1@
b100000011 =
b100000011 B
b100000011 C
1)
#2590
0)
#2595
0@
b100000100 =
b100000100 B
b100000100 C
1)
#2600
0)
#2605
b0 G
b1 &
b1 3
b1 >
b1 E
b1 '
b1 0
b1 :
b1 D
b1 (
b1 4
b1 6
b1 <
b1 F
b1 H
1@
b100000101 =
b100000101 B
b100000101 C
1)
#2610
0)
#2615
0@
b100000110 =
b100000110 B
b100000110 C
1)
#2620
0)
#2625
b0 8
b0 &
b0 3
b0 >
b0 E
b0 '
b0 0
b0 :
b0 D
b0 (
b0 4
b0 6
b0 <
b0 F
b0 H
1@
b100000111 =
b100000111 B
b100000111 C
1)
#2630
0)
#2635
0?
0@
b100001000 =
b100001000 B
b100001000 C
b0 !
b0 2
b0 5
b0 9
b0 ;
1)
#2640
0)
#2645
1@
b100001001 =
b100001001 B
b100001001 C
1)
#2650
0)
#2655
0@
b100001010 =
b100001010 B
b100001010 C
1)
#2660
0)
#2665
1@
b100001011 =
b100001011 B
b100001011 C
1)
#2670
0)
#2675
0@
b100001100 =
b100001100 B
b100001100 C
1)
#2680
0)
#2685
1@
b100001101 =
b100001101 B
b100001101 C
1)
#2690
0)
#2695
0@
b100001110 =
b100001110 B
b100001110 C
1)
#2700
0)
#2705
1@
b100001111 =
b100001111 B
b100001111 C
1)
