lab3/quartus/verilog/scanner.vcd
$date
	Sat Nov 12 10:25:41 2016
$end
$version
	Icarus Verilog
$end
$timescale
	1s
$end
$scope module scanner_testbench $end
$var wire 3 ! state [2:0] $end
$var wire 1 " readyToTransfer $end
$var wire 1 # otherStartScan $end
$var wire 1 $ otherGoToStandby $end
$var wire 1 % otherFlush $end
$var wire 4 & buffer_progress [3:0] $end
$var reg 1 ' clk $end
$var reg 1 ( flush $end
$var reg 1 ) goToStandby $end
$var reg 1 * initialOn $end
$var reg 1 + reset $end
$var reg 1 , startScan $end
$var reg 1 - startTransfer $end
$scope module dut $end
$var wire 1 ' clk $end
$var wire 1 ( flush $end
$var wire 1 ) goToStandby $end
$var wire 1 * initialOn $end
$var wire 1 % otherFlush $end
$var wire 1 $ otherGoToStandby $end
$var wire 1 # otherStartScan $end
$var wire 1 " readyToTransfer $end
$var wire 1 + reset $end
$var wire 1 , startScan $end
$var wire 1 - startTransfer $end
$var wire 1 . whichScanner $end
$var wire 3 / state [2:0] $end
$var wire 4 0 buffer_progress [3:0] $end
$scope module prog $end
$var wire 1 ' clk $end
$var wire 1 + reset $end
$var wire 4 1 val [3:0] $end
$var wire 3 2 state [2:0] $end
$var wire 32 3 divided_clocks [31:0] $end
$var reg 1 4 down $end
$var reg 1 5 final_clock $end
$var reg 1 6 up $end
$scope module div $end
$var wire 1 ' clk $end
$var wire 32 7 divided_clocks [31:0] $end
$var reg 32 8 clocks [31:0] $end
$upscope $end
$scope module prog $end
$var wire 1 5 clk $end
$var wire 1 4 down $end
$var wire 1 + reset $end
$var wire 1 6 up $end
$var wire 4 9 val [3:0] $end
$var reg 4 : ns [3:0] $end
$var reg 4 ; ps [3:0] $end
$upscope $end
$upscope $end
$scope module statedet $end
$var wire 1 ' clk $end
$var wire 1 ( flush $end
$var wire 1 ) goToStandby $end
$var wire 1 * initialOn $end
$var wire 4 < prog [3:0] $end
$var wire 1 + reset $end
$var wire 1 , startScan $end
$var wire 1 - startTransfer $end
$var wire 3 = state [2:0] $end
$var wire 1 . whichScanner $end
$var reg 1 > active $end
$var reg 3 ? ns [2:0] $end
$var reg 3 @ ps [2:0] $end
$upscope $end
$upscope $end
$upscope $end
$enddefinitions $end
#0
$dumpvars
bx @
b0 ?
0>
bx =
bx <
bx ;
bx :
bx 9
b0 8
b0 7
06
05
04
b0 3
bx 2
bx 1
bx 0
bx /
1.
x-
x,
1+
x*
x)
x(
0'
bx &
x%
x$
x#
x"
bx !
$end
#5
b0 :
b0 &
b0 0
b0 1
b0 9
b0 ;
b0 <
0%
0#
0$
0"
15
b0 !
b0 /
b0 2
b0 =
b0 @
b1 3
b1 7
b1 8
1'
#10
0'
#15
05
0(
0-
0,
0)
0*
0+
b10 3
b10 7
b10 8
1'
#20
0'
#25
15
b11 3
b11 7
b11 8
1'
#30
0'
#35
05
b100 3
b100 7
b100 8
1'
#40
0'
#45
15
b101 3
b101 7
b101 8
1)
1'
#50
0'
#55
05
0)
b110 3
b110 7
b110 8
1'
#60
0'
#65
15
b111 3
b111 7
b111 8
1'
#70
0'
#75
b10 ?
1>
05
1*
b1000 3
b1000 7
b1000 8
1'
#80
0'
#85
b1 :
16
b10 !
b10 /
b10 2
b10 =
b10 @
b1001 3
b1001 7
b1001 8
0*
1'
#90
0'
#95
b1010 3
b1010 7
b1010 8
1'
#100
0'
#105
b1011 3
b1011 7
b1011 8
1'
#110
0'
#115
b10 :
b1 &
b1 0
b1 1
b1 9
b1 ;
b1 <
15
b1100 3
b1100 7
b1100 8
1'
#120
0'
#125
b1101 3
b1101 7
b1101 8
1'
#130
0'
#135
b1110 3
b1110 7
b1110 8
1'
#140
0'
#145
b1111 3
b1111 7
b1111 8
1'
#150
0'
#155
05
b10000 3
b10000 7
b10000 8
1'
#160
0'
#165
b10001 3
b10001 7
b10001 8
1'
#170
0'
#175
b10010 3
b10010 7
b10010 8
1'
#180
0'
#185
b10011 3
b10011 7
b10011 8
1'
#190
0'
#195
b11 :
b10 &
b10 0
b10 1
b10 9
b10 ;
b10 <
15
b10100 3
b10100 7
b10100 8
1'
#200
0'
#205
b10101 3
b10101 7
b10101 8
1'
#210
0'
#215
b10110 3
b10110 7
b10110 8
1'
#220
0'
#225
b10111 3
b10111 7
b10111 8
1'
#230
0'
#235
05
b11000 3
b11000 7
b11000 8
1'
#240
0'
#245
b11001 3
b11001 7
b11001 8
1'
#250
0'
#255
b11010 3
b11010 7
b11010 8
1'
#260
0'
#265
b11011 3
b11011 7
b11011 8
1'
#270
0'
#275
b100 :
b11 &
b11 0
b11 1
b11 9
b11 ;
b11 <
15
b11100 3
b11100 7
b11100 8
1'
#280
0'
#285
b11101 3
b11101 7
b11101 8
1'
#290
0'
#295
b11110 3
b11110 7
b11110 8
1'
#300
0'
#305
b11111 3
b11111 7
b11111 8
1'
#310
0'
#315
05
b100000 3
b100000 7
b100000 8
1'
#320
0'
#325
b100001 3
b100001 7
b100001 8
1'
#330
0'
#335
b100010 3
b100010 7
b100010 8
1'
#340
0'
#345
b100011 3
b100011 7
b100011 8
1'
#350
0'
#355
b101 :
b100 &
b100 0
b100 1
b100 9
b100 ;
b100 <
15
b100100 3
b100100 7
b100100 8
1'
#360
0'
#365
b100101 3
b100101 7
b100101 8
1'
#370
0'
#375
b100110 3
b100110 7
b100110 8
1'
#380
0'
#385
b100111 3
b100111 7
b100111 8
1'
#390
0'
#395
05
b101000 3
b101000 7
b101000 8
1'
#400
0'
#405
b101001 3
b101001 7
b101001 8
1'
#410
0'
#415
b101010 3
b101010 7
b101010 8
1'
#420
0'
#425
b101011 3
b101011 7
b101011 8
1'
#430
0'
#435
b110 :
1%
1"
b101 &
b101 0
b101 1
b101 9
b101 ;
b101 <
15
b101100 3
b101100 7
b101100 8
1'
#440
0'
#445
b101101 3
b101101 7
b101101 8
1'
#450
0'
#455
b101110 3
b101110 7
b101110 8
1'
#460
0'
#465
b101111 3
b101111 7
b101111 8
1'
#470
0'
#475
05
b110000 3
b110000 7
b110000 8
1'
#480
0'
#485
b110001 3
b110001 7
b110001 8
1'
#490
0'
#495
b110010 3
b110010 7
b110010 8
1'
#500
0'
#505
b110011 3
b110011 7
b110011 8
1'
#510
0'
#515
b111 :
0%
0"
b110 &
b110 0
b110 1
b110 9
b110 ;
b110 <
15
b110100 3
b110100 7
b110100 8
1'
#520
0'
#525
b110101 3
b110101 7
b110101 8
1'
#530
0'
#535
b110110 3
b110110 7
b110110 8
1'
#540
0'
#545
b110111 3
b110111 7
b110111 8
1'
#550
0'
#555
05
b111000 3
b111000 7
b111000 8
1'
#560
0'
#565
b111001 3
b111001 7
b111001 8
1'
#570
0'
#575
b111010 3
b111010 7
b111010 8
1'
#580
0'
#585
b111011 3
b111011 7
b111011 8
1'
#590
0'
#595
b1000 :
b111 &
b111 0
b111 1
b111 9
b111 ;
b111 <
15
b111100 3
b111100 7
b111100 8
1'
#600
0'
#605
b111101 3
b111101 7
b111101 8
1'
#610
0'
#615
b111110 3
b111110 7
b111110 8
1'
#620
0'
#625
b111111 3
b111111 7
b111111 8
1'
#630
0'
#635
05
b1000000 3
b1000000 7
b1000000 8
1'
#640
0'
#645
b1000001 3
b1000001 7
b1000001 8
1'
#650
0'
#655
b1000010 3
b1000010 7
b1000010 8
1'
#660
0'
#665
b1000011 3
b1000011 7
b1000011 8
1'
#670
0'
#675
b1001 :
1$
b1000 &
b1000 0
b1000 1
b1000 9
b1000 ;
b1000 <
15
b1000100 3
b1000100 7
b1000100 8
1'
#680
0'
#685
b1000101 3
b1000101 7
b1000101 8
1'
#690
0'
#695
b1000110 3
b1000110 7
b1000110 8
1'
#700
0'
#705
b1000111 3
b1000111 7
b1000111 8
1'
#710
0'
#715
05
b1001000 3
b1001000 7
b1001000 8
1'
#720
0'
#725
b1001001 3
b1001001 7
b1001001 8
1'
#730
0'
#735
b1001010 3
b1001010 7
b1001010 8
1'
#740
0'
#745
b1001011 3
b1001011 7
b1001011 8
1'
#750
0'
#755
b1010 :
1#
0$
b1001 &
b1001 0
b1001 1
b1001 9
b1001 ;
b1001 <
15
b1001100 3
b1001100 7
b1001100 8
1'
#760
0'
#765
b1001101 3
b1001101 7
b1001101 8
1'
#770
0'
#775
b1001110 3
b1001110 7
b1001110 8
1'
#780
0'
#785
b1001111 3
b1001111 7
b1001111 8
1'
#790
0'
#795
05
b1010000 3
b1010000 7
b1010000 8
1'
#800
0'
#805
b1010001 3
b1010001 7
b1010001 8
1'
#810
0'
#815
b1010010 3
b1010010 7
b1010010 8
1'
#820
0'
#825
b1010011 3
b1010011 7
b1010011 8
1'
#830
0'
#835
b11 ?
0#
b1010 &
b1010 0
b1010 1
b1010 9
b1010 ;
b1010 <
15
b1010100 3
b1010100 7
b1010100 8
1'
#840
0'
#845
06
b11 !
b11 /
b11 2
b11 =
b11 @
b1010101 3
b1010101 7
b1010101 8
1'
#850
0'
#855
05
b1010110 3
b1010110 7
b1010110 8
1'
#860
0'
#865
15
b1010111 3
b1010111 7
b1010111 8
1'
#870
0'
#875
05
b1011000 3
b1011000 7
b1011000 8
1'
#880
0'
#885
15
b1011001 3
b1011001 7
b1011001 8
1'
#890
0'
#895
05
b1011010 3
b1011010 7
b1011010 8
1'
#900
0'
#905
15
b1011011 3
b1011011 7
b1011011 8
1'
#910
0'
#915
b100 ?
05
1-
b1011100 3
b1011100 7
b1011100 8
1'
#920
0'
#925
b1001 :
14
b100 !
b100 /
b100 2
b100 =
b100 @
b1011101 3
b1011101 7
b1011101 8
0-
1'
#930
0'
#935
b1000 :
b1001 &
b1001 0
b1001 1
b1001 9
b1001 ;
b1001 <
15
b1011110 3
b1011110 7
b1011110 8
1'
#940
0'
#945
b1011111 3
b1011111 7
b1011111 8
1'
#950
0'
#955
05
b1100000 3
b1100000 7
b1100000 8
1'
#960
0'
#965
b1100001 3
b1100001 7
b1100001 8
1'
#970
0'
#975
b111 :
b1000 &
b1000 0
b1000 1
b1000 9
b1000 ;
b1000 <
15
b1100010 3
b1100010 7
b1100010 8
1'
#980
0'
#985
b1100011 3
b1100011 7
b1100011 8
1'
#990
0'
#995
05
b1100100 3
b1100100 7
b1100100 8
1'
#1000
0'
#1005
b1100101 3
b1100101 7
b1100101 8
1'
#1010
0'
#1015
b110 :
b111 &
b111 0
b111 1
b111 9
b111 ;
b111 <
15
b1100110 3
b1100110 7
b1100110 8
1'
#1020
0'
#1025
b1100111 3
b1100111 7
b1100111 8
1'
#1030
0'
#1035
05
b1101000 3
b1101000 7
b1101000 8
1'
#1040
0'
#1045
b1101001 3
b1101001 7
b1101001 8
1'
#1050
0'
#1055
b101 :
b110 &
b110 0
b110 1
b110 9
b110 ;
b110 <
15
b1101010 3
b1101010 7
b1101010 8
1'
#1060
0'
#1065
b1101011 3
b1101011 7
b1101011 8
1'
#1070
0'
#1075
05
b1101100 3
b1101100 7
b1101100 8
1'
#1080
0'
#1085
b1101101 3
b1101101 7
b1101101 8
1'
#1090
0'
#1095
b100 :
b101 &
b101 0
b101 1
b101 9
b101 ;
b101 <
15
b1101110 3
b1101110 7
b1101110 8
1'
#1100
0'
#1105
b1101111 3
b1101111 7
b1101111 8
1'
#1110
0'
#1115
05
b1110000 3
b1110000 7
b1110000 8
1'
#1120
0'
#1125
b1110001 3
b1110001 7
b1110001 8
1'
#1130
0'
#1135
b11 :
b100 &
b100 0
b100 1
b100 9
b100 ;
b100 <
15
b1110010 3
b1110010 7
b1110010 8
1'
#1140
0'
#1145
b1110011 3
b1110011 7
b1110011 8
1'
#1150
0'
#1155
05
b1110100 3
b1110100 7
b1110100 8
1'
#1160
0'
#1165
b1110101 3
b1110101 7
b1110101 8
1'
#1170
0'
#1175
b10 :
b11 &
b11 0
b11 1
b11 9
b11 ;
b11 <
15
b1110110 3
b1110110 7
b1110110 8
1'
#1180
0'
#1185
b1110111 3
b1110111 7
b1110111 8
1'
#1190
0'
#1195
05
b1111000 3
b1111000 7
b1111000 8
1'
#1200
0'
#1205
b1111001 3
b1111001 7
b1111001 8
1'
#1210
0'
#1215
b1 :
b10 &
b10 0
b10 1
b10 9
b10 ;
b10 <
15
b1111010 3
b1111010 7
b1111010 8
1'
#1220
0'
#1225
b1111011 3
b1111011 7
b1111011 8
1'
#1230
0'
#1235
05
b1111100 3
b1111100 7
b1111100 8
1'
#1240
0'
#1245
b1111101 3
b1111101 7
b1111101 8
1'
#1250
0'
#1255
b0 :
b1 &
b1 0
b1 1
b1 9
b1 ;
b1 <
15
b1111110 3
b1111110 7
b1111110 8
1'
#1260
0'
#1265
b1111111 3
b1111111 7
b1111111 8
1'
#1270
0'
#1275
05
b10000000 3
b10000000 7
b10000000 8
1'
#1280
0'
#1285
b10000001 3
b10000001 7
b10000001 8
1'
#1290
0'
#1295
b0 ?
b0 &
b0 0
b0 1
b0 9
b0 ;
b0 <
15
b10000010 3
b10000010 7
b10000010 8
1'
#1300
0'
#1305
04
b0 !
b0 /
b0 2
b0 =
b0 @
b10000011 3
b10000011 7
b10000011 8
1'
#1310
0'
#1315
05
b10000100 3
b10000100 7
b10000100 8
1'
#1320
0'
#1325
15
b10000101 3
b10000101 7
b10000101 8
1'
#1330
0'
#1335
05
b10000110 3
b10000110 7
b10000110 8
1'
#1340
0'
#1345
15
b10000111 3
b10000111 7
b10000111 8
1'
#1350
0'
#1355
05
b10001000 3
b10001000 7
b10001000 8
1'
#1360
0'
#1365
15
b10001001 3
b10001001 7
b10001001 8
1'
#1370
0'
#1375
05
b10001010 3
b10001010 7
b10001010 8
1'
#1380
0'
#1385
15
b10001011 3
b10001011 7
b10001011 8
1'
#1390
0'
#1395
05
b10001100 3
b10001100 7
b10001100 8
1'
#1400
0'
#1405
15
b10001101 3
b10001101 7
b10001101 8
1'
#1410
0'
#1415
05
b10001110 3
b10001110 7
b10001110 8
1'
#1420
0'
#1425
15
b10001111 3
b10001111 7
b10001111 8
1'
#1430
0'
#1435
05
b10010000 3
b10010000 7
b10010000 8
1'
#1440
0'
#1445
15
b10010001 3
b10010001 7
b10010001 8
1'
#1450
0'
#1455
05
b10010010 3
b10010010 7
b10010010 8
1'
#1460
0'
#1465
15
b1 ?
b10010011 3
b10010011 7
b10010011 8
1)
1'
#1470
0'
#1475
05
b10010100 3
b10010100 7
b10010100 8
b1 !
b1 /
b1 2
b1 =
b1 @
1'
#1480
0'
#1485
15
b10010101 3
b10010101 7
b10010101 8
1'
#1490
0'
#1495
05
b10010110 3
b10010110 7
b10010110 8
1'
#1500
0'
#1505
15
b10010111 3
b10010111 7
b10010111 8
1'
#1510
0'
#1515
05
b10011000 3
b10011000 7
b10011000 8
1'
#1520
0'
#1525
15
b10011001 3
b10011001 7
b10011001 8
1'
#1530
0'
#1535
05
b10011010 3
b10011010 7
b10011010 8
1'
#1540
0'
#1545
15
b10011011 3
b10011011 7
b10011011 8
1'
#1550
0'
#1555
b10 ?
05
1,
b10011100 3
b10011100 7
b10011100 8
1'
#1560
0'
#1565
b1 :
16
15
b10 !
b10 /
b10 2
b10 =
b10 @
b10011101 3
b10011101 7
b10011101 8
0)
1'
#1570
0'
#1575
b10011110 3
b10011110 7
b10011110 8
1'
#1580
0'
#1585
b10011111 3
b10011111 7
b10011111 8
0,
1'
#1590
0'
#1595
05
b10100000 3
b10100000 7
b10100000 8
1'
#1600
0'
#1605
b10100001 3
b10100001 7
b10100001 8
1'
#1610
0'
#1615
b10100010 3
b10100010 7
b10100010 8
1'
#1620
0'
#1625
b10100011 3
b10100011 7
b10100011 8
1'
#1630
0'
#1635
b10 :
b1 &
b1 0
b1 1
b1 9
b1 ;
b1 <
15
b10100100 3
b10100100 7
b10100100 8
1'
#1640
0'
#1645
b10100101 3
b10100101 7
b10100101 8
1'
#1650
0'
#1655
b10100110 3
b10100110 7
b10100110 8
1'
#1660
0'
#1665
b10100111 3
b10100111 7
b10100111 8
1'
#1670
0'
#1675
05
b10101000 3
b10101000 7
b10101000 8
1'
#1680
0'
#1685
b10101001 3
b10101001 7
b10101001 8
1'
#1690
0'
#1695
b10101010 3
b10101010 7
b10101010 8
1'
#1700
0'
#1705
b10101011 3
b10101011 7
b10101011 8
1'
#1710
0'
#1715
b11 :
b10 &
b10 0
b10 1
b10 9
b10 ;
b10 <
15
b10101100 3
b10101100 7
b10101100 8
1'
#1720
0'
#1725
b10101101 3
b10101101 7
b10101101 8
1'
#1730
0'
#1735
b10101110 3
b10101110 7
b10101110 8
1'
#1740
0'
#1745
b10101111 3
b10101111 7
b10101111 8
1'
#1750
0'
#1755
05
b10110000 3
b10110000 7
b10110000 8
1'
#1760
0'
#1765
b10110001 3
b10110001 7
b10110001 8
1'
#1770
0'
#1775
b10110010 3
b10110010 7
b10110010 8
1'
#1780
0'
#1785
b10110011 3
b10110011 7
b10110011 8
1'
#1790
0'
#1795
b100 :
b11 &
b11 0
b11 1
b11 9
b11 ;
b11 <
15
b10110100 3
b10110100 7
b10110100 8
1'
#1800
0'
#1805
b10110101 3
b10110101 7
b10110101 8
1'
#1810
0'
#1815
b10110110 3
b10110110 7
b10110110 8
1'
#1820
0'
#1825
b10110111 3
b10110111 7
b10110111 8
1'
#1830
0'
#1835
05
b10111000 3
b10111000 7
b10111000 8
1'
#1840
0'
#1845
b10111001 3
b10111001 7
b10111001 8
1'
#1850
0'
#1855
b10111010 3
b10111010 7
b10111010 8
1'
#1860
0'
#1865
b10111011 3
b10111011 7
b10111011 8
1'
#1870
0'
#1875
b101 :
b100 &
b100 0
b100 1
b100 9
b100 ;
b100 <
15
b10111100 3
b10111100 7
b10111100 8
1'
#1880
0'
#1885
b10111101 3
b10111101 7
b10111101 8
1'
#1890
0'
#1895
b10111110 3
b10111110 7
b10111110 8
1'
#1900
0'
#1905
b10111111 3
b10111111 7
b10111111 8
1'
#1910
0'
#1915
05
b11000000 3
b11000000 7
b11000000 8
1'
#1920
0'
#1925
b11000001 3
b11000001 7
b11000001 8
1'
#1930
0'
#1935
b11000010 3
b11000010 7
b11000010 8
1'
#1940
0'
#1945
b11000011 3
b11000011 7
b11000011 8
1'
#1950
0'
#1955
b110 :
1%
1"
b101 &
b101 0
b101 1
b101 9
b101 ;
b101 <
15
b11000100 3
b11000100 7
b11000100 8
1'
#1960
0'
#1965
b11000101 3
b11000101 7
b11000101 8
1'
#1970
0'
#1975
b11000110 3
b11000110 7
b11000110 8
1'
#1980
0'
#1985
b11000111 3
b11000111 7
b11000111 8
1'
#1990
0'
#1995
05
b11001000 3
b11001000 7
b11001000 8
1'
#2000
0'
#2005
b11001001 3
b11001001 7
b11001001 8
1'
#2010
0'
#2015
b11001010 3
b11001010 7
b11001010 8
1'
#2020
0'
#2025
b11001011 3
b11001011 7
b11001011 8
1'
#2030
0'
#2035
b111 :
0%
0"
b110 &
b110 0
b110 1
b110 9
b110 ;
b110 <
15
b11001100 3
b11001100 7
b11001100 8
1'
#2040
0'
#2045
b11001101 3
b11001101 7
b11001101 8
1'
#2050
0'
#2055
b11001110 3
b11001110 7
b11001110 8
1'
#2060
0'
#2065
b11001111 3
b11001111 7
b11001111 8
1'
#2070
0'
#2075
05
b11010000 3
b11010000 7
b11010000 8
1'
#2080
0'
#2085
b11010001 3
b11010001 7
b11010001 8
1'
#2090
0'
#2095
b11010010 3
b11010010 7
b11010010 8
1'
#2100
0'
#2105
b11010011 3
b11010011 7
b11010011 8
1'
#2110
0'
#2115
b1000 :
b111 &
b111 0
b111 1
b111 9
b111 ;
b111 <
15
b11010100 3
b11010100 7
b11010100 8
1'
#2120
0'
#2125
b11010101 3
b11010101 7
b11010101 8
1'
#2130
0'
#2135
b11010110 3
b11010110 7
b11010110 8
1'
#2140
0'
#2145
b11010111 3
b11010111 7
b11010111 8
1'
#2150
0'
#2155
05
b11011000 3
b11011000 7
b11011000 8
1'
#2160
0'
#2165
b11011001 3
b11011001 7
b11011001 8
1'
#2170
0'
#2175
b11011010 3
b11011010 7
b11011010 8
1'
#2180
0'
#2185
b11011011 3
b11011011 7
b11011011 8
1'
#2190
0'
#2195
b1001 :
1$
b1000 &
b1000 0
b1000 1
b1000 9
b1000 ;
b1000 <
15
b11011100 3
b11011100 7
b11011100 8
1'
#2200
0'
#2205
b11011101 3
b11011101 7
b11011101 8
1'
#2210
0'
#2215
b11011110 3
b11011110 7
b11011110 8
1'
#2220
0'
#2225
b11011111 3
b11011111 7
b11011111 8
1'
#2230
0'
#2235
05
b11100000 3
b11100000 7
b11100000 8
1'
#2240
0'
#2245
b11100001 3
b11100001 7
b11100001 8
1'
#2250
0'
#2255
b11100010 3
b11100010 7
b11100010 8
1'
#2260
0'
#2265
b11100011 3
b11100011 7
b11100011 8
1'
#2270
0'
#2275
b1010 :
1#
0$
b1001 &
b1001 0
b1001 1
b1001 9
b1001 ;
b1001 <
15
b11100100 3
b11100100 7
b11100100 8
1'
#2280
0'
#2285
b11100101 3
b11100101 7
b11100101 8
1'
#2290
0'
#2295
b11100110 3
b11100110 7
b11100110 8
1'
#2300
0'
#2305
b11100111 3
b11100111 7
b11100111 8
1'
#2310
0'
#2315
05
b11101000 3
b11101000 7
b11101000 8
1'
#2320
0'
#2325
b11101001 3
b11101001 7
b11101001 8
1'
#2330
0'
#2335
b11101010 3
b11101010 7
b11101010 8
1'
#2340
0'
#2345
b11101011 3
b11101011 7
b11101011 8
1'
#2350
0'
#2355
b11 ?
0#
b1010 &
b1010 0
b1010 1
b1010 9
b1010 ;
b1010 <
15
b11101100 3
b11101100 7
b11101100 8
1'
#2360
0'
#2365
06
b11 !
b11 /
b11 2
b11 =
b11 @
b11101101 3
b11101101 7
b11101101 8
1'
#2370
0'
#2375
05
b11101110 3
b11101110 7
b11101110 8
1'
#2380
0'
#2385
15
b11101111 3
b11101111 7
b11101111 8
1'
#2390
0'
#2395
05
b11110000 3
b11110000 7
b11110000 8
1'
#2400
0'
#2405
15
b11110001 3
b11110001 7
b11110001 8
1'
#2410
0'
#2415
05
b11110010 3
b11110010 7
b11110010 8
1'
#2420
0'
#2425
15
b101 ?
b11110011 3
b11110011 7
b11110011 8
1(
1'
#2430
0'
#2435
b1001 :
14
05
b11110100 3
b11110100 7
b11110100 8
b101 !
b101 /
b101 2
b101 =
b101 @
1'
#2440
0'
#2445
b1000 :
b1001 &
b1001 0
b1001 1
b1001 9
b1001 ;
b1001 <
15
b11110101 3
b11110101 7
b11110101 8
1'
#2450
0'
#2455
05
b11110110 3
b11110110 7
b11110110 8
1'
#2460
0'
#2465
b111 :
b1000 &
b1000 0
b1000 1
b1000 9
b1000 ;
b1000 <
15
b11110111 3
b11110111 7
b11110111 8
1'
#2470
0'
#2475
05
0(
b11111000 3
b11111000 7
b11111000 8
1'
#2480
0'
#2485
b110 :
b111 &
b111 0
b111 1
b111 9
b111 ;
b111 <
15
b11111001 3
b11111001 7
b11111001 8
1'
#2490
0'
#2495
05
b11111010 3
b11111010 7
b11111010 8
1'
#2500
0'
#2505
b101 :
b110 &
b110 0
b110 1
b110 9
b110 ;
b110 <
15
b11111011 3
b11111011 7
b11111011 8
1'
#2510
0'
#2515
05
b11111100 3
b11111100 7
b11111100 8
1'
#2520
0'
#2525
b100 :
b101 &
b101 0
b101 1
b101 9
b101 ;
b101 <
15
b11111101 3
b11111101 7
b11111101 8
1'
#2530
0'
#2535
05
b11111110 3
b11111110 7
b11111110 8
1'
#2540
0'
#2545
b11 :
b100 &
b100 0
b100 1
b100 9
b100 ;
b100 <
15
b11111111 3
b11111111 7
b11111111 8
1'
#2550
0'
#2555
05
b100000000 3
b100000000 7
b100000000 8
1'
#2560
0'
#2565
b10 :
b11 &
b11 0
b11 1
b11 9
b11 ;
b11 <
15
b100000001 3
b100000001 7
b100000001 8
1'
#2570
0'
#2575
05
b100000010 3
b100000010 7
b100000010 8
1'
#2580
0'
#2585
b1 :
b10 &
b10 0
b10 1
b10 9
b10 ;
b10 <
15
b100000011 3
b100000011 7
b100000011 8
1'
#2590
0'
#2595
05
b100000100 3
b100000100 7
b100000100 8
1'
#2600
0'
#2605
b0 :
b1 &
b1 0
b1 1
b1 9
b1 ;
b1 <
15
b100000101 3
b100000101 7
b100000101 8
1'
#2610
0'
#2615
05
b100000110 3
b100000110 7
b100000110 8
1'
#2620
0'
#2625
b0 ?
b0 &
b0 0
b0 1
b0 9
b0 ;
b0 <
15
b100000111 3
b100000111 7
b100000111 8
1'
#2630
0'
#2635
04
05
b100001000 3
b100001000 7
b100001000 8
b0 !
b0 /
b0 2
b0 =
b0 @
1'
#2640
0'
#2645
15
b100001001 3
b100001001 7
b100001001 8
1'
#2650
0'
#2655
05
b100001010 3
b100001010 7
b100001010 8
1'
#2660
0'
#2665
15
b100001011 3
b100001011 7
b100001011 8
1'
#2670
0'
#2675
05
b100001100 3
b100001100 7
b100001100 8
1'
#2680
0'
#2685
15
b100001101 3
b100001101 7
b100001101 8
1'
#2690
0'
#2695
05
b100001110 3
b100001110 7
b100001110 8
1'
#2700
0'
#2705
15
b100001111 3
b100001111 7
b100001111 8
1'
