lab5/lab5/verilog/scanner/counter.vcd
$date
	Tue Dec  6 15:44:56 2016
$end
$version
	Icarus Verilog
$end
$timescale
	1s
$end
$scope module counter_testbench $end
$var wire 4 ! percentage [3:0] $end
$var wire 8 " data_out [7:0] $end
$var wire 8 # data_in [7:0] $end
$var reg 1 $ clk $end
$var reg 1 % down $end
$var reg 1 & reset $end
$var reg 1 ' up $end
$scope module dut $end
$var wire 1 $ clk $end
$var wire 8 ( data_in [7:0] $end
$var wire 8 ) data_out [7:0] $end
$var wire 1 % down $end
$var wire 4 * percentage [3:0] $end
$var wire 1 & reset $end
$var wire 1 ' up $end
$var reg 4 + ns [3:0] $end
$var reg 4 , ps [3:0] $end
$upscope $end
$upscope $end
$enddefinitions $end
#0
$dumpvars
b0 ,
b0 +
b0 *
b0 )
b0 (
x'
1&
x%
0$
b0 #
b0 "
b0 !
$end
#5
1$
#10
0$
#15
0%
0'
0&
1$
#20
0$
#25
1$
#30
0$
#35
1$
#40
0$
#45
b1 +
1'
1$
#50
0$
#55
b10 +
b1 #
b1 (
b1 !
b1 *
b1 ,
1$
#60
0$
#65
b11 +
b10 #
b10 (
b10 !
b10 *
b10 ,
1$
#70
0$
#75
b100 +
b11 #
b11 (
b11 !
b11 *
b11 ,
1$
#80
0$
#85
b101 +
b100 #
b100 (
b100 !
b100 *
b100 ,
1$
#90
0$
#95
b110 +
b101 #
b101 (
b101 !
b101 *
b101 ,
1$
#100
0$
#105
b111 +
b110 #
b110 (
b110 !
b110 *
b110 ,
1$
#110
0$
#115
b1000 +
b111 #
b111 (
b111 !
b111 *
b111 ,
1$
#120
0$
#125
b1001 +
b1000 #
b1000 (
b1000 !
b1000 *
b1000 ,
1$
#130
0$
#135
b1001 #
b1001 (
b1001 !
b1001 *
b1001 ,
1$
#140
0$
#145
1$
#150
0$
#155
1$
#160
0$
#165
1$
#170
0$
#175
1%
1$
#180
0$
#185
b1000 +
0'
1$
#190
0$
#195
b111 +
b1000 "
b1000 )
b1000 #
b1000 (
b1000 !
b1000 *
b1000 ,
1$
#200
0$
#205
b110 +
b111 "
b111 )
b111 #
b111 (
b111 !
b111 *
b111 ,
1$
#210
0$
#215
b101 +
b110 "
b110 )
b110 #
b110 (
b110 !
b110 *
b110 ,
1$
#220
0$
#225
b100 +
b101 "
b101 )
b101 #
b101 (
b101 !
b101 *
b101 ,
1$
#230
0$
#235
b11 +
b100 "
b100 )
b100 #
b100 (
b100 !
b100 *
b100 ,
1$
#240
0$
#245
b10 +
b11 "
b11 )
b11 #
b11 (
b11 !
b11 *
b11 ,
1$
#250
0$
#255
b1 +
b10 "
b10 )
b10 #
b10 (
b10 !
b10 *
b10 ,
1$
#260
0$
#265
b0 +
b1 "
b1 )
b1 #
b1 (
b1 !
b1 *
b1 ,
1$
#270
0$
#275
b0 "
b0 )
b0 #
b0 (
b0 !
b0 *
b0 ,
1$
#280
0$
#285
1$
#290
0$
#295
1$
#300
0$
#305
0%
1$
