lab2/overall.vcd
$date
	Tue Nov  1 15:46:19 2016
$end
$version
	Icarus Verilog
$end
$timescale
	1s
$end
$scope module overall_testbench $end
$var wire 1 ! poundOccupied $end
$var wire 4 " insideWaterLvl [3:0] $end
$var wire 1 # deptGate $end
$var wire 1 $ arrivGate $end
$var reg 4 % arrivOutsideLvl [3:0] $end
$var reg 1 & clk $end
$var reg 1 ' decr $end
$var reg 4 ( deptOutsideLvl [3:0] $end
$var reg 1 ) fiveMinTillArrival $end
$var reg 1 * gateCtrl $end
$var reg 1 + incr $end
$var reg 1 , reset $end
$scope module dut $end
$var wire 1 $ arrivGate $end
$var wire 4 - arrivOutsideLvl [3:0] $end
$var wire 1 & clock $end
$var wire 1 ' decr $end
$var wire 1 # deptGate $end
$var wire 4 . deptOutsideLvl [3:0] $end
$var wire 1 ) fiveMinTillArrival $end
$var wire 1 * gateCtrl $end
$var wire 1 + incr $end
$var wire 1 , reset $end
$var wire 1 / sealed $end
$var wire 1 ! poundOccupied $end
$var wire 4 0 insideWaterLvl [3:0] $end
$var wire 1 1 diffOkDept $end
$var wire 1 2 diffOkArr $end
$var wire 1 3 clk $end
$var reg 4 4 max [3:0] $end
$var reg 4 5 min [3:0] $end
$scope module cDiv $end
$var wire 1 & clk $end
$var wire 1 3 divided_clock $end
$var reg 32 6 clocks [31:0] $end
$upscope $end
$scope module inner $end
$var wire 1 3 clk $end
$var wire 1 ' down $end
$var wire 1 / enable $end
$var wire 4 7 max [3:0] $end
$var wire 4 8 min [3:0] $end
$var wire 1 , reset $end
$var wire 1 + up $end
$var wire 4 9 out [3:0] $end
$var reg 4 : ns [3:0] $end
$var reg 4 ; ps [3:0] $end
$upscope $end
$scope module occup $end
$var wire 1 $ arrivalGate $end
$var wire 1 3 clk $end
$var wire 1 # departureGate $end
$var wire 1 , reset $end
$var wire 1 ! out $end
$var reg 1 < ns $end
$var reg 1 ! ps $end
$upscope $end
$upscope $end
$upscope $end
$enddefinitions $end
#0
$dumpvars
0<
b0 ;
b0 :
b0 9
bx 8
bx 7
b1 6
bx 5
bx 4
13
x2
x1
b0 0
x/
bx .
bx -
1,
x+
x*
x)
bx (
x'
1&
bx %
x$
x#
b0 "
0!
$end
#2
0&
#4
03
b10 6
1&
#6
0&
#8
1/
13
0$
0#
b0 5
b0 8
b100 4
b100 7
b11 6
0*
0)
0'
0+
11
b0 (
b0 .
02
b100 %
b100 -
0,
1&
#10
0&
#12
0/
1#
03
1*
b100 6
1&
#14
0&
#16
13
b101 6
1&
#18
0&
#20
1/
0#
03
0*
b110 6
1&
#22
0&
#24
13
b111 6
1)
1&
#26
0&
#28
03
b1000 6
1&
#30
0&
#32
01
b1 "
b1 0
b1 9
b1 ;
13
b10 :
b1001 6
1+
1&
#34
0&
#36
03
b1010 6
1&
#38
0&
#40
b11 :
b10 "
b10 0
b10 9
b10 ;
13
b1011 6
1&
#42
0&
#44
03
b1100 6
1&
#46
0&
#48
b100 :
b11 "
b11 0
b11 9
b11 ;
13
b1101 6
1&
#50
0&
#52
03
b1110 6
1&
#54
0&
#56
12
b100 "
b100 0
b100 9
b100 ;
13
b1111 6
1&
#58
0&
#60
03
b10000 6
1&
#62
0&
#64
13
b10001 6
1&
#66
0&
#68
03
b10010 6
1&
#70
0&
#72
1!
1/
1<
13
0$
b10011 6
1*
1&
#74
0&
#76
03
b10100 6
1&
#78
0&
#80
13
b10101 6
0*
1&
#82
0&
#84
03
b10110 6
1&
#86
0&
#88
13
b10111 6
1'
1&
#90
0&
#92
b11 :
03
0+
b11000 6
1&
#94
0&
#96
b10 :
02
b11 "
b11 0
b11 9
b11 ;
13
b11001 6
1&
#98
0&
#100
03
b11010 6
1&
#102
0&
#104
b1 :
b10 "
b10 0
b10 9
b10 ;
13
b11011 6
1&
#106
0&
#108
03
b11100 6
1&
#110
0&
#112
b0 :
b1 "
b1 0
b1 9
b1 ;
13
b11101 6
1&
#114
0&
#116
03
b11110 6
1&
#118
0&
#120
11
b0 "
b0 0
b0 9
b0 ;
13
b11111 6
1&
#122
0&
#124
03
b100000 6
1&
#126
0&
#128
13
b100001 6
1&
#130
0&
#132
03
b100010 6
1&
#134
0&
#136
13
b100011 6
1&
#138
0&
#140
03
b100100 6
1&
#142
0&
#144
0!
0/
0<
13
1#
b100101 6
1*
1&
#146
0&
#148
1/
0#
03
0*
b100110 6
1&
#150
0&
#152
13
b100111 6
1&
#154
0&
#156
03
b101000 6
1&
#158
0&
#160
13
b101001 6
1&
