lab3/verilog/overall.vcd
$date
	Sat Nov 12 10:14:20 2016
$end
$version
	Icarus Verilog
$end
$timescale
	1s
$end
$scope module overall_testbench $end
$var wire 7 ! scan2_state_display [6:0] $end
$var wire 3 " scan2_state [2:0] $end
$var wire 1 # scan2_readyToTransfer $end
$var wire 7 $ scan2_prog2_display [6:0] $end
$var wire 7 % scan2_prog1_display [6:0] $end
$var wire 4 & scan2_prog [3:0] $end
$var wire 7 ' scan1_state_display [6:0] $end
$var wire 3 ( scan1_state [2:0] $end
$var wire 1 ) scan1_readyToTransfer $end
$var wire 7 * scan1_prog2_display [6:0] $end
$var wire 7 + scan1_prog1_display [6:0] $end
$var wire 4 , scan1_prog [3:0] $end
$var reg 1 - clk $end
$var reg 1 . initialOn $end
$var reg 1 / reset $end
$var reg 1 0 startTransfer $end
$scope module dut $end
$var wire 1 - clk $end
$var wire 1 . initialOn $end
$var wire 1 / reset $end
$var wire 1 0 startTransfer $end
$var wire 3 1 scan2_state [2:0] $end
$var wire 1 # scan2_readyToTransfer $end
$var wire 4 2 scan2_prog [3:0] $end
$var wire 1 3 scan2_otherStartScan $end
$var wire 1 4 scan2_otherGoToStandby $end
$var wire 1 5 scan2_otherFlush $end
$var wire 3 6 scan1_state [2:0] $end
$var wire 1 ) scan1_readyToTransfer $end
$var wire 4 7 scan1_prog [3:0] $end
$var wire 1 8 scan1_otherStartScan $end
$var wire 1 9 scan1_otherGoToStandby $end
$var wire 1 : scan1_otherFlush $end
$var reg 7 ; scan1_prog1_display [6:0] $end
$var reg 7 < scan1_prog2_display [6:0] $end
$var reg 7 = scan1_state_display [6:0] $end
$var reg 7 > scan2_prog1_display [6:0] $end
$var reg 7 ? scan2_prog2_display [6:0] $end
$var reg 7 @ scan2_state_display [6:0] $end
$scope module scan1 $end
$var wire 1 - clk $end
$var wire 1 . initialOn $end
$var wire 1 : otherFlush $end
$var wire 1 9 otherGoToStandby $end
$var wire 1 8 otherStartScan $end
$var wire 1 ) readyToTransfer $end
$var wire 1 / reset $end
$var wire 1 0 startTransfer $end
$var wire 1 A whichScanner $end
$var wire 3 B state [2:0] $end
$var wire 1 3 startScan $end
$var wire 1 4 goToStandby $end
$var wire 1 5 flush $end
$var wire 4 C buffer_progress [3:0] $end
$scope module prog $end
$var wire 1 - clk $end
$var wire 1 / reset $end
$var wire 4 D val [3:0] $end
$var wire 3 E state [2:0] $end
$var wire 32 F divided_clocks [31:0] $end
$var reg 1 G down $end
$var reg 1 H final_clock $end
$var reg 1 I up $end
$scope module div $end
$var wire 1 - clk $end
$var wire 32 J divided_clocks [31:0] $end
$var reg 32 K clocks [31:0] $end
$upscope $end
$scope module prog $end
$var wire 1 H clk $end
$var wire 1 G down $end
$var wire 1 / reset $end
$var wire 1 I up $end
$var wire 4 L val [3:0] $end
$var reg 4 M ns [3:0] $end
$var reg 4 N ps [3:0] $end
$upscope $end
$upscope $end
$scope module statedet $end
$var wire 1 - clk $end
$var wire 1 . initialOn $end
$var wire 4 O prog [3:0] $end
$var wire 1 / reset $end
$var wire 1 0 startTransfer $end
$var wire 3 P state [2:0] $end
$var wire 1 A whichScanner $end
$var wire 1 3 startScan $end
$var wire 1 4 goToStandby $end
$var wire 1 5 flush $end
$var reg 1 Q active $end
$var reg 3 R ns [2:0] $end
$var reg 3 S ps [2:0] $end
$upscope $end
$upscope $end
$scope module scan2 $end
$var wire 1 - clk $end
$var wire 1 : flush $end
$var wire 1 9 goToStandby $end
$var wire 1 . initialOn $end
$var wire 1 5 otherFlush $end
$var wire 1 4 otherGoToStandby $end
$var wire 1 3 otherStartScan $end
$var wire 1 # readyToTransfer $end
$var wire 1 / reset $end
$var wire 1 8 startScan $end
$var wire 1 0 startTransfer $end
$var wire 1 T whichScanner $end
$var wire 3 U state [2:0] $end
$var wire 4 V buffer_progress [3:0] $end
$scope module prog $end
$var wire 1 - clk $end
$var wire 1 / reset $end
$var wire 4 W val [3:0] $end
$var wire 3 X state [2:0] $end
$var wire 32 Y divided_clocks [31:0] $end
$var reg 1 Z down $end
$var reg 1 [ final_clock $end
$var reg 1 \ up $end
$scope module div $end
$var wire 1 - clk $end
$var wire 32 ] divided_clocks [31:0] $end
$var reg 32 ^ clocks [31:0] $end
$upscope $end
$scope module prog $end
$var wire 1 [ clk $end
$var wire 1 Z down $end
$var wire 1 / reset $end
$var wire 1 \ up $end
$var wire 4 _ val [3:0] $end
$var reg 4 ` ns [3:0] $end
$var reg 4 a ps [3:0] $end
$upscope $end
$upscope $end
$scope module statedet $end
$var wire 1 - clk $end
$var wire 1 : flush $end
$var wire 1 9 goToStandby $end
$var wire 1 . initialOn $end
$var wire 4 b prog [3:0] $end
$var wire 1 / reset $end
$var wire 1 8 startScan $end
$var wire 1 0 startTransfer $end
$var wire 3 c state [2:0] $end
$var wire 1 T whichScanner $end
$var reg 1 d active $end
$var reg 3 e ns [2:0] $end
$var reg 3 f ps [2:0] $end
$upscope $end
$upscope $end
$upscope $end
$upscope $end
$enddefinitions $end
#0
$dumpvars
bx f
b0 e
0d
bx c
bx b
bx a
bx `
bx _
b0 ^
b0 ]
0\
0[
0Z
b0 Y
bx X
bx W
bx V
bx U
0T
bx S
b0 R
0Q
bx P
bx O
bx N
bx M
bx L
b0 K
b0 J
0I
0H
0G
b0 F
bx E
bx D
bx C
bx B
1A
bx @
bx ?
bx >
bx =
bx <
bx ;
x:
x9
x8
bx 7
bx 6
x5
x4
x3
bx 2
bx 1
x0
1/
x.
0-
bx ,
bx +
bx *
x)
bx (
bx '
bx &
bx %
bx $
x#
bx "
bx !
$end
#5
b0 M
b0 `
b0 ,
b0 7
b0 C
b0 D
b0 L
b0 N
b0 O
b0 &
b0 2
b0 V
b0 W
b0 _
b0 a
b0 b
0:
08
09
0)
1H
05
03
04
0#
b1111111 $
b1111111 ?
b1111111 %
b1111111 >
b1111111 !
b1111111 @
b1111111 *
b1111111 <
b1111111 +
b1111111 ;
b1111111 '
b1111111 =
1[
b0 (
b0 6
b0 B
b0 E
b0 P
b0 S
b1 F
b1 J
b1 K
b0 "
b0 1
b0 U
b0 X
b0 c
b0 f
b1 Y
b1 ]
b1 ^
1-
#10
0-
#15
0[
0H
00
0.
0/
b10 Y
b10 ]
b10 ^
b10 F
b10 J
b10 K
1-
#20
0-
#25
1H
1[
b11 F
b11 J
b11 K
b11 Y
b11 ]
b11 ^
1-
#30
0-
#35
b10 R
1Q
1d
0[
0H
1.
b100 Y
b100 ]
b100 ^
b100 F
b100 J
b100 K
1-
#40
0-
#45
b1 M
b1000000 *
b1000000 <
b1000000 +
b1000000 ;
b10010 '
b10010 =
1I
1[
b10 (
b10 6
b10 B
b10 E
b10 P
b10 S
b101 F
b101 J
b101 K
b101 Y
b101 ]
b101 ^
0.
1-
#50
0-
#55
0[
b110 Y
b110 ]
b110 ^
b110 F
b110 J
b110 K
1-
#60
0-
#65
1[
b111 F
b111 J
b111 K
b111 Y
b111 ]
b111 ^
1-
#70
0-
#75
b10 M
b1111001 *
b1111001 <
b1 ,
b1 7
b1 C
b1 D
b1 L
b1 N
b1 O
0[
1H
b1000 Y
b1000 ]
b1000 ^
b1000 F
b1000 J
b1000 K
1-
#80
0-
#85
1[
b1001 F
b1001 J
b1001 K
b1001 Y
b1001 ]
b1001 ^
1-
#90
0-
#95
0[
b1010 Y
b1010 ]
b1010 ^
b1010 F
b1010 J
b1010 K
1-
#100
0-
#105
1[
b1011 F
b1011 J
b1011 K
b1011 Y
b1011 ]
b1011 ^
1-
#110
0-
#115
0[
b1100 Y
b1100 ]
b1100 ^
b1100 F
b1100 J
b1100 K
1-
#120
0-
#125
1[
b1101 F
b1101 J
b1101 K
b1101 Y
b1101 ]
b1101 ^
1-
#130
0-
#135
0[
b1110 Y
b1110 ]
b1110 ^
b1110 F
b1110 J
b1110 K
1-
#140
0-
#145
1[
b1111 F
b1111 J
b1111 K
b1111 Y
b1111 ]
b1111 ^
1-
#150
0-
#155
0[
0H
b10000 Y
b10000 ]
b10000 ^
b10000 F
b10000 J
b10000 K
1-
#160
0-
#165
1[
b10001 F
b10001 J
b10001 K
b10001 Y
b10001 ]
b10001 ^
1-
#170
0-
#175
0[
b10010 Y
b10010 ]
b10010 ^
b10010 F
b10010 J
b10010 K
1-
#180
0-
#185
1[
b10011 F
b10011 J
b10011 K
b10011 Y
b10011 ]
b10011 ^
1-
#190
0-
#195
0[
b10100 Y
b10100 ]
b10100 ^
b10100 F
b10100 J
b10100 K
1-
#200
0-
#205
1[
b10101 F
b10101 J
b10101 K
b10101 Y
b10101 ]
b10101 ^
1-
#210
0-
#215
0[
b10110 Y
b10110 ]
b10110 ^
b10110 F
b10110 J
b10110 K
1-
#220
0-
#225
1[
b10111 F
b10111 J
b10111 K
b10111 Y
b10111 ]
b10111 ^
1-
#230
0-
#235
b11 M
b100100 *
b100100 <
b10 ,
b10 7
b10 C
b10 D
b10 L
b10 N
b10 O
0[
1H
b11000 Y
b11000 ]
b11000 ^
b11000 F
b11000 J
b11000 K
1-
#240
0-
#245
1[
b11001 F
b11001 J
b11001 K
b11001 Y
b11001 ]
b11001 ^
1-
#250
0-
#255
0[
b11010 Y
b11010 ]
b11010 ^
b11010 F
b11010 J
b11010 K
1-
#260
0-
#265
1[
b11011 F
b11011 J
b11011 K
b11011 Y
b11011 ]
b11011 ^
1-
#270
0-
#275
0[
b11100 Y
b11100 ]
b11100 ^
b11100 F
b11100 J
b11100 K
1-
#280
0-
#285
1[
b11101 F
b11101 J
b11101 K
b11101 Y
b11101 ]
b11101 ^
1-
#290
0-
#295
0[
b11110 Y
b11110 ]
b11110 ^
b11110 F
b11110 J
b11110 K
1-
#300
0-
#305
1[
b11111 F
b11111 J
b11111 K
b11111 Y
b11111 ]
b11111 ^
1-
#310
0-
#315
0[
0H
b100000 Y
b100000 ]
b100000 ^
b100000 F
b100000 J
b100000 K
1-
#320
0-
#325
1[
b100001 F
b100001 J
b100001 K
b100001 Y
b100001 ]
b100001 ^
1-
#330
0-
#335
0[
b100010 Y
b100010 ]
b100010 ^
b100010 F
b100010 J
b100010 K
1-
#340
0-
#345
1[
b100011 F
b100011 J
b100011 K
b100011 Y
b100011 ]
b100011 ^
1-
#350
0-
#355
0[
b100100 Y
b100100 ]
b100100 ^
b100100 F
b100100 J
b100100 K
1-
#360
0-
#365
1[
b100101 F
b100101 J
b100101 K
b100101 Y
b100101 ]
b100101 ^
1-
#370
0-
#375
0[
b100110 Y
b100110 ]
b100110 ^
b100110 F
b100110 J
b100110 K
1-
#380
0-
#385
1[
b100111 F
b100111 J
b100111 K
b100111 Y
b100111 ]
b100111 ^
1-
#390
0-
#395
b100 M
b110000 *
b110000 <
b11 ,
b11 7
b11 C
b11 D
b11 L
b11 N
b11 O
0[
1H
b101000 Y
b101000 ]
b101000 ^
b101000 F
b101000 J
b101000 K
1-
#400
0-
#405
1[
b101001 F
b101001 J
b101001 K
b101001 Y
b101001 ]
b101001 ^
1-
#410
0-
#415
0[
b101010 Y
b101010 ]
b101010 ^
b101010 F
b101010 J
b101010 K
1-
#420
0-
#425
1[
b101011 F
b101011 J
b101011 K
b101011 Y
b101011 ]
b101011 ^
1-
#430
0-
#435
0[
b101100 Y
b101100 ]
b101100 ^
b101100 F
b101100 J
b101100 K
1-
#440
0-
#445
1[
b101101 F
b101101 J
b101101 K
b101101 Y
b101101 ]
b101101 ^
1-
#450
0-
#455
0[
b101110 Y
b101110 ]
b101110 ^
b101110 F
b101110 J
b101110 K
1-
#460
0-
#465
1[
b101111 F
b101111 J
b101111 K
b101111 Y
b101111 ]
b101111 ^
1-
#470
0-
#475
0[
0H
b110000 Y
b110000 ]
b110000 ^
b110000 F
b110000 J
b110000 K
1-
#480
0-
#485
1[
b110001 F
b110001 J
b110001 K
b110001 Y
b110001 ]
b110001 ^
1-
#490
0-
#495
0[
b110010 Y
b110010 ]
b110010 ^
b110010 F
b110010 J
b110010 K
1-
#500
0-
#505
1[
b110011 F
b110011 J
b110011 K
b110011 Y
b110011 ]
b110011 ^
1-
#510
0-
#515
0[
b110100 Y
b110100 ]
b110100 ^
b110100 F
b110100 J
b110100 K
1-
#520
0-
#525
1[
b110101 F
b110101 J
b110101 K
b110101 Y
b110101 ]
b110101 ^
1-
#530
0-
#535
0[
b110110 Y
b110110 ]
b110110 ^
b110110 F
b110110 J
b110110 K
1-
#540
0-
#545
1[
b110111 F
b110111 J
b110111 K
b110111 Y
b110111 ]
b110111 ^
1-
#550
0-
#555
b101 M
b11001 *
b11001 <
b100 ,
b100 7
b100 C
b100 D
b100 L
b100 N
b100 O
0[
1H
b111000 Y
b111000 ]
b111000 ^
b111000 F
b111000 J
b111000 K
1-
#560
0-
#565
1[
b111001 F
b111001 J
b111001 K
b111001 Y
b111001 ]
b111001 ^
1-
#570
0-
#575
0[
b111010 Y
b111010 ]
b111010 ^
b111010 F
b111010 J
b111010 K
1-
#580
0-
#585
1[
b111011 F
b111011 J
b111011 K
b111011 Y
b111011 ]
b111011 ^
1-
#590
0-
#595
0[
b111100 Y
b111100 ]
b111100 ^
b111100 F
b111100 J
b111100 K
1-
#600
0-
#605
1[
b111101 F
b111101 J
b111101 K
b111101 Y
b111101 ]
b111101 ^
1-
#610
0-
#615
0[
b111110 Y
b111110 ]
b111110 ^
b111110 F
b111110 J
b111110 K
1-
#620
0-
#625
1[
b111111 F
b111111 J
b111111 K
b111111 Y
b111111 ]
b111111 ^
1-
#630
0-
#635
0[
0H
b1000000 Y
b1000000 ]
b1000000 ^
b1000000 F
b1000000 J
b1000000 K
1-
#640
0-
#645
1[
b1000001 F
b1000001 J
b1000001 K
b1000001 Y
b1000001 ]
b1000001 ^
1-
#650
0-
#655
0[
b1000010 Y
b1000010 ]
b1000010 ^
b1000010 F
b1000010 J
b1000010 K
1-
#660
0-
#665
1[
b1000011 F
b1000011 J
b1000011 K
b1000011 Y
b1000011 ]
b1000011 ^
1-
#670
0-
#675
0[
b1000100 Y
b1000100 ]
b1000100 ^
b1000100 F
b1000100 J
b1000100 K
1-
#680
0-
#685
1[
b1000101 F
b1000101 J
b1000101 K
b1000101 Y
b1000101 ]
b1000101 ^
1-
#690
0-
#695
0[
b1000110 Y
b1000110 ]
b1000110 ^
b1000110 F
b1000110 J
b1000110 K
1-
#700
0-
#705
1[
b1000111 F
b1000111 J
b1000111 K
b1000111 Y
b1000111 ]
b1000111 ^
1-
#710
0-
#715
b110 M
1:
1)
b10010 *
b10010 <
b101 ,
b101 7
b101 C
b101 D
b101 L
b101 N
b101 O
0[
1H
b1001000 Y
b1001000 ]
b1001000 ^
b1001000 F
b1001000 J
b1001000 K
1-
#720
0-
#725
1[
b1001001 F
b1001001 J
b1001001 K
b1001001 Y
b1001001 ]
b1001001 ^
1-
#730
0-
#735
0[
b1001010 Y
b1001010 ]
b1001010 ^
b1001010 F
b1001010 J
b1001010 K
1-
#740
0-
#745
1[
b1001011 F
b1001011 J
b1001011 K
b1001011 Y
b1001011 ]
b1001011 ^
1-
#750
0-
#755
0[
b1001100 Y
b1001100 ]
b1001100 ^
b1001100 F
b1001100 J
b1001100 K
1-
#760
0-
#765
1[
b1001101 F
b1001101 J
b1001101 K
b1001101 Y
b1001101 ]
b1001101 ^
1-
#770
0-
#775
0[
b1001110 Y
b1001110 ]
b1001110 ^
b1001110 F
b1001110 J
b1001110 K
1-
#780
0-
#785
1[
b1001111 F
b1001111 J
b1001111 K
b1001111 Y
b1001111 ]
b1001111 ^
1-
#790
0-
#795
0[
0H
b1010000 Y
b1010000 ]
b1010000 ^
b1010000 F
b1010000 J
b1010000 K
1-
#800
0-
#805
1[
b1010001 F
b1010001 J
b1010001 K
b1010001 Y
b1010001 ]
b1010001 ^
1-
#810
0-
#815
0[
b1010010 Y
b1010010 ]
b1010010 ^
b1010010 F
b1010010 J
b1010010 K
1-
#820
0-
#825
1[
b1010011 F
b1010011 J
b1010011 K
b1010011 Y
b1010011 ]
b1010011 ^
1-
#830
0-
#835
0[
b1010100 Y
b1010100 ]
b1010100 ^
b1010100 F
b1010100 J
b1010100 K
1-
#840
0-
#845
1[
b1010101 F
b1010101 J
b1010101 K
b1010101 Y
b1010101 ]
b1010101 ^
1-
#850
0-
#855
0[
b1010110 Y
b1010110 ]
b1010110 ^
b1010110 F
b1010110 J
b1010110 K
1-
#860
0-
#865
1[
b1010111 F
b1010111 J
b1010111 K
b1010111 Y
b1010111 ]
b1010111 ^
1-
#870
0-
#875
b111 M
0:
0)
b10 *
b10 <
b110 ,
b110 7
b110 C
b110 D
b110 L
b110 N
b110 O
0[
1H
b1011000 Y
b1011000 ]
b1011000 ^
b1011000 F
b1011000 J
b1011000 K
1-
#880
0-
#885
1[
b1011001 F
b1011001 J
b1011001 K
b1011001 Y
b1011001 ]
b1011001 ^
1-
#890
0-
#895
0[
b1011010 Y
b1011010 ]
b1011010 ^
b1011010 F
b1011010 J
b1011010 K
1-
#900
0-
#905
1[
b1011011 F
b1011011 J
b1011011 K
b1011011 Y
b1011011 ]
b1011011 ^
1-
#910
0-
#915
0[
b1011100 Y
b1011100 ]
b1011100 ^
b1011100 F
b1011100 J
b1011100 K
1-
#920
0-
#925
1[
b1011101 F
b1011101 J
b1011101 K
b1011101 Y
b1011101 ]
b1011101 ^
1-
#930
0-
#935
0[
b1011110 Y
b1011110 ]
b1011110 ^
b1011110 F
b1011110 J
b1011110 K
1-
#940
0-
#945
1[
b1011111 F
b1011111 J
b1011111 K
b1011111 Y
b1011111 ]
b1011111 ^
1-
#950
0-
#955
0[
0H
b1100000 Y
b1100000 ]
b1100000 ^
b1100000 F
b1100000 J
b1100000 K
1-
#960
0-
#965
1[
b1100001 F
b1100001 J
b1100001 K
b1100001 Y
b1100001 ]
b1100001 ^
1-
#970
0-
#975
0[
b1100010 Y
b1100010 ]
b1100010 ^
b1100010 F
b1100010 J
b1100010 K
1-
#980
0-
#985
1[
b1100011 F
b1100011 J
b1100011 K
b1100011 Y
b1100011 ]
b1100011 ^
1-
#990
0-
#995
0[
b1100100 Y
b1100100 ]
b1100100 ^
b1100100 F
b1100100 J
b1100100 K
1-
#1000
0-
#1005
1[
b1100101 F
b1100101 J
b1100101 K
b1100101 Y
b1100101 ]
b1100101 ^
1-
#1010
0-
#1015
0[
b1100110 Y
b1100110 ]
b1100110 ^
b1100110 F
b1100110 J
b1100110 K
1-
#1020
0-
#1025
1[
b1100111 F
b1100111 J
b1100111 K
b1100111 Y
b1100111 ]
b1100111 ^
1-
#1030
0-
#1035
b1000 M
b1111000 *
b1111000 <
b111 ,
b111 7
b111 C
b111 D
b111 L
b111 N
b111 O
0[
1H
b1101000 Y
b1101000 ]
b1101000 ^
b1101000 F
b1101000 J
b1101000 K
1-
#1040
0-
#1045
1[
b1101001 F
b1101001 J
b1101001 K
b1101001 Y
b1101001 ]
b1101001 ^
1-
#1050
0-
#1055
0[
b1101010 Y
b1101010 ]
b1101010 ^
b1101010 F
b1101010 J
b1101010 K
1-
#1060
0-
#1065
1[
b1101011 F
b1101011 J
b1101011 K
b1101011 Y
b1101011 ]
b1101011 ^
1-
#1070
0-
#1075
0[
b1101100 Y
b1101100 ]
b1101100 ^
b1101100 F
b1101100 J
b1101100 K
1-
#1080
0-
#1085
1[
b1101101 F
b1101101 J
b1101101 K
b1101101 Y
b1101101 ]
b1101101 ^
1-
#1090
0-
#1095
0[
b1101110 Y
b1101110 ]
b1101110 ^
b1101110 F
b1101110 J
b1101110 K
1-
#1100
0-
#1105
1[
b1101111 F
b1101111 J
b1101111 K
b1101111 Y
b1101111 ]
b1101111 ^
1-
#1110
0-
#1115
0[
0H
b1110000 Y
b1110000 ]
b1110000 ^
b1110000 F
b1110000 J
b1110000 K
1-
#1120
0-
#1125
1[
b1110001 F
b1110001 J
b1110001 K
b1110001 Y
b1110001 ]
b1110001 ^
1-
#1130
0-
#1135
0[
b1110010 Y
b1110010 ]
b1110010 ^
b1110010 F
b1110010 J
b1110010 K
1-
#1140
0-
#1145
1[
b1110011 F
b1110011 J
b1110011 K
b1110011 Y
b1110011 ]
b1110011 ^
1-
#1150
0-
#1155
0[
b1110100 Y
b1110100 ]
b1110100 ^
b1110100 F
b1110100 J
b1110100 K
1-
#1160
0-
#1165
1[
b1110101 F
b1110101 J
b1110101 K
b1110101 Y
b1110101 ]
b1110101 ^
1-
#1170
0-
#1175
0[
b1110110 Y
b1110110 ]
b1110110 ^
b1110110 F
b1110110 J
b1110110 K
1-
#1180
0-
#1185
1[
b1110111 F
b1110111 J
b1110111 K
b1110111 Y
b1110111 ]
b1110111 ^
1-
#1190
0-
#1195
b1 e
b1001 M
19
b0 *
b0 <
b1000 ,
b1000 7
b1000 C
b1000 D
b1000 L
b1000 N
b1000 O
0[
1H
b1111000 Y
b1111000 ]
b1111000 ^
b1111000 F
b1111000 J
b1111000 K
1-
#1200
0-
#1205
b1000000 $
b1000000 ?
b1000000 %
b1000000 >
b1111100 !
b1111100 @
1[
b1111001 F
b1111001 J
b1111001 K
b1 "
b1 1
b1 U
b1 X
b1 c
b1 f
b1111001 Y
b1111001 ]
b1111001 ^
1-
#1210
0-
#1215
0[
b1111010 Y
b1111010 ]
b1111010 ^
b1111010 F
b1111010 J
b1111010 K
1-
#1220
0-
#1225
1[
b1111011 F
b1111011 J
b1111011 K
b1111011 Y
b1111011 ]
b1111011 ^
1-
#1230
0-
#1235
0[
b1111100 Y
b1111100 ]
b1111100 ^
b1111100 F
b1111100 J
b1111100 K
1-
#1240
0-
#1245
1[
b1111101 F
b1111101 J
b1111101 K
b1111101 Y
b1111101 ]
b1111101 ^
1-
#1250
0-
#1255
0[
b1111110 Y
b1111110 ]
b1111110 ^
b1111110 F
b1111110 J
b1111110 K
1-
#1260
0-
#1265
1[
b1111111 F
b1111111 J
b1111111 K
b1111111 Y
b1111111 ]
b1111111 ^
1-
#1270
0-
#1275
0[
0H
b10000000 Y
b10000000 ]
b10000000 ^
b10000000 F
b10000000 J
b10000000 K
1-
#1280
0-
#1285
1[
b10000001 F
b10000001 J
b10000001 K
b10000001 Y
b10000001 ]
b10000001 ^
1-
#1290
0-
#1295
0[
b10000010 Y
b10000010 ]
b10000010 ^
b10000010 F
b10000010 J
b10000010 K
1-
#1300
0-
#1305
1[
b10000011 F
b10000011 J
b10000011 K
b10000011 Y
b10000011 ]
b10000011 ^
1-
#1310
0-
#1315
0[
b10000100 Y
b10000100 ]
b10000100 ^
b10000100 F
b10000100 J
b10000100 K
1-
#1320
0-
#1325
1[
b10000101 F
b10000101 J
b10000101 K
b10000101 Y
b10000101 ]
b10000101 ^
1-
#1330
0-
#1335
0[
b10000110 Y
b10000110 ]
b10000110 ^
b10000110 F
b10000110 J
b10000110 K
1-
#1340
0-
#1345
1[
b10000111 F
b10000111 J
b10000111 K
b10000111 Y
b10000111 ]
b10000111 ^
1-
#1350
0-
#1355
b10 e
b1010 M
18
09
b10000 *
b10000 <
b1001 ,
b1001 7
b1001 C
b1001 D
b1001 L
b1001 N
b1001 O
0[
1H
b10001000 Y
b10001000 ]
b10001000 ^
b10001000 F
b10001000 J
b10001000 K
1-
#1360
0-
#1365
b1 `
b10010 !
b10010 @
1\
1[
b10001001 F
b10001001 J
b10001001 K
b10 "
b10 1
b10 U
b10 X
b10 c
b10 f
b10001001 Y
b10001001 ]
b10001001 ^
1-
#1370
0-
#1375
b10001010 Y
b10001010 ]
b10001010 ^
b10001010 F
b10001010 J
b10001010 K
1-
#1380
0-
#1385
b10001011 F
b10001011 J
b10001011 K
b10001011 Y
b10001011 ]
b10001011 ^
1-
#1390
0-
#1395
b10001100 Y
b10001100 ]
b10001100 ^
b10001100 F
b10001100 J
b10001100 K
1-
#1400
0-
#1405
b10001101 F
b10001101 J
b10001101 K
b10001101 Y
b10001101 ]
b10001101 ^
1-
#1410
0-
#1415
b10001110 Y
b10001110 ]
b10001110 ^
b10001110 F
b10001110 J
b10001110 K
1-
#1420
0-
#1425
b10001111 F
b10001111 J
b10001111 K
b10001111 Y
b10001111 ]
b10001111 ^
1-
#1430
0-
#1435
0[
0H
b10010000 Y
b10010000 ]
b10010000 ^
b10010000 F
b10010000 J
b10010000 K
1-
#1440
0-
#1445
b10010001 F
b10010001 J
b10010001 K
b10010001 Y
b10010001 ]
b10010001 ^
1-
#1450
0-
#1455
b10010010 Y
b10010010 ]
b10010010 ^
b10010010 F
b10010010 J
b10010010 K
1-
#1460
0-
#1465
b10010011 F
b10010011 J
b10010011 K
b10010011 Y
b10010011 ]
b10010011 ^
1-
#1470
0-
#1475
b10010100 Y
b10010100 ]
b10010100 ^
b10010100 F
b10010100 J
b10010100 K
1-
#1480
0-
#1485
b10010101 F
b10010101 J
b10010101 K
b10010101 Y
b10010101 ]
b10010101 ^
1-
#1490
0-
#1495
b10010110 Y
b10010110 ]
b10010110 ^
b10010110 F
b10010110 J
b10010110 K
1-
#1500
0-
#1505
b10010111 F
b10010111 J
b10010111 K
b10010111 Y
b10010111 ]
b10010111 ^
1-
#1510
0-
#1515
b10 `
b11 R
08
b1111001 $
b1111001 ?
b1000000 *
b1000000 <
b1111001 +
b1111001 ;
b1 &
b1 2
b1 V
b1 W
b1 _
b1 a
b1 b
b1010 ,
b1010 7
b1010 C
b1010 D
b1010 L
b1010 N
b1010 O
1[
1H
b10011000 Y
b10011000 ]
b10011000 ^
b10011000 F
b10011000 J
b10011000 K
1-
#1520
0-
#1525
b100001 '
b100001 =
0I
b100 R
b11 (
b11 6
b11 B
b11 E
b11 P
b11 S
b10011001 F
b10011001 J
b10011001 K
b10011001 Y
b10011001 ]
b10011001 ^
10
1-
#1530
0-
#1535
b1001 M
b111 '
b111 =
1G
b10011010 Y
b10011010 ]
b10011010 ^
b10011010 F
b10011010 J
b10011010 K
b100 (
b100 6
b100 B
b100 E
b100 P
b100 S
1-
#1540
0-
#1545
b10011011 F
b10011011 J
b10011011 K
b10011011 Y
b10011011 ]
b10011011 ^
1-
#1550
0-
#1555
0H
00
b10011100 Y
b10011100 ]
b10011100 ^
b10011100 F
b10011100 J
b10011100 K
1-
#1560
0-
#1565
b10011101 F
b10011101 J
b10011101 K
b10011101 Y
b10011101 ]
b10011101 ^
1-
#1570
0-
#1575
b1000 M
b10000 *
b10000 <
b1000000 +
b1000000 ;
b1001 ,
b1001 7
b1001 C
b1001 D
b1001 L
b1001 N
b1001 O
1H
b10011110 Y
b10011110 ]
b10011110 ^
b10011110 F
b10011110 J
b10011110 K
1-
#1580
0-
#1585
b10011111 F
b10011111 J
b10011111 K
b10011111 Y
b10011111 ]
b10011111 ^
1-
#1590
0-
#1595
0[
0H
b10100000 Y
b10100000 ]
b10100000 ^
b10100000 F
b10100000 J
b10100000 K
1-
#1600
0-
#1605
b10100001 F
b10100001 J
b10100001 K
b10100001 Y
b10100001 ]
b10100001 ^
1-
#1610
0-
#1615
b111 M
b0 *
b0 <
b1000 ,
b1000 7
b1000 C
b1000 D
b1000 L
b1000 N
b1000 O
1H
b10100010 Y
b10100010 ]
b10100010 ^
b10100010 F
b10100010 J
b10100010 K
1-
#1620
0-
#1625
b10100011 F
b10100011 J
b10100011 K
b10100011 Y
b10100011 ]
b10100011 ^
1-
#1630
0-
#1635
0H
b10100100 Y
b10100100 ]
b10100100 ^
b10100100 F
b10100100 J
b10100100 K
1-
#1640
0-
#1645
b10100101 F
b10100101 J
b10100101 K
b10100101 Y
b10100101 ]
b10100101 ^
1-
#1650
0-
#1655
b110 M
b1111000 *
b1111000 <
b111 ,
b111 7
b111 C
b111 D
b111 L
b111 N
b111 O
1H
b10100110 Y
b10100110 ]
b10100110 ^
b10100110 F
b10100110 J
b10100110 K
1-
#1660
0-
#1665
b10100111 F
b10100111 J
b10100111 K
b10100111 Y
b10100111 ]
b10100111 ^
1-
#1670
0-
#1675
b11 `
b100100 $
b100100 ?
b10 &
b10 2
b10 V
b10 W
b10 _
b10 a
b10 b
1[
0H
b10101000 Y
b10101000 ]
b10101000 ^
b10101000 F
b10101000 J
b10101000 K
1-
#1680
0-
#1685
b10101001 F
b10101001 J
b10101001 K
b10101001 Y
b10101001 ]
b10101001 ^
1-
#1690
0-
#1695
b101 M
b10 *
b10 <
b110 ,
b110 7
b110 C
b110 D
b110 L
b110 N
b110 O
1H
b10101010 Y
b10101010 ]
b10101010 ^
b10101010 F
b10101010 J
b10101010 K
1-
#1700
0-
#1705
b10101011 F
b10101011 J
b10101011 K
b10101011 Y
b10101011 ]
b10101011 ^
1-
#1710
0-
#1715
0H
b10101100 Y
b10101100 ]
b10101100 ^
b10101100 F
b10101100 J
b10101100 K
1-
#1720
0-
#1725
b10101101 F
b10101101 J
b10101101 K
b10101101 Y
b10101101 ]
b10101101 ^
1-
#1730
0-
#1735
b100 M
b10010 *
b10010 <
b101 ,
b101 7
b101 C
b101 D
b101 L
b101 N
b101 O
1H
b10101110 Y
b10101110 ]
b10101110 ^
b10101110 F
b10101110 J
b10101110 K
1-
#1740
0-
#1745
b10101111 F
b10101111 J
b10101111 K
b10101111 Y
b10101111 ]
b10101111 ^
1-
#1750
0-
#1755
0[
0H
b10110000 Y
b10110000 ]
b10110000 ^
b10110000 F
b10110000 J
b10110000 K
1-
#1760
0-
#1765
b10110001 F
b10110001 J
b10110001 K
b10110001 Y
b10110001 ]
b10110001 ^
1-
#1770
0-
#1775
b11 M
b11001 *
b11001 <
b100 ,
b100 7
b100 C
b100 D
b100 L
b100 N
b100 O
1H
b10110010 Y
b10110010 ]
b10110010 ^
b10110010 F
b10110010 J
b10110010 K
1-
#1780
0-
#1785
b10110011 F
b10110011 J
b10110011 K
b10110011 Y
b10110011 ]
b10110011 ^
1-
#1790
0-
#1795
0H
b10110100 Y
b10110100 ]
b10110100 ^
b10110100 F
b10110100 J
b10110100 K
1-
#1800
0-
