lab5/verilog/scanner/dataBuffer.vcd
$date
	Tue Dec  6 13:25:01 2016
$end
$version
	Icarus Verilog
$end
$timescale
	1s
$end
$scope module dataBuffer_testbench $end
$var wire 4 ! percentage [3:0] $end
$var wire 8 " data_out [7:0] $end
$var wire 8 # data_in [7:0] $end
$var reg 1 $ clk $end
$var reg 1 % reset $end
$var reg 3 & state [2:0] $end
$scope module dut $end
$var wire 1 $ clk $end
$var wire 8 ' data_in [7:0] $end
$var wire 1 % reset $end
$var wire 3 ( state [2:0] $end
$var wire 4 ) percentage [3:0] $end
$var wire 32 * divided_clocks [31:0] $end
$var wire 8 + data_out [7:0] $end
$var reg 1 , down $end
$var reg 1 - final_clock $end
$var reg 1 . up $end
$scope module div $end
$var wire 1 $ clk $end
$var wire 32 / divided_clocks [31:0] $end
$var reg 32 0 clocks [31:0] $end
$upscope $end
$scope module prog $end
$var wire 1 - clk $end
$var wire 8 1 data_in [7:0] $end
$var wire 8 2 data_out [7:0] $end
$var wire 1 , down $end
$var wire 4 3 percentage [3:0] $end
$var wire 1 % reset $end
$var wire 1 . up $end
$var reg 4 4 ns [3:0] $end
$var reg 4 5 ps [3:0] $end
$upscope $end
$upscope $end
$upscope $end
$enddefinitions $end
#0
$dumpvars
b0 5
b0 4
b0 3
b0 2
b0 1
b0 0
b0 /
0.
0-
0,
b0 +
b0 *
b0 )
bx (
b0 '
bx &
1%
0$
b0 #
b0 "
b0 !
$end
#5
1-
b1 *
b1 /
b1 0
1$
#10
0$
#15
0-
b0 &
b0 (
0%
b10 *
b10 /
b10 0
1$
#20
0$
#25
1-
b11 *
b11 /
b11 0
1$
#30
0$
#35
0-
b100 *
b100 /
b100 0
1$
#40
0$
#45
1-
b101 *
b101 /
b101 0
b1 &
b1 (
1$
#50
0$
#55
0-
b110 *
b110 /
b110 0
1$
#60
0$
#65
1-
b111 *
b111 /
b111 0
1$
#70
0$
#75
b1 4
1.
b10 &
b10 (
b1000 *
b1000 /
b1000 0
1$
#80
0$
#85
b1001 *
b1001 /
b1001 0
1$
#90
0$
#95
b1010 *
b1010 /
b1010 0
1$
#100
0$
#105
b1011 *
b1011 /
b1011 0
1$
#110
0$
#115
b1100 *
b1100 /
b1100 0
1$
#120
0$
#125
b1101 *
b1101 /
b1101 0
1$
#130
0$
#135
b1110 *
b1110 /
b1110 0
1$
#140
0$
#145
b1111 *
b1111 /
b1111 0
1$
#150
0$
#155
0-
b10000 *
b10000 /
b10000 0
1$
#160
0$
#165
b10001 *
b10001 /
b10001 0
1$
#170
0$
#175
b10010 *
b10010 /
b10010 0
1$
#180
0$
#185
b10011 *
b10011 /
b10011 0
1$
#190
0$
#195
b10100 *
b10100 /
b10100 0
1$
#200
0$
#205
b10101 *
b10101 /
b10101 0
1$
#210
0$
#215
b10110 *
b10110 /
b10110 0
1$
#220
0$
#225
b10111 *
b10111 /
b10111 0
1$
#230
0$
#235
b10 4
b1 #
b1 '
b1 1
b1 !
b1 )
b1 3
b1 5
1-
b11000 *
b11000 /
b11000 0
1$
#240
0$
#245
b11001 *
b11001 /
b11001 0
1$
#250
0$
#255
b11010 *
b11010 /
b11010 0
1$
#260
0$
#265
b11011 *
b11011 /
b11011 0
1$
#270
0$
#275
b11100 *
b11100 /
b11100 0
1$
#280
0$
#285
b11101 *
b11101 /
b11101 0
1$
#290
0$
#295
b11110 *
b11110 /
b11110 0
1$
#300
0$
#305
b11111 *
b11111 /
b11111 0
1$
#310
0$
#315
0-
b100000 *
b100000 /
b100000 0
1$
#320
0$
#325
b100001 *
b100001 /
b100001 0
1$
#330
0$
#335
b100010 *
b100010 /
b100010 0
1$
#340
0$
#345
b100011 *
b100011 /
b100011 0
1$
#350
0$
#355
b100100 *
b100100 /
b100100 0
1$
#360
0$
#365
b100101 *
b100101 /
b100101 0
1$
#370
0$
#375
b100110 *
b100110 /
b100110 0
1$
#380
0$
#385
b100111 *
b100111 /
b100111 0
1$
#390
0$
#395
b11 4
b10 #
b10 '
b10 1
b10 !
b10 )
b10 3
b10 5
1-
b101000 *
b101000 /
b101000 0
1$
#400
0$
#405
b101001 *
b101001 /
b101001 0
1$
#410
0$
#415
b10 4
0.
0-
b11 &
b11 (
b101010 *
b101010 /
b101010 0
1$
#420
0$
#425
b10 "
b10 +
b10 2
1-
b101011 *
b101011 /
b101011 0
1$
#430
0$
#435
0-
b101100 *
b101100 /
b101100 0
1$
#440
0$
#445
1-
b101101 *
b101101 /
b101101 0
1$
#450
0$
#455
0-
b101110 *
b101110 /
b101110 0
1$
#460
0$
#465
1-
b101111 *
b101111 /
b101111 0
1$
#470
0$
#475
0-
b110000 *
b110000 /
b110000 0
1$
#480
0$
#485
1-
b110001 *
b110001 /
b110001 0
1$
#490
0$
#495
0-
b110010 *
b110010 /
b110010 0
1$
#500
0$
#505
1-
b110011 *
b110011 /
b110011 0
1$
#510
0$
#515
0-
b110100 *
b110100 /
b110100 0
1$
#520
0$
#525
1-
b110101 *
b110101 /
b110101 0
1$
#530
0$
#535
0-
b110110 *
b110110 /
b110110 0
1$
#540
0$
#545
1-
b110111 *
b110111 /
b110111 0
1$
#550
0$
#555
0-
b111000 *
b111000 /
b111000 0
1$
#560
0$
#565
b1 4
1,
b111001 *
b111001 /
b111001 0
b100 &
b100 (
1$
#570
0$
#575
b0 4
b1 "
b1 +
b1 2
b1 #
b1 '
b1 1
b1 !
b1 )
b1 3
b1 5
1-
b111010 *
b111010 /
b111010 0
1$
#580
0$
#585
b111011 *
b111011 /
b111011 0
1$
#590
0$
#595
0-
b111100 *
b111100 /
b111100 0
1$
#600
0$
#605
b111101 *
b111101 /
b111101 0
1$
#610
0$
#615
b0 "
b0 +
b0 2
b0 #
b0 '
b0 1
b0 !
b0 )
b0 3
b0 5
1-
b111110 *
b111110 /
b111110 0
1$
#620
0$
#625
b111111 *
b111111 /
b111111 0
b101 &
b101 (
1$
#630
0$
#635
0-
b1000000 *
b1000000 /
b1000000 0
1$
#640
0$
#645
1-
b1000001 *
b1000001 /
b1000001 0
1$
#650
0$
#655
0-
b1000010 *
b1000010 /
b1000010 0
1$
#660
0$
#665
1-
b1000011 *
b1000011 /
b1000011 0
1$
#670
0$
#675
0-
b1000100 *
b1000100 /
b1000100 0
1$
#680
0$
#685
1-
b1000101 *
b1000101 /
b1000101 0
1$
#690
0$
#695
0-
b1000110 *
b1000110 /
b1000110 0
1$
