lab5/verilog/SPS_interface/PISO.vcd
$date
	Tue Dec  6 12:45:46 2016
$end
$version
	Icarus Verilog
$end
$timescale
	1s
$end
$scope module PISO_testbench $end
$var wire 1 ! serialOut $end
$var wire 11 " data [10:0] $end
$var wire 1 # charSent $end
$var reg 1 $ clk $end
$var reg 1 % enable $end
$var reg 1 & load $end
$var reg 8 ' parallelIn [7:0] $end
$var reg 1 ( rst $end
$scope module dut $end
$var wire 1 $ clk $end
$var wire 1 % enable $end
$var wire 1 & load $end
$var wire 8 ) parallelIn [7:0] $end
$var wire 1 ( rst $end
$var wire 1 ! serialOut $end
$var wire 11 * data [10:0] $end
$var wire 1 # charSent $end
$var wire 1 + bit_clk $end
$scope module counter $end
$var wire 1 $ clk $end
$var wire 1 % enable $end
$var wire 1 ( rst $end
$var wire 4 , frameProgress [3:0] $end
$var wire 1 # endFrame $end
$var wire 1 + bit_clk $end
$scope module bitIdent $end
$var wire 1 % enable $end
$var wire 1 ( rst $end
$var wire 1 # endFrame $end
$var wire 1 + clk $end
$var reg 4 - frameProgress [3:0] $end
$upscope $end
$scope module bitSample $end
$var wire 1 $ clk $end
$var wire 1 % enable $end
$var wire 1 ( rst $end
$var wire 1 + bit_clk $end
$var reg 4 . bitProgress [3:0] $end
$upscope $end
$upscope $end
$scope module piso $end
$var wire 1 + bit_clk $end
$var wire 1 $ clk $end
$var wire 1 & load $end
$var wire 8 / parallelIn [7:0] $end
$var wire 1 ( rst $end
$var wire 1 ! serialOut $end
$var reg 11 0 data [10:0] $end
$upscope $end
$upscope $end
$upscope $end
$enddefinitions $end
#0
$dumpvars
b11111111111 0
b10101010 /
b0 .
b0 -
b0 ,
0+
b11111111111 *
b10101010 )
1(
b10101010 '
x&
x%
0$
0#
b11111111111 "
1!
$end
#5
0%
0&
0(
1$
#10
0$
#15
b11010101001 "
b11010101001 *
b11010101001 0
1&
1$
#20
0$
#25
1%
0&
1$
#30
0$
#35
b1 .
1$
#40
0$
#45
b10 .
1$
#50
0$
#55
b11 .
1$
#60
0$
#65
b100 .
1$
#70
0$
#75
b101 .
1$
#80
0$
#85
b110 .
1$
#90
0$
#95
b1 ,
b1 -
1+
b111 .
1$
#100
0$
#105
0!
0+
b1000 .
b11101010100 "
b11101010100 *
b11101010100 0
1$
#110
0$
#115
b1001 .
1$
#120
0$
#125
b1010 .
1$
#130
0$
#135
b1011 .
1$
#140
0$
#145
b1100 .
1$
#150
0$
#155
b1101 .
1$
#160
0$
#165
b1110 .
1$
#170
0$
#175
b1111 .
1$
#180
0$
#185
b0 .
1$
#190
0$
#195
b1 .
1$
#200
0$
#205
b10 .
1$
#210
0$
#215
b11 .
1$
#220
0$
#225
b100 .
1$
#230
0$
#235
b101 .
1$
#240
0$
#245
b110 .
1$
#250
0$
#255
b10 ,
b10 -
1+
b111 .
1$
#260
0$
#265
0+
b1000 .
b11110101010 "
b11110101010 *
b11110101010 0
1$
#270
0$
#275
b1001 .
1$
#280
0$
#285
b1010 .
1$
#290
0$
#295
b1011 .
1$
#300
0$
#305
b1100 .
1$
#310
0$
#315
b1101 .
1$
#320
0$
#325
b1110 .
1$
#330
0$
#335
b1111 .
1$
#340
0$
#345
b0 .
1$
#350
0$
#355
b1 .
1$
#360
0$
#365
b10 .
1$
#370
0$
#375
b11 .
1$
#380
0$
#385
b100 .
1$
#390
0$
#395
b101 .
1$
#400
0$
#405
b110 .
1$
#410
0$
#415
b11 ,
b11 -
1+
b111 .
1$
#420
0$
#425
1!
0+
b1000 .
b11111010101 "
b11111010101 *
b11111010101 0
1$
#430
0$
#435
b1001 .
1$
#440
0$
#445
b1010 .
1$
#450
0$
#455
b1011 .
1$
#460
0$
#465
b1100 .
1$
#470
0$
#475
b1101 .
1$
#480
0$
#485
b1110 .
1$
#490
0$
#495
b1111 .
1$
#500
0$
#505
b0 .
1$
#510
0$
#515
b1 .
1$
#520
0$
#525
b10 .
1$
#530
0$
#535
b11 .
1$
#540
0$
#545
b100 .
1$
#550
0$
#555
b101 .
1$
#560
0$
#565
b110 .
1$
#570
0$
#575
b100 ,
b100 -
1+
b111 .
1$
#580
0$
#585
0!
0+
b1000 .
b11111101010 "
b11111101010 *
b11111101010 0
1$
#590
0$
#595
b1001 .
1$
#600
0$
#605
b1010 .
1$
#610
0$
#615
b1011 .
1$
#620
0$
#625
b1100 .
1$
#630
0$
#635
b1101 .
1$
#640
0$
#645
b1110 .
1$
#650
0$
#655
b1111 .
1$
#660
0$
#665
b0 .
1$
#670
0$
#675
b1 .
1$
#680
0$
#685
b10 .
1$
#690
0$
#695
b11 .
1$
#700
0$
#705
b100 .
1$
#710
0$
#715
b101 .
1$
#720
0$
#725
b110 .
1$
#730
0$
#735
b101 ,
b101 -
1+
b111 .
1$
#740
0$
#745
1!
0+
b1000 .
b11111110101 "
b11111110101 *
b11111110101 0
1$
#750
0$
#755
b1001 .
1$
#760
0$
#765
b1010 .
1$
#770
0$
#775
b1011 .
1$
#780
0$
#785
b1100 .
1$
#790
0$
#795
b1101 .
1$
#800
0$
#805
b1110 .
1$
#810
0$
#815
b1111 .
1$
#820
0$
#825
b0 .
1$
#830
0$
#835
b1 .
1$
#840
0$
#845
b10 .
1$
#850
0$
#855
b11 .
1$
#860
0$
#865
b100 .
1$
#870
0$
#875
b101 .
1$
#880
0$
#885
b110 .
1$
#890
0$
#895
b110 ,
b110 -
1+
b111 .
1$
#900
0$
#905
0!
0+
b1000 .
b11111111010 "
b11111111010 *
b11111111010 0
1$
#910
0$
#915
b1001 .
1$
#920
0$
#925
b1010 .
1$
#930
0$
#935
b1011 .
1$
#940
0$
#945
b1100 .
1$
#950
0$
#955
b1101 .
1$
#960
0$
#965
b1110 .
1$
#970
0$
#975
b1111 .
1$
#980
0$
#985
b0 .
1$
#990
0$
#995
b1 .
1$
#1000
0$
#1005
b10 .
1$
#1010
0$
#1015
b11 .
1$
#1020
0$
#1025
b100 .
1$
#1030
0$
#1035
b101 .
1$
#1040
0$
#1045
b110 .
1$
#1050
0$
#1055
b111 ,
b111 -
1+
b111 .
1$
#1060
0$
#1065
1!
0+
b1000 .
b11111111101 "
b11111111101 *
b11111111101 0
1$
#1070
0$
#1075
b1001 .
1$
#1080
0$
#1085
b1010 .
1$
#1090
0$
#1095
b1011 .
1$
#1100
0$
#1105
b1100 .
1$
#1110
0$
#1115
b1101 .
1$
#1120
0$
#1125
b1110 .
1$
#1130
0$
#1135
b1111 .
1$
#1140
0$
#1145
b0 .
1$
#1150
0$
#1155
b1 .
1$
#1160
0$
#1165
b10 .
1$
#1170
0$
#1175
b11 .
1$
#1180
0$
#1185
b100 .
1$
#1190
0$
#1195
b101 .
1$
#1200
0$
#1205
b110 .
1$
#1210
0$
#1215
b1000 ,
b1000 -
1+
b111 .
1$
#1220
0$
#1225
0!
0+
b1000 .
b11111111110 "
b11111111110 *
b11111111110 0
1$
#1230
0$
#1235
b1001 .
1$
#1240
0$
#1245
b1010 .
1$
#1250
0$
#1255
b1011 .
1$
#1260
0$
#1265
b1100 .
1$
#1270
0$
#1275
b1101 .
1$
#1280
0$
#1285
b1110 .
1$
#1290
0$
#1295
b1111 .
1$
#1300
0$
#1305
b0 .
1$
#1310
0$
#1315
b1 .
1$
#1320
0$
#1325
b10 .
1$
#1330
0$
#1335
b11 .
1$
#1340
0$
#1345
b100 .
1$
#1350
0$
#1355
b101 .
1$
#1360
0$
#1365
b110 .
1$
#1370
0$
#1375
1#
b1001 ,
b1001 -
1+
b111 .
1$
#1380
0$
#1385
1!
0+
b1000 .
b11111111111 "
b11111111111 *
b11111111111 0
1$
#1390
0$
#1395
b1001 .
1$
#1400
0$
#1405
b1010 .
1$
#1410
0$
#1415
b1011 .
1$
#1420
0$
#1425
b1100 .
1$
#1430
0$
#1435
b1101 .
1$
#1440
0$
#1445
b1110 .
1$
#1450
0$
#1455
b1111 .
1$
#1460
0$
#1465
b0 .
1$
#1470
0$
#1475
0%
b1 .
1$
#1480
0$
#1485
b0 .
1$
