lab5/verilog/SPS_interface/SIPO.vcd
$date
	Tue Dec  6 12:55:48 2016
$end
$version
	Icarus Verilog
$end
$timescale
	1s
$end
$scope module SIPO_testbench $end
$var wire 8 ! parallelOut [7:0] $end
$var wire 1 " enable $end
$var wire 10 # data [9:0] $end
$var wire 1 $ charReceived $end
$var reg 1 % clk $end
$var reg 1 & rst $end
$var reg 1 ' serialIn $end
$scope module dut $end
$var wire 1 % clk $end
$var wire 1 & rst $end
$var wire 1 ' serialIn $end
$var wire 8 ( parallelOut [7:0] $end
$var wire 10 ) data [9:0] $end
$var wire 1 $ charReceived $end
$var wire 1 * bit_clk $end
$var reg 1 " enable $end
$scope module SIPO $end
$var wire 1 & rst $end
$var wire 1 ' serialIn $end
$var wire 8 + parallelOut [7:0] $end
$var wire 1 * clk $end
$var reg 10 , data [9:0] $end
$upscope $end
$scope module counter $end
$var wire 1 % clk $end
$var wire 1 " enable $end
$var wire 1 & rst $end
$var wire 4 - frameProgress [3:0] $end
$var wire 1 $ endFrame $end
$var wire 1 * bit_clk $end
$scope module bitIdent $end
$var wire 1 " enable $end
$var wire 1 & rst $end
$var wire 1 $ endFrame $end
$var wire 1 * clk $end
$var reg 4 . frameProgress [3:0] $end
$upscope $end
$scope module bitSample $end
$var wire 1 % clk $end
$var wire 1 " enable $end
$var wire 1 & rst $end
$var wire 1 * bit_clk $end
$var reg 4 / bitProgress [3:0] $end
$upscope $end
$upscope $end
$upscope $end
$upscope $end
$enddefinitions $end
#0
$dumpvars
b0 /
b0 .
b0 -
b1111111111 ,
b11111111 +
0*
b1111111111 )
b11111111 (
x'
1&
0%
0$
b1111111111 #
0"
b11111111 !
$end
#5
1'
0&
1%
#10
0%
#15
1"
0'
1%
#20
0%
#25
b1 /
1%
#30
0%
#35
b10 /
1%
#40
0%
#45
b11 /
1%
#50
0%
#55
b100 /
1%
#60
0%
#65
b101 /
1%
#70
0%
#75
b110 /
1%
#80
0%
#85
b1 -
b1 .
b1111111110 #
b1111111110 )
b1111111110 ,
1*
b111 /
1%
#90
0%
#95
1'
0*
b1000 /
1%
#100
0%
#105
b1001 /
1%
#110
0%
#115
b1010 /
1%
#120
0%
#125
b1011 /
1%
#130
0%
#135
b1100 /
1%
#140
0%
#145
b1101 /
1%
#150
0%
#155
b1110 /
1%
#160
0%
#165
b1111 /
1%
#170
0%
#175
b0 /
1%
#180
0%
#185
b1 /
1%
#190
0%
#195
b10 /
1%
#200
0%
#205
b11 /
1%
#210
0%
#215
b100 /
1%
#220
0%
#225
b101 /
1%
#230
0%
#235
b110 /
1%
#240
0%
#245
b11111110 !
b11111110 (
b11111110 +
b1111111101 #
b1111111101 )
b1111111101 ,
b10 -
b10 .
1*
b111 /
1%
#250
0%
#255
0'
0*
b1000 /
1%
#260
0%
#265
b1001 /
1%
#270
0%
#275
b1010 /
1%
#280
0%
#285
b1011 /
1%
#290
0%
#295
b1100 /
1%
#300
0%
#305
b1101 /
1%
#310
0%
#315
b1110 /
1%
#320
0%
#325
b1111 /
1%
#330
0%
#335
b0 /
1%
#340
0%
#345
b1 /
1%
#350
0%
#355
b10 /
1%
#360
0%
#365
b11 /
1%
#370
0%
#375
b100 /
1%
#380
0%
#385
b101 /
1%
#390
0%
#395
b110 /
1%
#400
0%
#405
b11111101 !
b11111101 (
b11111101 +
b11 -
b11 .
b1111111010 #
b1111111010 )
b1111111010 ,
1*
b111 /
1%
#410
0%
#415
1'
0*
b1000 /
1%
#420
0%
#425
b1001 /
1%
#430
0%
#435
b1010 /
1%
#440
0%
#445
b1011 /
1%
#450
0%
#455
b1100 /
1%
#460
0%
#465
b1101 /
1%
#470
0%
#475
b1110 /
1%
#480
0%
#485
b1111 /
1%
#490
0%
#495
b0 /
1%
#500
0%
#505
b1 /
1%
#510
0%
#515
b10 /
1%
#520
0%
#525
b11 /
1%
#530
0%
#535
b100 /
1%
#540
0%
#545
b101 /
1%
#550
0%
#555
b110 /
1%
#560
0%
#565
b11111010 !
b11111010 (
b11111010 +
b1111110101 #
b1111110101 )
b1111110101 ,
b100 -
b100 .
1*
b111 /
1%
#570
0%
#575
0'
0*
b1000 /
1%
#580
0%
#585
b1001 /
1%
#590
0%
#595
b1010 /
1%
#600
0%
#605
b1011 /
1%
#610
0%
#615
b1100 /
1%
#620
0%
#625
b1101 /
1%
#630
0%
#635
b1110 /
1%
#640
0%
#645
b1111 /
1%
#650
0%
#655
b0 /
1%
#660
0%
#665
b1 /
1%
#670
0%
#675
b10 /
1%
#680
0%
#685
b11 /
1%
#690
0%
#695
b100 /
1%
#700
0%
#705
b101 /
1%
#710
0%
#715
b110 /
1%
#720
0%
#725
b11110101 !
b11110101 (
b11110101 +
b101 -
b101 .
b1111101010 #
b1111101010 )
b1111101010 ,
1*
b111 /
1%
#730
0%
#735
1'
0*
b1000 /
1%
#740
0%
#745
b1001 /
1%
#750
0%
#755
b1010 /
1%
#760
0%
#765
b1011 /
1%
#770
0%
#775
b1100 /
1%
#780
0%
#785
b1101 /
1%
#790
0%
#795
b1110 /
1%
#800
0%
#805
b1111 /
1%
#810
0%
#815
b0 /
1%
#820
0%
#825
b1 /
1%
#830
0%
#835
b10 /
1%
#840
0%
#845
b11 /
1%
#850
0%
#855
b100 /
1%
#860
0%
#865
b101 /
1%
#870
0%
#875
b110 /
1%
#880
0%
#885
b11101010 !
b11101010 (
b11101010 +
b1111010101 #
b1111010101 )
b1111010101 ,
b110 -
b110 .
1*
b111 /
1%
#890
0%
#895
0'
0*
b1000 /
1%
#900
0%
#905
b1001 /
1%
#910
0%
#915
b1010 /
1%
#920
0%
#925
b1011 /
1%
#930
0%
#935
b1100 /
1%
#940
0%
#945
b1101 /
1%
#950
0%
#955
b1110 /
1%
#960
0%
#965
b1111 /
1%
#970
0%
#975
b0 /
1%
#980
0%
#985
b1 /
1%
#990
0%
#995
b10 /
1%
#1000
0%
#1005
b11 /
1%
#1010
0%
#1015
b100 /
1%
#1020
0%
#1025
b101 /
1%
#1030
0%
#1035
b110 /
1%
#1040
0%
#1045
b11010101 !
b11010101 (
b11010101 +
b111 -
b111 .
b1110101010 #
b1110101010 )
b1110101010 ,
1*
b111 /
1%
#1050
0%
#1055
1'
0*
b1000 /
1%
#1060
0%
#1065
b1001 /
1%
#1070
0%
#1075
b1010 /
1%
#1080
0%
#1085
b1011 /
1%
#1090
0%
#1095
b1100 /
1%
#1100
0%
#1105
b1101 /
1%
#1110
0%
#1115
b1110 /
1%
#1120
0%
#1125
b1111 /
1%
#1130
0%
#1135
b0 /
1%
#1140
0%
#1145
b1 /
1%
#1150
0%
#1155
b10 /
1%
#1160
0%
#1165
b11 /
1%
#1170
0%
#1175
b100 /
1%
#1180
0%
#1185
b101 /
1%
#1190
0%
#1195
b110 /
1%
#1200
0%
#1205
b10101010 !
b10101010 (
b10101010 +
b1101010101 #
b1101010101 )
b1101010101 ,
b1000 -
b1000 .
1*
b111 /
1%
#1210
0%
#1215
0'
0*
b1000 /
1%
#1220
0%
#1225
b1001 /
1%
#1230
0%
#1235
b1010 /
1%
#1240
0%
#1245
b1011 /
1%
#1250
0%
#1255
b1100 /
1%
#1260
0%
#1265
b1101 /
1%
#1270
0%
#1275
b1110 /
1%
#1280
0%
#1285
b1111 /
1%
#1290
0%
#1295
b0 /
1%
#1300
0%
#1305
b1 /
1%
#1310
0%
#1315
b10 /
1%
#1320
0%
#1325
b11 /
1%
#1330
0%
#1335
b100 /
1%
#1340
0%
#1345
b101 /
1%
#1350
0%
#1355
b110 /
1%
#1360
0%
#1365
b1010101 !
b1010101 (
b1010101 +
b1001 -
b1001 .
b1010101010 #
b1010101010 )
b1010101010 ,
1*
b111 /
1%
#1370
0%
#1375
1'
0*
b1000 /
1%
#1380
0%
#1385
b1001 /
1%
#1390
0%
#1395
b1010 /
1%
#1400
0%
#1405
b1011 /
1%
#1410
0%
#1415
b1100 /
1%
#1420
0%
#1425
b1101 /
1%
#1430
0%
#1435
b1110 /
1%
#1440
0%
#1445
b1111 /
1%
#1450
0%
#1455
b0 /
1%
#1460
0%
#1465
b1 /
1%
#1470
0%
#1475
b10 /
1%
#1480
0%
#1485
b11 /
1%
#1490
0%
#1495
b100 /
1%
#1500
0%
#1505
b101 /
1%
#1510
0%
#1515
b110 /
1%
#1520
0%
#1525
b10101010 !
b10101010 (
b10101010 +
0"
b101010101 #
b101010101 )
b101010101 ,
1$
b1010 -
b1010 .
1*
b111 /
1%
#1530
0%
#1535
1"
0'
0*
b0 /
1%
#1540
0%
#1545
b1 /
1%
#1550
0%
#1555
b10 /
1%
#1560
0%
#1565
b11 /
1%
#1570
0%
#1575
b100 /
1%
#1580
0%
#1585
b101 /
1%
#1590
0%
#1595
b110 /
1%
#1600
0%
#1605
b1010101 !
b1010101 (
b1010101 +
0$
b1011 -
b1011 .
b1010101010 #
b1010101010 )
b1010101010 ,
1*
b111 /
1%
#1610
0%
#1615
0*
b1000 /
1%
#1620
0%
#1625
b1001 /
1%
#1630
0%
#1635
b1010 /
1%
#1640
0%
#1645
b1011 /
1%
#1650
0%
#1655
b1100 /
1%
#1660
0%
#1665
b1101 /
1%
#1670
0%
#1675
b1110 /
1%
#1680
0%
#1685
b1111 /
1%
#1690
0%
#1695
1'
b0 /
1%
#1700
0%
#1705
b1 /
1%
#1710
0%
#1715
b10 /
1%
#1720
0%
#1725
b11 /
1%
#1730
0%
#1735
b100 /
1%
#1740
0%
#1745
b101 /
1%
#1750
0%
#1755
b110 /
1%
#1760
0%
#1765
b10101010 !
b10101010 (
b10101010 +
b101010101 #
b101010101 )
b101010101 ,
b1100 -
b1100 .
1*
b111 /
1%
#1770
0%
#1775
0*
b1000 /
1%
#1780
0%
#1785
b1001 /
1%
#1790
0%
#1795
b1010 /
1%
#1800
0%
#1805
b1011 /
1%
#1810
0%
#1815
b1100 /
1%
#1820
0%
#1825
b1101 /
1%
#1830
0%
#1835
b1110 /
1%
#1840
0%
#1845
b1111 /
1%
#1850
0%
#1855
0'
b0 /
1%
#1860
0%
#1865
b1 /
1%
#1870
0%
#1875
b10 /
1%
#1880
0%
#1885
b11 /
1%
#1890
0%
#1895
b100 /
1%
#1900
0%
#1905
b101 /
1%
#1910
0%
#1915
b110 /
1%
#1920
0%
#1925
b1010101 !
b1010101 (
b1010101 +
b1101 -
b1101 .
b1010101010 #
b1010101010 )
b1010101010 ,
1*
b111 /
1%
#1930
0%
#1935
0*
b1000 /
1%
#1940
0%
#1945
b1001 /
1%
#1950
0%
#1955
b1010 /
1%
#1960
0%
#1965
b1011 /
1%
#1970
0%
#1975
b1100 /
1%
#1980
0%
#1985
b1101 /
1%
#1990
0%
#1995
b1110 /
1%
#2000
0%
#2005
b1111 /
1%
#2010
0%
#2015
1'
b0 /
1%
#2020
0%
#2025
b1 /
1%
#2030
0%
#2035
b10 /
1%
#2040
0%
#2045
b11 /
1%
#2050
0%
#2055
b100 /
1%
#2060
0%
#2065
b101 /
1%
#2070
0%
#2075
b110 /
1%
#2080
0%
#2085
b10101010 !
b10101010 (
b10101010 +
b101010101 #
b101010101 )
b101010101 ,
b1110 -
b1110 .
1*
b111 /
1%
#2090
0%
#2095
0*
b1000 /
1%
#2100
0%
#2105
b1001 /
1%
#2110
0%
#2115
b1010 /
1%
#2120
0%
#2125
b1011 /
1%
#2130
0%
#2135
b1100 /
1%
#2140
0%
#2145
b1101 /
1%
#2150
0%
#2155
b1110 /
1%
#2160
0%
#2165
b1111 /
1%
#2170
0%
#2175
b0 /
1%
#2180
0%
#2185
b1 /
1%
